simWorkspace/StreamPlayer/test.vcd
$version Generated by VerilatedVcd $end
$date Mon Mar 28 04:39:16 2022
 $end
$timescale   1ns $end

 $scope module TOP $end
  $var wire  8 3$ axil4Ctrl_araddr [7:0] $end
  $var wire  3 ;$ axil4Ctrl_arprot [2:0] $end
  $var wire  1 +$ axil4Ctrl_arready $end
  $var wire  1 #$ axil4Ctrl_arvalid $end
  $var wire  8 9# axil4Ctrl_awaddr [7:0] $end
  $var wire  3 A# axil4Ctrl_awprot [2:0] $end
  $var wire  1 1# axil4Ctrl_awready $end
  $var wire  1 )# axil4Ctrl_awvalid $end
  $var wire  1 q# axil4Ctrl_bready $end
  $var wire  2 y# axil4Ctrl_bresp [1:0] $end
  $var wire  1 i# axil4Ctrl_bvalid $end
  $var wire 32 S$ axil4Ctrl_rdata [31:0] $end
  $var wire  1 K$ axil4Ctrl_rready $end
  $var wire  2 [$ axil4Ctrl_rresp [1:0] $end
  $var wire  1 C$ axil4Ctrl_rvalid $end
  $var wire 32 Y# axil4Ctrl_wdata [31:0] $end
  $var wire  1 Q# axil4Ctrl_wready $end
  $var wire  4 a# axil4Ctrl_wstrb [3:0] $end
  $var wire  1 I# axil4Ctrl_wvalid $end
  $var wire  1 {$ clk $end
  $var wire 32 s$ data_master_payload [31:0] $end
  $var wire  1 k$ data_master_ready $end
  $var wire  1 c$ data_master_valid $end
  $var wire  1 %% reset $end
  $scope module StreamPlayer $end
   $var wire  8 '" axil4Ctrl_ar_rData_addr [7:0] $end
   $var wire  3 /" axil4Ctrl_ar_rData_prot [2:0] $end
   $var wire  1 ?" axil4Ctrl_ar_rValid $end
   $var wire  8 3$ axil4Ctrl_araddr [7:0] $end
   $var wire  3 ;$ axil4Ctrl_arprot [2:0] $end
   $var wire  1 +$ axil4Ctrl_arready $end
   $var wire  1 #$ axil4Ctrl_arvalid $end
   $var wire  8 9# axil4Ctrl_awaddr [7:0] $end
   $var wire  3 A# axil4Ctrl_awprot [2:0] $end
   $var wire  1 1# axil4Ctrl_awready $end
   $var wire  1 )# axil4Ctrl_awvalid $end
   $var wire  1 q# axil4Ctrl_bready $end
   $var wire  2 y# axil4Ctrl_bresp [1:0] $end
   $var wire  1 i# axil4Ctrl_bvalid $end
   $var wire 32 S$ axil4Ctrl_rdata [31:0] $end
   $var wire  1 K$ axil4Ctrl_rready $end
   $var wire  2 [$ axil4Ctrl_rresp [1:0] $end
   $var wire  1 C$ axil4Ctrl_rvalid $end
   $var wire 32 Y# axil4Ctrl_wdata [31:0] $end
   $var wire  1 Q# axil4Ctrl_wready $end
   $var wire  4 a# axil4Ctrl_wstrb [3:0] $end
   $var wire  1 I# axil4Ctrl_wvalid $end
   $var wire  1 {$ clk $end
   $var wire  7 ; dataFifo_io_availability [6:0] $end
   $var wire  1 !# dataFifo_io_flush_driver $end
   $var wire  7 3 dataFifo_io_occupancy [6:0] $end
   $var wire 32 }! dataFifo_io_pop_payload [31:0] $end
   $var wire  1 + dataFifo_io_pop_valid $end
   $var wire 32 Y# dataFifo_io_push_payload [31:0] $end
   $var wire  1 # dataFifo_io_push_ready $end
   $var wire 32 s$ data_master_payload [31:0] $end
   $var wire  1 k$ data_master_ready $end
   $var wire  1 c$ data_master_valid $end
   $var wire  8 '" readDataStage_payload_addr [7:0] $end
   $var wire  3 /" readDataStage_payload_prot [2:0] $end
   $var wire  1 K$ readDataStage_ready $end
   $var wire  1 ?" readDataStage_valid $end
   $var wire  1 5% readHaltRequest $end
   $var wire  1 -% readOccur $end
   $var wire 32 u! readRsp_data [31:0] $end
   $var wire  2 =% readRsp_resp [1:0] $end
   $var wire  1 %% reset $end
   $var wire  1 7" when_Stream_l342 $end
   $var wire  1 G" when_Stream_l342_1 $end
   $var wire  1 5% writeHaltRequest $end
   $var wire  1 -! writeJoinEvent_fire $end
   $var wire  1 %! writeJoinEvent_ready $end
   $var wire  2 =% writeJoinEvent_translated_payload_resp [1:0] $end
   $var wire  1 %! writeJoinEvent_translated_ready $end
   $var wire  1 { writeJoinEvent_translated_valid $end
   $var wire  1 { writeJoinEvent_valid $end
   $var wire  1 -! writeOccur $end
   $var wire  2 =% writeRsp_resp [1:0] $end
   $scope module dataFifo $end
    $var wire  1 {$ clk $end
    $var wire  7 ; io_availability [6:0] $end
    $var wire  1 !# io_flush $end
    $var wire  7 3 io_occupancy [6:0] $end
    $var wire 32 }! io_pop_payload [31:0] $end
    $var wire  1 k$ io_pop_ready $end
    $var wire  1 + io_pop_valid $end
    $var wire 32 Y# io_push_payload [31:0] $end
    $var wire  1 # io_push_ready $end
    $var wire  1 5! io_push_valid $end
    $var wire  1 K logic_empty $end
    $var wire  1 S logic_full $end
    $var wire  6 _" logic_popPtr_value [5:0] $end
    $var wire  6 U! logic_popPtr_valueNext [5:0] $end
    $var wire  1 s logic_popPtr_willClear $end
    $var wire  1 M! logic_popPtr_willIncrement $end
    $var wire  1 c logic_popPtr_willOverflow $end
    $var wire  1 g" logic_popPtr_willOverflowIfInc $end
    $var wire  1 e! logic_popping $end
    $var wire  6 w" logic_ptrDif [5:0] $end
    $var wire  1 C logic_ptrMatch $end
    $var wire  6 O" logic_pushPtr_value [5:0] $end
    $var wire  6 E! logic_pushPtr_valueNext [5:0] $end
    $var wire  1 k logic_pushPtr_willClear $end
    $var wire  1 =! logic_pushPtr_willIncrement $end
    $var wire  1 [ logic_pushPtr_willOverflow $end
    $var wire  1 W" logic_pushPtr_willOverflowIfInc $end
    $var wire  1 ]! logic_pushing $end
    $var wire  1 o" logic_risingOccupancy $end
    $var wire  1 %% reset $end
    $var wire  1 m! when_Stream_l954 $end
   $upscope $end
  $upscope $end
 $upscope $end
$enddefinitions $end


#0
1#
0+
b0000000 3
b1000000 ;
1C
1K
0S
0[
0c
0k
0s
0{
1%!
0-!
05!
0=!
b000000 E!
0M!
b000000 U!
0]!
0e!
0m!
b00000000000000000000000000000000 u!
b00011100010011000111001011000101 }!
b01100011 '"
b001 /"
17"
0?"
1G"
b000000 O"
0W"
b000000 _"
0g"
0o"
b000000 w"
0!#
0)#
01#
b01000111 9#
b111 A#
0I#
0Q#
b01000101011001010100110010001000 Y#
b0100 a#
0i#
1q#
b00 y#
0#$
1+$
b10110101 3$
b100 ;$
0C$
1K$
b00000000000000000000000000000000 S$
b00 [$
0c$
0k$
b00011100010011000111001011000101 s$
0{$
1%%
0-%
05%
b00 =%
#80
0%%
#85
b00101001011000001010101111011010 }!
b10110101 '"
b100 /"
b00101001011000001010101111011010 s$
1{$
#87
0{$
#89
1{$
#91
0{$
#93
1{$
#95
0{$
#97
1{$
#99
0{$
#101
1{$
#103
0{$
#105
1{$
#107
0{$
#109
1{$
#111
0{$
#113
1{$
#115
0{$
#117
1{$
#119
0{$
#121
1{
1-!
15!
1=!
b000001 E!
1]!
1m!
1)#
11#
b00000000 9#
b110 A#
1I#
1Q#
b00000000000000000000000000000001 Y#
b1111 a#
1k$
1{$
#123
0{$
#125
b0000001 3
b0111111 ;
0C
0K
b000010 E!
07"
b000001 O"
1o"
b000001 w"
b00000000000000000000000000000010 Y#
1i#
0k$
1{$
#127
0{$
#129
1+
b0000010 3
b0111110 ;
b000011 E!
b00000000000000000000000000000001 }!
b000010 O"
b000010 w"
b00000000000000000000000000000011 Y#
1c$
b00000000000000000000000000000001 s$
1{$
#131
0{$
#133
b0000011 3
b0111101 ;
b000100 E!
b000011 O"
b000011 w"
b00000000000000000000000000000100 Y#
1{$
#135
0{$
#137
b0000100 3
b0111100 ;
b000101 E!
1M!
b000001 U!
1e!
0m!
b000100 O"
b000100 w"
b00000000000000000000000000000101 Y#
1k$
1{$
#139
0{$
#141
b000110 E!
b000010 U!
b00000000000000000000000000000010 }!
b000101 O"
b000001 _"
b00000000000000000000000000000110 Y#
b00000000000000000000000000000010 s$
1{$
#143
0{$
#145
b000111 E!
b000011 U!
b00000000000000000000000000000011 }!
b000110 O"
b000010 _"
b00000000000000000000000000000111 Y#
b00000000000000000000000000000011 s$
1{$
#147
0{$
#149
b001000 E!
0M!
0e!
1m!
b00000000000000000000000000000100 }!
b000111 O"
b000011 _"
b00000000000000000000000000001000 Y#
0k$
b00000000000000000000000000000100 s$
1{$
#151
0{$
#153
b0000101 3
b0111011 ;
b001001 E!
1M!
b000100 U!
1e!
0m!
b001000 O"
b000101 w"
b00000000000000000000000000001001 Y#
1k$
1{$
#155
0{$
#157
b001010 E!
b000101 U!
b00000000000000000000000000000101 }!
b001001 O"
b000100 _"
b00000000000000000000000000001010 Y#
b00000000000000000000000000000101 s$
1{$
#159
0{$
#161
b001011 E!
b000110 U!
b00000000000000000000000000000110 }!
b001010 O"
b000101 _"
b00000000000000000000000000001011 Y#
b00000000000000000000000000000110 s$
1{$
#163
0{$
#165
b001100 E!
b000111 U!
b00000000000000000000000000000111 }!
b001011 O"
b000110 _"
b00000000000000000000000000001100 Y#
b00000000000000000000000000000111 s$
1{$
#167
0{$
#169
b001101 E!
b001000 U!
b00000000000000000000000000001000 }!
b001100 O"
b000111 _"
b00000000000000000000000000001101 Y#
b00000000000000000000000000001000 s$
1{$
#171
0{$
#173
b001110 E!
0M!
0e!
1m!
b00000000000000000000000000001001 }!
b001101 O"
b001000 _"
b00000000000000000000000000001110 Y#
0k$
b00000000000000000000000000001001 s$
1{$
#175
0{$
#177
b0000110 3
b0111010 ;
b001111 E!
1M!
b001001 U!
1e!
0m!
b001110 O"
b000110 w"
b00000000000000000000000000001111 Y#
1k$
1{$
#179
0{$
#181
b010000 E!
b001010 U!
b00000000000000000000000000001010 }!
b001111 O"
b001001 _"
b00000000000000000000000000010000 Y#
b00000000000000000000000000001010 s$
1{$
#183
0{$
#185
b010001 E!
0M!
0e!
1m!
b00000000000000000000000000001011 }!
b010000 O"
b001010 _"
b00000000000000000000000000010001 Y#
0k$
b00000000000000000000000000001011 s$
1{$
#187
0{$
#189
b0000111 3
b0111001 ;
b010010 E!
b010001 O"
b000111 w"
b00000000000000000000000000010010 Y#
1{$
#191
0{$
#193
b0001000 3
b0111000 ;
b010011 E!
b010010 O"
b001000 w"
b00000000000000000000000000010011 Y#
1{$
#195
0{$
#197
b0001001 3
b0110111 ;
b010100 E!
b010011 O"
b001001 w"
b00000000000000000000000000010100 Y#
1{$
#199
0{$
#201
b0001010 3
b0110110 ;
b010101 E!
1M!
b001011 U!
1e!
0m!
b010100 O"
b001010 w"
b00000000000000000000000000010101 Y#
1k$
1{$
#203
0{$
#205
b010110 E!
b001100 U!
b00000000000000000000000000001100 }!
b010101 O"
b001011 _"
b00000000000000000000000000010110 Y#
b00000000000000000000000000001100 s$
1{$
#207
0{$
#209
b010111 E!
b001101 U!
b00000000000000000000000000001101 }!
b010110 O"
b001100 _"
b00000000000000000000000000010111 Y#
b00000000000000000000000000001101 s$
1{$
#211
0{$
#213
b011000 E!
b001110 U!
b00000000000000000000000000001110 }!
b010111 O"
b001101 _"
b00000000000000000000000000011000 Y#
b00000000000000000000000000001110 s$
1{$
#215
0{$
#217
b011001 E!
0M!
0e!
1m!
b00000000000000000000000000001111 }!
b011000 O"
b001110 _"
b00000000000000000000000000011001 Y#
0k$
b00000000000000000000000000001111 s$
1{$
#219
0{$
#221
b0001011 3
b0110101 ;
b011010 E!
1M!
b001111 U!
1e!
0m!
b011001 O"
b001011 w"
b00000000000000000000000000011010 Y#
1k$
1{$
#223
0{$
#225
b011011 E!
b010000 U!
b00000000000000000000000000010000 }!
b011010 O"
b001111 _"
b00000000000000000000000000011011 Y#
b00000000000000000000000000010000 s$
1{$
#227
0{$
#229
b011100 E!
0M!
0e!
1m!
b00000000000000000000000000010001 }!
b011011 O"
b010000 _"
b00000000000000000000000000011100 Y#
0k$
b00000000000000000000000000010001 s$
1{$
#231
0{$
#233
b0001100 3
b0110100 ;
b011101 E!
1M!
b010001 U!
1e!
0m!
b011100 O"
b001100 w"
b00000000000000000000000000011101 Y#
1k$
1{$
#235
0{$
#237
b011110 E!
0M!
0e!
1m!
b00000000000000000000000000010010 }!
b011101 O"
b010001 _"
b00000000000000000000000000011110 Y#
0k$
b00000000000000000000000000010010 s$
1{$
#239
0{$
#241
b0001101 3
b0110011 ;
b011111 E!
b011110 O"
b001101 w"
b00000000000000000000000000011111 Y#
1{$
#243
0{$
#245
b0001110 3
b0110010 ;
b100000 E!
b011111 O"
b001110 w"
b00000000000000000000000000100000 Y#
1{$
#247
0{$
#249
b0001111 3
b0110001 ;
b100001 E!
1M!
b010010 U!
1e!
0m!
b100000 O"
b001111 w"
b00000000000000000000000000100001 Y#
1k$
1{$
#251
0{$
#253
b100010 E!
0M!
0e!
1m!
b00000000000000000000000000010011 }!
b100001 O"
b010010 _"
b00000000000000000000000000100010 Y#
0k$
b00000000000000000000000000010011 s$
1{$
#255
0{$
#257
b0010000 3
b0110000 ;
b100011 E!
1M!
b010011 U!
1e!
0m!
b100010 O"
b010000 w"
b00000000000000000000000000100011 Y#
1k$
1{$
#259
0{$
#261
b100100 E!
0M!
0e!
1m!
b00000000000000000000000000010100 }!
b100011 O"
b010011 _"
b00000000000000000000000000100100 Y#
0k$
b00000000000000000000000000010100 s$
1{$
#263
0{$
#265
b0010001 3
b0101111 ;
b100101 E!
b100100 O"
b010001 w"
b00000000000000000000000000100101 Y#
1{$
#267
0{$
#269
b0010010 3
b0101110 ;
b100110 E!
1M!
b010100 U!
1e!
0m!
b100101 O"
b010010 w"
b00000000000000000000000000100110 Y#
1k$
1{$
#271
0{$
#273
b100111 E!
0M!
0e!
1m!
b00000000000000000000000000010101 }!
b100110 O"
b010100 _"
b00000000000000000000000000100111 Y#
0k$
b00000000000000000000000000010101 s$
1{$
#275
0{$
#277
b0010011 3
b0101101 ;
b101000 E!
b100111 O"
b010011 w"
b00000000000000000000000000101000 Y#
1{$
#279
0{$
#281
b0010100 3
b0101100 ;
b101001 E!
1M!
b010101 U!
1e!
0m!
b101000 O"
b010100 w"
b00000000000000000000000000101001 Y#
1k$
1{$
#283
0{$
#285
b101010 E!
0M!
0e!
1m!
b00000000000000000000000000010110 }!
b101001 O"
b010101 _"
b00000000000000000000000000101010 Y#
0k$
b00000000000000000000000000010110 s$
1{$
#287
0{$
#289
b0010101 3
b0101011 ;
b101011 E!
b101010 O"
b010101 w"
b00000000000000000000000000101011 Y#
1{$
#291
0{$
#293
b0010110 3
b0101010 ;
b101100 E!
1M!
b010110 U!
1e!
0m!
b101011 O"
b010110 w"
b00000000000000000000000000101100 Y#
1k$
1{$
#295
0{$
#297
b101101 E!
b010111 U!
b00000000000000000000000000010111 }!
b101100 O"
b010110 _"
b00000000000000000000000000101101 Y#
b00000000000000000000000000010111 s$
1{$
#299
0{$
#301
b101110 E!
0M!
0e!
1m!
b00000000000000000000000000011000 }!
b101101 O"
b010111 _"
b00000000000000000000000000101110 Y#
0k$
b00000000000000000000000000011000 s$
1{$
#303
0{$
#305
b0010111 3
b0101001 ;
b101111 E!
1M!
b011000 U!
1e!
0m!
b101110 O"
b010111 w"
b00000000000000000000000000101111 Y#
1k$
1{$
#307
0{$
#309
b110000 E!
0M!
0e!
1m!
b00000000000000000000000000011001 }!
b101111 O"
b011000 _"
b00000000000000000000000000110000 Y#
0k$
b00000000000000000000000000011001 s$
1{$
#311
0{$
#313
b0011000 3
b0101000 ;
b110001 E!
1M!
b011001 U!
1e!
0m!
b110000 O"
b011000 w"
b00000000000000000000000000110001 Y#
1k$
1{$
#315
0{$
#317
b110010 E!
b011010 U!
b00000000000000000000000000011010 }!
b110001 O"
b011001 _"
b00000000000000000000000000110010 Y#
b00000000000000000000000000011010 s$
1{$
#319
0{$
#321
b110011 E!
b011011 U!
b00000000000000000000000000011011 }!
b110010 O"
b011010 _"
b00000000000000000000000000110011 Y#
b00000000000000000000000000011011 s$
1{$
#323
0{$
#325
b110100 E!
0M!
0e!
1m!
b00000000000000000000000000011100 }!
b110011 O"
b011011 _"
b00000000000000000000000000110100 Y#
0k$
b00000000000000000000000000011100 s$
1{$
#327
0{$
#329
b0011001 3
b0100111 ;
b110101 E!
1M!
b011100 U!
1e!
0m!
b110100 O"
b011001 w"
b00000000000000000000000000110101 Y#
1k$
1{$
#331
0{$
#333
b110110 E!
0M!
0e!
1m!
b00000000000000000000000000011101 }!
b110101 O"
b011100 _"
b00000000000000000000000000110110 Y#
0k$
b00000000000000000000000000011101 s$
1{$
#335
0{$
#337
b0011010 3
b0100110 ;
b110111 E!
b110110 O"
b011010 w"
b00000000000000000000000000110111 Y#
1{$
#339
0{$
#341
b0011011 3
b0100101 ;
b111000 E!
1M!
b011101 U!
1e!
0m!
b110111 O"
b011011 w"
b00000000000000000000000000111000 Y#
1k$
1{$
#343
0{$
#345
b111001 E!
0M!
0e!
1m!
b00000000000000000000000000011110 }!
b111000 O"
b011101 _"
b00000000000000000000000000111001 Y#
0k$
b00000000000000000000000000011110 s$
1{$
#347
0{$
#349
b0011100 3
b0100100 ;
b111010 E!
1M!
b011110 U!
1e!
0m!
b111001 O"
b011100 w"
b00000000000000000000000000111010 Y#
1k$
1{$
#351
0{$
#353
b111011 E!
b011111 U!
b00000000000000000000000000011111 }!
b111010 O"
b011110 _"
b00000000000000000000000000111011 Y#
b00000000000000000000000000011111 s$
1{$
#355
0{$
#357
b111100 E!
b100000 U!
b00000000000000000000000000100000 }!
b111011 O"
b011111 _"
b00000000000000000000000000111100 Y#
b00000000000000000000000000100000 s$
1{$
#359
0{$
#361
b111101 E!
b100001 U!
b00000000000000000000000000100001 }!
b111100 O"
b100000 _"
b00000000000000000000000000111101 Y#
b00000000000000000000000000100001 s$
1{$
#363
0{$
#365
b111110 E!
0M!
0e!
1m!
b00000000000000000000000000100010 }!
b111101 O"
b100001 _"
b00000000000000000000000000111110 Y#
0k$
b00000000000000000000000000100010 s$
1{$
#367
0{$
#369
b0011101 3
b0100011 ;
b111111 E!
1M!
b100010 U!
1e!
0m!
b111110 O"
b011101 w"
b00000000000000000000000000111111 Y#
1k$
1{$
#371
0{$
#373
1[
b000000 E!
b100011 U!
b00000000000000000000000000100011 }!
b111111 O"
1W"
b100010 _"
b00000000000000000000000001000000 Y#
b00000000000000000000000000100011 s$
1{$
#375
0{$
#377
0[
b000001 E!
0M!
0e!
1m!
b00000000000000000000000000100100 }!
b000000 O"
0W"
b100011 _"
b00000000000000000000000001000001 Y#
0k$
b00000000000000000000000000100100 s$
1{$
#379
0{$
#381
b0011110 3
b0100010 ;
b000010 E!
1M!
b100100 U!
1e!
0m!
b000001 O"
b011110 w"
b00000000000000000000000001000010 Y#
1k$
1{$
#383
0{$
#385
b000011 E!
b100101 U!
b00000000000000000000000000100101 }!
b000010 O"
b100100 _"
b00000000000000000000000001000011 Y#
b00000000000000000000000000100101 s$
1{$
#387
0{$
#389
b000100 E!
0M!
0e!
1m!
b00000000000000000000000000100110 }!
b000011 O"
b100101 _"
b00000000000000000000000001000100 Y#
0k$
b00000000000000000000000000100110 s$
1{$
#391
0{$
#393
b0011111 3
b0100001 ;
b000101 E!
1M!
b100110 U!
1e!
0m!
b000100 O"
b011111 w"
b00000000000000000000000001000101 Y#
1k$
1{$
#395
0{$
#397
b000110 E!
b100111 U!
b00000000000000000000000000100111 }!
b000101 O"
b100110 _"
b00000000000000000000000001000110 Y#
b00000000000000000000000000100111 s$
1{$
#399
0{$
#401
b000111 E!
b101000 U!
b00000000000000000000000000101000 }!
b000110 O"
b100111 _"
b00000000000000000000000001000111 Y#
b00000000000000000000000000101000 s$
1{$
#403
0{$
#405
b001000 E!
b101001 U!
b00000000000000000000000000101001 }!
b000111 O"
b101000 _"
b00000000000000000000000001001000 Y#
b00000000000000000000000000101001 s$
1{$
#407
0{$
#409
b001001 E!
0M!
0e!
1m!
b00000000000000000000000000101010 }!
b001000 O"
b101001 _"
b00000000000000000000000001001001 Y#
0k$
b00000000000000000000000000101010 s$
1{$
#411
0{$
#413
b0100000 3
b0100000 ;
b001010 E!
1M!
b101010 U!
1e!
0m!
b001001 O"
b100000 w"
b00000000000000000000000001001010 Y#
1k$
1{$
#415
0{$
#417
b001011 E!
0M!
0e!
1m!
b00000000000000000000000000101011 }!
b001010 O"
b101010 _"
b00000000000000000000000001001011 Y#
0k$
b00000000000000000000000000101011 s$
1{$
#419
0{$
#421
b0100001 3
b0011111 ;
b001100 E!
b001011 O"
b100001 w"
b00000000000000000000000001001100 Y#
1{$
#423
0{$
#425
b0100010 3
b0011110 ;
b001101 E!
b001100 O"
b100010 w"
b00000000000000000000000001001101 Y#
1{$
#427
0{$
#429
b0100011 3
b0011101 ;
b001110 E!
1M!
b101011 U!
1e!
0m!
b001101 O"
b100011 w"
b00000000000000000000000001001110 Y#
1k$
1{$
#431
0{$
#433
b001111 E!
b101100 U!
b00000000000000000000000000101100 }!
b001110 O"
b101011 _"
b00000000000000000000000001001111 Y#
b00000000000000000000000000101100 s$
1{$
#435
0{$
#437
b010000 E!
b101101 U!
b00000000000000000000000000101101 }!
b001111 O"
b101100 _"
b00000000000000000000000001010000 Y#
b00000000000000000000000000101101 s$
1{$
#439
0{$
#441
b010001 E!
0M!
0e!
1m!
b00000000000000000000000000101110 }!
b010000 O"
b101101 _"
b00000000000000000000000001010001 Y#
0k$
b00000000000000000000000000101110 s$
1{$
#443
0{$
#445
b0100100 3
b0011100 ;
b010010 E!
1M!
b101110 U!
1e!
0m!
b010001 O"
b100100 w"
b00000000000000000000000001010010 Y#
1k$
1{$
#447
0{$
#449
b010011 E!
b101111 U!
b00000000000000000000000000101111 }!
b010010 O"
b101110 _"
b00000000000000000000000001010011 Y#
b00000000000000000000000000101111 s$
1{$
#451
0{$
#453
b010100 E!
b110000 U!
b00000000000000000000000000110000 }!
b010011 O"
b101111 _"
b00000000000000000000000001010100 Y#
b00000000000000000000000000110000 s$
1{$
#455
0{$
#457
b010101 E!
b110001 U!
b00000000000000000000000000110001 }!
b010100 O"
b110000 _"
b00000000000000000000000001010101 Y#
b00000000000000000000000000110001 s$
1{$
#459
0{$
#461
b010110 E!
0M!
0e!
1m!
b00000000000000000000000000110010 }!
b010101 O"
b110001 _"
b00000000000000000000000001010110 Y#
0k$
b00000000000000000000000000110010 s$
1{$
#463
0{$
#465
b0100101 3
b0011011 ;
b010111 E!
1M!
b110010 U!
1e!
0m!
b010110 O"
b100101 w"
b00000000000000000000000001010111 Y#
1k$
1{$
#467
0{$
#469
b011000 E!
0M!
0e!
1m!
b00000000000000000000000000110011 }!
b010111 O"
b110010 _"
b00000000000000000000000001011000 Y#
0k$
b00000000000000000000000000110011 s$
1{$
#471
0{$
#473
b0100110 3
b0011010 ;
b011001 E!
1M!
b110011 U!
1e!
0m!
b011000 O"
b100110 w"
b00000000000000000000000001011001 Y#
1k$
1{$
#475
0{$
#477
b011010 E!
b110100 U!
b00000000000000000000000000110100 }!
b011001 O"
b110011 _"
b00000000000000000000000001011010 Y#
b00000000000000000000000000110100 s$
1{$
#479
0{$
#481
b011011 E!
b110101 U!
b00000000000000000000000000110101 }!
b011010 O"
b110100 _"
b00000000000000000000000001011011 Y#
b00000000000000000000000000110101 s$
1{$
#483
0{$
#485
b011100 E!
b110110 U!
b00000000000000000000000000110110 }!
b011011 O"
b110101 _"
b00000000000000000000000001011100 Y#
b00000000000000000000000000110110 s$
1{$
#487
0{$
#489
b011101 E!
0M!
0e!
1m!
b00000000000000000000000000110111 }!
b011100 O"
b110110 _"
b00000000000000000000000001011101 Y#
0k$
b00000000000000000000000000110111 s$
1{$
#491
0{$
#493
b0100111 3
b0011001 ;
b011110 E!
1M!
b110111 U!
1e!
0m!
b011101 O"
b100111 w"
b00000000000000000000000001011110 Y#
1k$
1{$
#495
0{$
#497
b011111 E!
0M!
0e!
1m!
b00000000000000000000000000111000 }!
b011110 O"
b110111 _"
b00000000000000000000000001011111 Y#
0k$
b00000000000000000000000000111000 s$
1{$
#499
0{$
#501
b0101000 3
b0011000 ;
b100000 E!
b011111 O"
b101000 w"
b00000000000000000000000001100000 Y#
1{$
#503
0{$
#505
b0101001 3
b0010111 ;
b100001 E!
1M!
b111000 U!
1e!
0m!
b100000 O"
b101001 w"
b00000000000000000000000001100001 Y#
1k$
1{$
#507
0{$
#509
b100010 E!
0M!
0e!
1m!
b00000000000000000000000000111001 }!
b100001 O"
b111000 _"
b00000000000000000000000001100010 Y#
0k$
b00000000000000000000000000111001 s$
1{$
#511
0{$
#513
b0101010 3
b0010110 ;
b100011 E!
1M!
b111001 U!
1e!
0m!
b100010 O"
b101010 w"
b00000000000000000000000001100011 Y#
1k$
1{$
#515
0{$
#517
b100100 E!
b111010 U!
b00000000000000000000000000111010 }!
b100011 O"
b111001 _"
b00000000000000000000000001100100 Y#
b00000000000000000000000000111010 s$
1{$
#519
0{$
#521
b100101 E!
b111011 U!
b00000000000000000000000000111011 }!
b100100 O"
b111010 _"
b00000000000000000000000001100101 Y#
b00000000000000000000000000111011 s$
1{$
#523
0{$
#525
b100110 E!
b111100 U!
b00000000000000000000000000111100 }!
b100101 O"
b111011 _"
b00000000000000000000000001100110 Y#
b00000000000000000000000000111100 s$
1{$
#527
0{$
#529
b100111 E!
b111101 U!
b00000000000000000000000000111101 }!
b100110 O"
b111100 _"
b00000000000000000000000001100111 Y#
b00000000000000000000000000111101 s$
1{$
#531
0{$
#533
b101000 E!
b111110 U!
b00000000000000000000000000111110 }!
b100111 O"
b111101 _"
b00000000000000000000000001101000 Y#
b00000000000000000000000000111110 s$
1{$
#535
0{$
#537
b101001 E!
0M!
0e!
1m!
b00000000000000000000000000111111 }!
b101000 O"
b111110 _"
b00000000000000000000000001101001 Y#
0k$
b00000000000000000000000000111111 s$
1{$
#539
0{$
#541
b0101011 3
b0010101 ;
b101010 E!
b101001 O"
b101011 w"
b00000000000000000000000001101010 Y#
1{$
#543
0{$
#545
b0101100 3
b0010100 ;
b101011 E!
1M!
b111111 U!
1e!
0m!
b101010 O"
b101100 w"
b00000000000000000000000001101011 Y#
1k$
1{$
#547
0{$
#549
1c
b101100 E!
b000000 U!
b00000000000000000000000001000000 }!
b101011 O"
b111111 _"
1g"
b00000000000000000000000001101100 Y#
b00000000000000000000000001000000 s$
1{$
#551
0{$
#553
0c
b101101 E!
b000001 U!
b00000000000000000000000001000001 }!
b101100 O"
b000000 _"
0g"
b00000000000000000000000001101101 Y#
b00000000000000000000000001000001 s$
1{$
#555
0{$
#557
b101110 E!
b000010 U!
b00000000000000000000000001000010 }!
b101101 O"
b000001 _"
b00000000000000000000000001101110 Y#
b00000000000000000000000001000010 s$
1{$
#559
0{$
#561
b101111 E!
0M!
0e!
1m!
b00000000000000000000000001000011 }!
b101110 O"
b000010 _"
b00000000000000000000000001101111 Y#
0k$
b00000000000000000000000001000011 s$
1{$
#563
0{$
#565
b0101101 3
b0010011 ;
b110000 E!
b101111 O"
b101101 w"
b00000000000000000000000001110000 Y#
1{$
#567
0{$
#569
b0101110 3
b0010010 ;
b110001 E!
1M!
b000011 U!
1e!
0m!
b110000 O"
b101110 w"
b00000000000000000000000001110001 Y#
1k$
1{$
#571
0{$
#573
b110010 E!
b000100 U!
b00000000000000000000000001000100 }!
b110001 O"
b000011 _"
b00000000000000000000000001110010 Y#
b00000000000000000000000001000100 s$
1{$
#575
0{$
#577
b110011 E!
0M!
0e!
1m!
b00000000000000000000000001000101 }!
b110010 O"
b000100 _"
b00000000000000000000000001110011 Y#
0k$
b00000000000000000000000001000101 s$
1{$
#579
0{$
#581
b0101111 3
b0010001 ;
b110100 E!
b110011 O"
b101111 w"
b00000000000000000000000001110100 Y#
1{$
#583
0{$
#585
b0110000 3
b0010000 ;
b110101 E!
b110100 O"
b110000 w"
b00000000000000000000000001110101 Y#
1{$
#587
0{$
#589
b0110001 3
b0001111 ;
b110110 E!
1M!
b000101 U!
1e!
0m!
b110101 O"
b110001 w"
b00000000000000000000000001110110 Y#
1k$
1{$
#591
0{$
#593
b110111 E!
b000110 U!
b00000000000000000000000001000110 }!
b110110 O"
b000101 _"
b00000000000000000000000001110111 Y#
b00000000000000000000000001000110 s$
1{$
#595
0{$
#597
b111000 E!
0M!
0e!
1m!
b00000000000000000000000001000111 }!
b110111 O"
b000110 _"
b00000000000000000000000001111000 Y#
0k$
b00000000000000000000000001000111 s$
1{$
#599
0{$
#601
b0110010 3
b0001110 ;
b111001 E!
b111000 O"
b110010 w"
b00000000000000000000000001111001 Y#
1{$
#603
0{$
#605
b0110011 3
b0001101 ;
b111010 E!
1M!
b000111 U!
1e!
0m!
b111001 O"
b110011 w"
b00000000000000000000000001111010 Y#
1k$
1{$
#607
0{$
#609
b111011 E!
b001000 U!
b00000000000000000000000001001000 }!
b111010 O"
b000111 _"
b00000000000000000000000001111011 Y#
b00000000000000000000000001001000 s$
1{$
#611
0{$
#613
b111100 E!
0M!
0e!
1m!
b00000000000000000000000001001001 }!
b111011 O"
b001000 _"
b00000000000000000000000001111100 Y#
0k$
b00000000000000000000000001001001 s$
1{$
#615
0{$
#617
b0110100 3
b0001100 ;
b111101 E!
1M!
b001001 U!
1e!
0m!
b111100 O"
b110100 w"
b00000000000000000000000001111101 Y#
1k$
1{$
#619
0{$
#621
b111110 E!
0M!
0e!
1m!
b00000000000000000000000001001010 }!
b111101 O"
b001001 _"
b00000000000000000000000001111110 Y#
0k$
b00000000000000000000000001001010 s$
1{$
#623
0{$
#625
b0110101 3
b0001011 ;
b111111 E!
b111110 O"
b110101 w"
b00000000000000000000000001111111 Y#
1{$
#627
0{$
#629
b0110110 3
b0001010 ;
1[
b000000 E!
b111111 O"
1W"
b110110 w"
b00000000000000000000000010000000 Y#
1{$
#631
0{$
#633
b0110111 3
b0001001 ;
0[
b000001 E!
b000000 O"
0W"
b110111 w"
b00000000000000000000000010000001 Y#
1{$
#635
0{$
