simWorkspace/AxiLite4DDS/test.vcd
$version Generated by VerilatedVcd $end
$date Mon May 30 22:35:41 2022
 $end
$timescale   1ns $end

 $scope module TOP $end
  $var wire  8 g* axil4Ctrl_araddr [7:0] $end
  $var wire  3 o* axil4Ctrl_arprot [2:0] $end
  $var wire  1 _* axil4Ctrl_arready $end
  $var wire  1 W* axil4Ctrl_arvalid $end
  $var wire  8 m) axil4Ctrl_awaddr [7:0] $end
  $var wire  3 u) axil4Ctrl_awprot [2:0] $end
  $var wire  1 e) axil4Ctrl_awready $end
  $var wire  1 ]) axil4Ctrl_awvalid $end
  $var wire  1 G* axil4Ctrl_bready $end
  $var wire  2 O* axil4Ctrl_bresp [1:0] $end
  $var wire  1 ?* axil4Ctrl_bvalid $end
  $var wire 32 )+ axil4Ctrl_rdata [31:0] $end
  $var wire  1 !+ axil4Ctrl_rready $end
  $var wire  2 1+ axil4Ctrl_rresp [1:0] $end
  $var wire  1 w* axil4Ctrl_rvalid $end
  $var wire 32 /* axil4Ctrl_wdata [31:0] $end
  $var wire  1 '* axil4Ctrl_wready $end
  $var wire  4 7* axil4Ctrl_wstrb [3:0] $end
  $var wire  1 }) axil4Ctrl_wvalid $end
  $var wire  1 K, clk $end
  $var wire 32 I+ data_0_payload [31:0] $end
  $var wire  1 A+ data_0_ready $end
  $var wire  1 9+ data_0_valid $end
  $var wire 32 a+ data_1_payload [31:0] $end
  $var wire  1 Y+ data_1_ready $end
  $var wire  1 Q+ data_1_valid $end
  $var wire 32 y+ data_2_payload [31:0] $end
  $var wire  1 q+ data_2_ready $end
  $var wire  1 i+ data_2_valid $end
  $var wire 32 3, data_3_payload [31:0] $end
  $var wire  1 +, data_3_ready $end
  $var wire  1 #, data_3_valid $end
  $var wire  1 S, reset $end
  $var wire  1 ;, rf_clk $end
  $var wire  1 C, rf_resetn $end
  $scope module AxiLite4DDS $end
   $var wire  8 c axil4Ctrl_ar_rData_addr [7:0] $end
   $var wire  3 k axil4Ctrl_ar_rData_prot [2:0] $end
   $var wire  1 u% axil4Ctrl_ar_rValid $end
   $var wire  8 g* axil4Ctrl_araddr [7:0] $end
   $var wire  3 o* axil4Ctrl_arprot [2:0] $end
   $var wire  1 _* axil4Ctrl_arready $end
   $var wire  1 W* axil4Ctrl_arvalid $end
   $var wire  8 m) axil4Ctrl_awaddr [7:0] $end
   $var wire  3 u) axil4Ctrl_awprot [2:0] $end
   $var wire  1 e) axil4Ctrl_awready $end
   $var wire  1 ]) axil4Ctrl_awvalid $end
   $var wire  1 G* axil4Ctrl_bready $end
   $var wire  2 O* axil4Ctrl_bresp [1:0] $end
   $var wire  1 ?* axil4Ctrl_bvalid $end
   $var wire 32 )+ axil4Ctrl_rdata [31:0] $end
   $var wire  1 !+ axil4Ctrl_rready $end
   $var wire  2 1+ axil4Ctrl_rresp [1:0] $end
   $var wire  1 w* axil4Ctrl_rvalid $end
   $var wire 32 /* axil4Ctrl_wdata [31:0] $end
   $var wire  1 '* axil4Ctrl_wready $end
   $var wire  4 7* axil4Ctrl_wstrb [3:0] $end
   $var wire  1 }) axil4Ctrl_wvalid $end
   $var wire  1 K, clk $end
   $var wire  1 s clkCrossing_21_dataOut $end
   $var wire  1 -! clkCrossing_22_dataOut $end
   $var wire  8 5! clkCrossing_23_dataOut [7:0] $end
   $var wire 32 =! clkCrossing_24_dataOut [31:0] $end
   $var wire  1 E! clkCrossing_25_dataOut $end
   $var wire  8 M! clkCrossing_26_dataOut [7:0] $end
   $var wire  1 e! clkCrossing_27_dataOut $end
   $var wire  8 m! clkCrossing_28_dataOut [7:0] $end
   $var wire 32 u! clkCrossing_29_dataOut [31:0] $end
   $var wire  1 }! clkCrossing_30_dataOut $end
   $var wire  8 '" clkCrossing_31_dataOut [7:0] $end
   $var wire  1 ?" clkCrossing_32_dataOut $end
   $var wire  8 G" clkCrossing_33_dataOut [7:0] $end
   $var wire 32 O" clkCrossing_34_dataOut [31:0] $end
   $var wire  1 W" clkCrossing_35_dataOut $end
   $var wire  8 _" clkCrossing_36_dataOut [7:0] $end
   $var wire  1 w" clkCrossing_37_dataOut $end
   $var wire  8 !# clkCrossing_38_dataOut [7:0] $end
   $var wire 32 )# clkCrossing_39_dataOut [31:0] $end
   $var wire  1 1# clkCrossing_40_dataOut $end
   $var wire  8 9# clkCrossing_41_dataOut [7:0] $end
   $var wire 32 %! dDS_4_data_payload [31:0] $end
   $var wire  1 { dDS_4_data_valid $end
   $var wire 32 ]! dDS_5_data_payload [31:0] $end
   $var wire  1 U! dDS_5_data_valid $end
   $var wire 32 7" dDS_6_data_payload [31:0] $end
   $var wire  1 /" dDS_6_data_valid $end
   $var wire 32 o" dDS_7_data_payload [31:0] $end
   $var wire  1 g" dDS_7_data_valid $end
   $var wire 32 I+ data_0_payload [31:0] $end
   $var wire  1 A+ data_0_ready $end
   $var wire  1 9+ data_0_valid $end
   $var wire 32 a+ data_1_payload [31:0] $end
   $var wire  1 Y+ data_1_ready $end
   $var wire  1 Q+ data_1_valid $end
   $var wire 32 y+ data_2_payload [31:0] $end
   $var wire  1 q+ data_2_ready $end
   $var wire  1 i+ data_2_valid $end
   $var wire 32 3, data_3_payload [31:0] $end
   $var wire  1 +, data_3_ready $end
   $var wire  1 #, data_3_valid $end
   $var wire  1 q' global_en $end
   $var wire  1 q' global_en_driver $end
   $var wire  8 c readDataStage_payload_addr [7:0] $end
   $var wire  3 k readDataStage_payload_prot [2:0] $end
   $var wire  1 !+ readDataStage_ready $end
   $var wire  1 u% readDataStage_valid $end
   $var wire  1 E- readHaltRequest $end
   $var wire  1 [, readOccur $end
   $var wire 32 [ readRsp_data [31:0] $end
   $var wire  2 M- readRsp_resp [1:0] $end
   $var wire  1 S, reset $end
   $var wire  1 ;, rf_clk $end
   $var wire  1 C, rf_resetn $end
   $var wire  1 m% when_Stream_l368 $end
   $var wire  1 }% when_Stream_l368_1 $end
   $var wire  1 E- writeHaltRequest $end
   $var wire  1 S writeJoinEvent_fire $end
   $var wire  1 K writeJoinEvent_ready $end
   $var wire  2 M- writeJoinEvent_translated_payload_resp [1:0] $end
   $var wire  1 K writeJoinEvent_translated_ready $end
   $var wire  1 C writeJoinEvent_translated_valid $end
   $var wire  1 C writeJoinEvent_valid $end
   $var wire  1 S writeOccur $end
   $var wire  2 M- writeRsp_resp [1:0] $end
   $scope module clkCrossing_21 $end
    $var wire  1 '& area_clkI_reg $end
    $var wire  1 A# area_clkO_buf0 $end
    $var wire  1 s area_clkO_buf1 $end
    $var wire  1 K, clk $end
    $var wire  1 q' dataIn $end
    $var wire  1 s dataOut $end
    $var wire  1 S, reset $end
    $var wire  1 ;, rf_clk $end
    $var wire  1 C, rf_resetn $end
   $upscope $end
   $scope module clkCrossing_22 $end
    $var wire  1 /& area_clkI_reg $end
    $var wire  1 Y# area_clkO_buf0 $end
    $var wire  1 -! area_clkO_buf1 $end
    $var wire  1 K, clk $end
    $var wire  1 y' dataIn $end
    $var wire  1 -! dataOut $end
    $var wire  1 S, reset $end
    $var wire  1 ;, rf_clk $end
    $var wire  1 C, rf_resetn $end
   $upscope $end
   $scope module clkCrossing_23 $end
    $var wire  8 7& area_clkI_reg [7:0] $end
    $var wire  8 a# area_clkO_buf0 [7:0] $end
    $var wire  8 5! area_clkO_buf1 [7:0] $end
    $var wire  1 K, clk $end
    $var wire  8 #( dataIn [7:0] $end
    $var wire  8 5! dataOut [7:0] $end
    $var wire  1 S, reset $end
    $var wire  1 ;, rf_clk $end
    $var wire  1 C, rf_resetn $end
   $upscope $end
   $scope module clkCrossing_24 $end
    $var wire 32 ?& area_clkI_reg [31:0] $end
    $var wire 32 i# area_clkO_buf0 [31:0] $end
    $var wire 32 =! area_clkO_buf1 [31:0] $end
    $var wire  1 K, clk $end
    $var wire 32 +( dataIn [31:0] $end
    $var wire 32 =! dataOut [31:0] $end
    $var wire  1 S, reset $end
    $var wire  1 ;, rf_clk $end
    $var wire  1 C, rf_resetn $end
   $upscope $end
   $scope module clkCrossing_25 $end
    $var wire  1 G& area_clkI_reg $end
    $var wire  1 q# area_clkO_buf0 $end
    $var wire  1 E! area_clkO_buf1 $end
    $var wire  1 K, clk $end
    $var wire  1 3( dataIn $end
    $var wire  1 E! dataOut $end
    $var wire  1 S, reset $end
    $var wire  1 ;, rf_clk $end
    $var wire  1 C, rf_resetn $end
   $upscope $end
   $scope module clkCrossing_26 $end
    $var wire  8 O& area_clkI_reg [7:0] $end
    $var wire  8 y# area_clkO_buf0 [7:0] $end
    $var wire  8 M! area_clkO_buf1 [7:0] $end
    $var wire  1 K, clk $end
    $var wire  8 ;( dataIn [7:0] $end
    $var wire  8 M! dataOut [7:0] $end
    $var wire  1 S, reset $end
    $var wire  1 ;, rf_clk $end
    $var wire  1 C, rf_resetn $end
   $upscope $end
   $scope module clkCrossing_27 $end
    $var wire  1 W& area_clkI_reg $end
    $var wire  1 3$ area_clkO_buf0 $end
    $var wire  1 e! area_clkO_buf1 $end
    $var wire  1 K, clk $end
    $var wire  1 C( dataIn $end
    $var wire  1 e! dataOut $end
    $var wire  1 S, reset $end
    $var wire  1 ;, rf_clk $end
    $var wire  1 C, rf_resetn $end
   $upscope $end
   $scope module clkCrossing_28 $end
    $var wire  8 _& area_clkI_reg [7:0] $end
    $var wire  8 ;$ area_clkO_buf0 [7:0] $end
    $var wire  8 m! area_clkO_buf1 [7:0] $end
    $var wire  1 K, clk $end
    $var wire  8 K( dataIn [7:0] $end
    $var wire  8 m! dataOut [7:0] $end
    $var wire  1 S, reset $end
    $var wire  1 ;, rf_clk $end
    $var wire  1 C, rf_resetn $end
   $upscope $end
   $scope module clkCrossing_29 $end
    $var wire 32 g& area_clkI_reg [31:0] $end
    $var wire 32 C$ area_clkO_buf0 [31:0] $end
    $var wire 32 u! area_clkO_buf1 [31:0] $end
    $var wire  1 K, clk $end
    $var wire 32 S( dataIn [31:0] $end
    $var wire 32 u! dataOut [31:0] $end
    $var wire  1 S, reset $end
    $var wire  1 ;, rf_clk $end
    $var wire  1 C, rf_resetn $end
   $upscope $end
   $scope module clkCrossing_30 $end
    $var wire  1 o& area_clkI_reg $end
    $var wire  1 K$ area_clkO_buf0 $end
    $var wire  1 }! area_clkO_buf1 $end
    $var wire  1 K, clk $end
    $var wire  1 [( dataIn $end
    $var wire  1 }! dataOut $end
    $var wire  1 S, reset $end
    $var wire  1 ;, rf_clk $end
    $var wire  1 C, rf_resetn $end
   $upscope $end
   $scope module clkCrossing_31 $end
    $var wire  8 w& area_clkI_reg [7:0] $end
    $var wire  8 S$ area_clkO_buf0 [7:0] $end
    $var wire  8 '" area_clkO_buf1 [7:0] $end
    $var wire  1 K, clk $end
    $var wire  8 c( dataIn [7:0] $end
    $var wire  8 '" dataOut [7:0] $end
    $var wire  1 S, reset $end
    $var wire  1 ;, rf_clk $end
    $var wire  1 C, rf_resetn $end
   $upscope $end
   $scope module clkCrossing_32 $end
    $var wire  1 !' area_clkI_reg $end
    $var wire  1 k$ area_clkO_buf0 $end
    $var wire  1 ?" area_clkO_buf1 $end
    $var wire  1 K, clk $end
    $var wire  1 k( dataIn $end
    $var wire  1 ?" dataOut $end
    $var wire  1 S, reset $end
    $var wire  1 ;, rf_clk $end
    $var wire  1 C, rf_resetn $end
   $upscope $end
   $scope module clkCrossing_33 $end
    $var wire  8 )' area_clkI_reg [7:0] $end
    $var wire  8 s$ area_clkO_buf0 [7:0] $end
    $var wire  8 G" area_clkO_buf1 [7:0] $end
    $var wire  1 K, clk $end
    $var wire  8 s( dataIn [7:0] $end
    $var wire  8 G" dataOut [7:0] $end
    $var wire  1 S, reset $end
    $var wire  1 ;, rf_clk $end
    $var wire  1 C, rf_resetn $end
   $upscope $end
   $scope module clkCrossing_34 $end
    $var wire 32 1' area_clkI_reg [31:0] $end
    $var wire 32 {$ area_clkO_buf0 [31:0] $end
    $var wire 32 O" area_clkO_buf1 [31:0] $end
    $var wire  1 K, clk $end
    $var wire 32 {( dataIn [31:0] $end
    $var wire 32 O" dataOut [31:0] $end
    $var wire  1 S, reset $end
    $var wire  1 ;, rf_clk $end
    $var wire  1 C, rf_resetn $end
   $upscope $end
   $scope module clkCrossing_35 $end
    $var wire  1 9' area_clkI_reg $end
    $var wire  1 %% area_clkO_buf0 $end
    $var wire  1 W" area_clkO_buf1 $end
    $var wire  1 K, clk $end
    $var wire  1 %) dataIn $end
    $var wire  1 W" dataOut $end
    $var wire  1 S, reset $end
    $var wire  1 ;, rf_clk $end
    $var wire  1 C, rf_resetn $end
   $upscope $end
   $scope module clkCrossing_36 $end
    $var wire  8 A' area_clkI_reg [7:0] $end
    $var wire  8 -% area_clkO_buf0 [7:0] $end
    $var wire  8 _" area_clkO_buf1 [7:0] $end
    $var wire  1 K, clk $end
    $var wire  8 -) dataIn [7:0] $end
    $var wire  8 _" dataOut [7:0] $end
    $var wire  1 S, reset $end
    $var wire  1 ;, rf_clk $end
    $var wire  1 C, rf_resetn $end
   $upscope $end
   $scope module clkCrossing_37 $end
    $var wire  1 I' area_clkI_reg $end
    $var wire  1 E% area_clkO_buf0 $end
    $var wire  1 w" area_clkO_buf1 $end
    $var wire  1 K, clk $end
    $var wire  1 5) dataIn $end
    $var wire  1 w" dataOut $end
    $var wire  1 S, reset $end
    $var wire  1 ;, rf_clk $end
    $var wire  1 C, rf_resetn $end
   $upscope $end
   $scope module clkCrossing_38 $end
    $var wire  8 Q' area_clkI_reg [7:0] $end
    $var wire  8 M% area_clkO_buf0 [7:0] $end
    $var wire  8 !# area_clkO_buf1 [7:0] $end
    $var wire  1 K, clk $end
    $var wire  8 =) dataIn [7:0] $end
    $var wire  8 !# dataOut [7:0] $end
    $var wire  1 S, reset $end
    $var wire  1 ;, rf_clk $end
    $var wire  1 C, rf_resetn $end
   $upscope $end
   $scope module clkCrossing_39 $end
    $var wire 32 Y' area_clkI_reg [31:0] $end
    $var wire 32 U% area_clkO_buf0 [31:0] $end
    $var wire 32 )# area_clkO_buf1 [31:0] $end
    $var wire  1 K, clk $end
    $var wire 32 E) dataIn [31:0] $end
    $var wire 32 )# dataOut [31:0] $end
    $var wire  1 S, reset $end
    $var wire  1 ;, rf_clk $end
    $var wire  1 C, rf_resetn $end
   $upscope $end
   $scope module clkCrossing_40 $end
    $var wire  1 a' area_clkI_reg $end
    $var wire  1 ]% area_clkO_buf0 $end
    $var wire  1 1# area_clkO_buf1 $end
    $var wire  1 K, clk $end
    $var wire  1 M) dataIn $end
    $var wire  1 1# dataOut $end
    $var wire  1 S, reset $end
    $var wire  1 ;, rf_clk $end
    $var wire  1 C, rf_resetn $end
   $upscope $end
   $scope module clkCrossing_41 $end
    $var wire  8 i' area_clkI_reg [7:0] $end
    $var wire  8 e% area_clkO_buf0 [7:0] $end
    $var wire  8 9# area_clkO_buf1 [7:0] $end
    $var wire  1 K, clk $end
    $var wire  8 U) dataIn [7:0] $end
    $var wire  8 9# dataOut [7:0] $end
    $var wire  1 S, reset $end
    $var wire  1 ;, rf_clk $end
    $var wire  1 C, rf_resetn $end
   $upscope $end
   $scope module dDS_4 $end
    $var wire  1 E! channel_en $end
    $var wire  1 c, data_fire $end
    $var wire 32 %! data_payload [31:0] $end
    $var wire  1 A+ data_ready $end
    $var wire  1 { data_valid $end
    $var wire  1 # module_en $end
    $var wire  1 { module_en_regNext $end
    $var wire  8 I# phase_cursor [7:0] $end
    $var wire  8 M! phase_limit [7:0] $end
    $var wire  1 ;, rf_clk $end
    $var wire  1 C, rf_resetn $end
    $var wire  1 s sync_en $end
    $var wire  8 5! w_addr [7:0] $end
    $var wire 32 =! w_data [31:0] $end
    $var wire  1 -! w_en $end
    $var wire  1 k, when_DDS_l52 $end
    $var wire  1 Q# when_DDS_l53 $end
   $upscope $end
   $scope module dDS_5 $end
    $var wire  1 }! channel_en $end
    $var wire  1 s, data_fire $end
    $var wire 32 ]! data_payload [31:0] $end
    $var wire  1 Y+ data_ready $end
    $var wire  1 U! data_valid $end
    $var wire  1 + module_en $end
    $var wire  1 U! module_en_regNext $end
    $var wire  8 #$ phase_cursor [7:0] $end
    $var wire  8 '" phase_limit [7:0] $end
    $var wire  1 ;, rf_clk $end
    $var wire  1 C, rf_resetn $end
    $var wire  1 s sync_en $end
    $var wire  8 m! w_addr [7:0] $end
    $var wire 32 u! w_data [31:0] $end
    $var wire  1 e! w_en $end
    $var wire  1 {, when_DDS_l52 $end
    $var wire  1 +$ when_DDS_l53 $end
   $upscope $end
   $scope module dDS_6 $end
    $var wire  1 W" channel_en $end
    $var wire  1 %- data_fire $end
    $var wire 32 7" data_payload [31:0] $end
    $var wire  1 q+ data_ready $end
    $var wire  1 /" data_valid $end
    $var wire  1 3 module_en $end
    $var wire  1 /" module_en_regNext $end
    $var wire  8 [$ phase_cursor [7:0] $end
    $var wire  8 _" phase_limit [7:0] $end
    $var wire  1 ;, rf_clk $end
    $var wire  1 C, rf_resetn $end
    $var wire  1 s sync_en $end
    $var wire  8 G" w_addr [7:0] $end
    $var wire 32 O" w_data [31:0] $end
    $var wire  1 ?" w_en $end
    $var wire  1 -- when_DDS_l52 $end
    $var wire  1 c$ when_DDS_l53 $end
   $upscope $end
   $scope module dDS_7 $end
    $var wire  1 1# channel_en $end
    $var wire  1 5- data_fire $end
    $var wire 32 o" data_payload [31:0] $end
    $var wire  1 +, data_ready $end
    $var wire  1 g" data_valid $end
    $var wire  1 ; module_en $end
    $var wire  1 g" module_en_regNext $end
    $var wire  8 5% phase_cursor [7:0] $end
    $var wire  8 9# phase_limit [7:0] $end
    $var wire  1 ;, rf_clk $end
    $var wire  1 C, rf_resetn $end
    $var wire  1 s sync_en $end
    $var wire  8 !# w_addr [7:0] $end
    $var wire 32 )# w_data [31:0] $end
    $var wire  1 w" w_en $end
    $var wire  1 =- when_DDS_l52 $end
    $var wire  1 =% when_DDS_l53 $end
   $upscope $end
  $upscope $end
 $upscope $end
$enddefinitions $end


#0
0#
1+
13
0;
0C
1K
0S
b00000000000000000000000000000000 [
b01000010 c
b000 k
1s
0{
b11101010000111011110101110111100 %!
0-!
b10010000 5!
b01000100100110011100111000110101 =!
0E!
b00100001 M!
0U!
b01111111000010011001000111000001 ]!
1e!
b00011011 m!
b00000100111100011001001010100000 u!
1}!
b10110101 '"
0/"
b00111100010101101011101001101111 7"
1?"
b01111011 G"
b01100101001111010000101111101001 O"
1W"
b01010111 _"
0g"
b00001100100010111101001101011101 o"
0w"
b00110000 !#
b11001101111001010011000010100101 )#
01#
b11110101 9#
1A#
b00000000 I#
0Q#
1Y#
b11101001 a#
b11110110001000100100001110010011 i#
1q#
b01100011 y#
b00000000 #$
0+$
03$
b11010110 ;$
b11011001101111110011001000110100 C$
0K$
b00011000 S$
b00000000 [$
0c$
0k$
b01011010 s$
b01111111111100000000001000100100 {$
0%%
b11010100 -%
b00000000 5%
0=%
0E%
b11100110 M%
b10001001100110000011001111111000 U%
0]%
b00000100 e%
1m%
0u%
1}%
1'&
1/&
b11101001 7&
b11110110001000100100001110010011 ?&
1G&
b01100011 O&
0W&
b11010110 _&
b11011001101111110011001000110100 g&
0o&
b00011000 w&
0!'
b01011010 )'
b01111111111100000000001000100100 1'
09'
b11010100 A'
0I'
b11100110 Q'
b10001001100110000011001111111000 Y'
0a'
b00000100 i'
0q'
0y'
b00000000 #(
b00000000000000000000000000000000 +(
03(
b11111111 ;(
0C(
b00000000 K(
b00000000000000000000000000000000 S(
0[(
b11111111 c(
0k(
b00000000 s(
b00000000000000000000000000000000 {(
0%)
b11111111 -)
05)
b00000000 =)
b00000000000000000000000000000000 E)
0M)
b11111111 U)
0])
0e)
b00101111 m)
b101 u)
0})
0'*
b00100110101110000011101010010100 /*
b1100 7*
0?*
1G*
b11 O*
0W*
1_*
b00100001 g*
b000 o*
0w*
1!+
b00000000000000000000000000000000 )+
b00 1+
09+
0A+
b11101010000111011110101110111100 I+
0Q+
0Y+
b01111111000010011001000111000001 a+
0i+
0q+
b00111100010101101011101001101111 y+
0#,
0+,
b00001100100010111101001101011101 3,
1;,
0C,
0K,
1S,
0[,
0c,
0k,
0s,
0{,
0%-
0--
05-
0=-
0E-
b00 M-
#1
0;,
#2
1#
0+
03
b00000000000000000000000000000000 %!
1-!
b11101001 5!
b11110110001000100100001110010011 =!
1E!
b01100011 M!
b00000000000000000000000000000000 ]!
0e!
b11010110 m!
b11011001101111110011001000110100 u!
0}!
b00011000 '"
b00000000000000000000000000000000 7"
0?"
b01011010 G"
b01111111111100000000001000100100 O"
0W"
b11010100 _"
b00000000000000000000000000000000 o"
b11100110 !#
b10001001100110000011001111111000 )#
b00000100 9#
b00000000000000000000000000000000 I+
b00000000000000000000000000000000 a+
b00000000000000000000000000000000 y+
b00000000000000000000000000000000 3,
1;,
#3
0;,
#4
1;,
#5
0;,
#6
1;,
#7
0;,
#8
1;,
#9
0;,
#10
1;,
#11
0;,
#12
1;,
#13
0;,
#14
1;,
#15
0;,
#16
1;,
#17
0;,
#18
1;,
#19
0;,
#20
1;,
#21
0;,
#22
1;,
#23
0;,
#24
1;,
#25
0;,
#26
1;,
#27
0;,
#28
1;,
#29
0;,
#30
1;,
#31
0;,
#32
1{
19+
1;,
1C,
#33
0;,
#34
1;,
#35
0;,
#36
1;,
#37
0;,
#38
1;,
#39
0;,
#40
1;,
#41
0;,
#42
1;,
#43
0;,
#44
1;,
#45
0;,
#46
1;,
#47
0;,
#48
1;,
#49
0;,
#50
1;,
#51
0;,
#52
1;,
#53
0;,
#54
1;,
#55
0;,
#56
1;,
#57
0;,
#58
1;,
#59
0;,
#60
1;,
#61
0;,
#62
1;,
#63
0;,
#64
1;,
#65
0;,
#66
1;,
#67
0;,
#68
1;,
#69
0;,
#70
1;,
#71
0;,
#72
1;,
#73
0;,
#74
1;,
#75
0;,
#76
1;,
#77
0;,
#78
1;,
#79
0;,
#80
1;,
#81
0;,
#82
1;,
#83
0;,
#84
1;,
#85
0;,
#86
1;,
#87
0;,
#88
1;,
#89
0;,
#90
1;,
#91
0;,
#92
1;,
#93
0;,
#94
1;,
#95
0;,
#96
1;,
#97
0;,
#98
1;,
#99
0;,
#100
1;,
#101
0;,
#102
1;,
#103
0;,
#104
1;,
#105
0;,
#106
1;,
#107
0;,
#108
1;,
#109
0;,
#110
1;,
#111
0;,
#112
1;,
#113
0;,
#114
1;,
#115
0;,
#116
1;,
#117
0;,
#118
1;,
#119
0;,
#120
1;,
#121
0;,
#122
1;,
#123
0;,
#124
1;,
#125
0;,
#126
1;,
#127
0;,
#128
1;,
#129
0;,
#130
1;,
#131
0;,
#132
1;,
#133
0;,
#134
1;,
#135
0;,
#136
1;,
#137
0;,
#138
1;,
#139
0;,
#140
1;,
#141
0;,
#142
1;,
#143
0;,
#144
1;,
#145
0;,
#146
1;,
#147
0;,
#148
1;,
#149
0;,
#150
1;,
#151
0;,
#152
1;,
#153
0;,
#154
1;,
#155
0;,
#156
1;,
#157
0;,
#158
1;,
#159
0;,
#160
1;,
0S,
#161
0;,
#162
1;,
#163
0;,
#164
1;,
#165
0;,
#166
1;,
#167
0;,
#168
1;,
#169
0;,
#170
b00100001 c
0'&
0/&
b00000000 7&
b00000000000000000000000000000000 ?&
0G&
b11111111 O&
b00000000 _&
b00000000000000000000000000000000 g&
b11111111 w&
b00000000 )'
b00000000000000000000000000000000 1'
b11111111 A'
b00000000 Q'
b00000000000000000000000000000000 Y'
b11111111 i'
b00 O*
1;,
1K,
#171
0;,
#172
0A#
0Y#
b00000000 a#
b00000000000000000000000000000000 i#
0q#
b11111111 y#
b00000000 ;$
b00000000000000000000000000000000 C$
b11111111 S$
b00000000 s$
b00000000000000000000000000000000 {$
b11111111 -%
b00000000 M%
b00000000000000000000000000000000 U%
b11111111 e%
1;,
#173
0;,
#174
0#
0s
0-!
b00000000 5!
b00000000000000000000000000000000 =!
0E!
b11111111 M!
b00000000 m!
b00000000000000000000000000000000 u!
b11111111 '"
b00000000 G"
b00000000000000000000000000000000 O"
b11111111 _"
b00000000 !#
b00000000000000000000000000000000 )#
b11111111 9#
1;,
#175
0;,
0K,
#176
0{
09+
1;,
