simWorkspace/AxiLite4Timer/test.vcd
$version Generated by VerilatedVcd $end
$date Fri Feb 18 04:18:12 2022
 $end
$timescale   1ns $end

 $scope module TOP $end
  $var wire  8 y# axil4Ctrl_araddr [7:0] $end
  $var wire  3 #$ axil4Ctrl_arprot [2:0] $end
  $var wire  1 q# axil4Ctrl_arready $end
  $var wire  1 i# axil4Ctrl_arvalid $end
  $var wire  8 !# axil4Ctrl_awaddr [7:0] $end
  $var wire  3 )# axil4Ctrl_awprot [2:0] $end
  $var wire  1 w" axil4Ctrl_awready $end
  $var wire  1 o" axil4Ctrl_awvalid $end
  $var wire  1 Y# axil4Ctrl_bready $end
  $var wire  2 a# axil4Ctrl_bresp [1:0] $end
  $var wire  1 Q# axil4Ctrl_bvalid $end
  $var wire 32 ;$ axil4Ctrl_rdata [31:0] $end
  $var wire  1 3$ axil4Ctrl_rready $end
  $var wire  2 C$ axil4Ctrl_rresp [1:0] $end
  $var wire  1 +$ axil4Ctrl_rvalid $end
  $var wire 32 A# axil4Ctrl_wdata [31:0] $end
  $var wire  1 9# axil4Ctrl_wready $end
  $var wire  4 I# axil4Ctrl_wstrb [3:0] $end
  $var wire  1 1# axil4Ctrl_wvalid $end
  $var wire  1 c$ clk $end
  $var wire  1 S$ oc $end
  $var wire  1 [$ oc_n $end
  $var wire  1 k$ reset $end
  $var wire  1 K$ timer_interrupt $end
  $scope module AxiLite4Timer $end
   $var wire  8 =! axil4Ctrl_ar_rData_addr [7:0] $end
   $var wire  3 E! axil4Ctrl_ar_rData_prot [2:0] $end
   $var wire  1 e! axil4Ctrl_ar_rValid $end
   $var wire  8 =! axil4Ctrl_ar_readDataStage_payload_addr [7:0] $end
   $var wire  3 E! axil4Ctrl_ar_readDataStage_payload_prot [2:0] $end
   $var wire  1 3$ axil4Ctrl_ar_readDataStage_ready $end
   $var wire  1 e! axil4Ctrl_ar_readDataStage_valid $end
   $var wire  8 y# axil4Ctrl_araddr [7:0] $end
   $var wire  3 #$ axil4Ctrl_arprot [2:0] $end
   $var wire  1 q# axil4Ctrl_arready $end
   $var wire  1 i# axil4Ctrl_arvalid $end
   $var wire  8 !# axil4Ctrl_awaddr [7:0] $end
   $var wire  3 )# axil4Ctrl_awprot [2:0] $end
   $var wire  1 w" axil4Ctrl_awready $end
   $var wire  1 o" axil4Ctrl_awvalid $end
   $var wire  1 Y# axil4Ctrl_bready $end
   $var wire  2 a# axil4Ctrl_bresp [1:0] $end
   $var wire  1 Q# axil4Ctrl_bvalid $end
   $var wire 32 ;$ axil4Ctrl_rdata [31:0] $end
   $var wire  1 3$ axil4Ctrl_rready $end
   $var wire  2 C$ axil4Ctrl_rresp [1:0] $end
   $var wire  1 +$ axil4Ctrl_rvalid $end
   $var wire 32 A# axil4Ctrl_wdata [31:0] $end
   $var wire  1 9# axil4Ctrl_wready $end
   $var wire  4 I# axil4Ctrl_wstrb [3:0] $end
   $var wire  1 1# axil4Ctrl_wvalid $end
   $var wire  1 c$ clk $end
   $var wire  1 S$ oc $end
   $var wire  1 [$ oc_n $end
   $var wire  1 {$ readHaltRequest $end
   $var wire  1 s$ readOccur $end
   $var wire 32 ; readRsp_data [31:0] $end
   $var wire  2 %% readRsp_resp [1:0] $end
   $var wire  1 k$ reset $end
   $var wire  1 K$ timer_interrupt $end
   $var wire  1 u! timer_module_enable_driver $end
   $var wire  1 # timer_module_interrupt $end
   $var wire  1 }! timer_module_interrupt_en_driver $end
   $var wire  1 '" timer_module_interrupt_polarity_driver $end
   $var wire  1 + timer_module_oc $end
   $var wire  1 /" timer_module_oc_en_driver $end
   $var wire  1 3 timer_module_oc_n $end
   $var wire 16 5! timer_module_value [15:0] $end
   $var wire  1 ]! when_Stream_l342 $end
   $var wire  1 m! when_Stream_l342_1 $end
   $var wire  1 {$ writeHaltRequest $end
   $var wire  1 -! writeJoinEvent_fire $end
   $var wire  1 %! writeJoinEvent_ready $end
   $var wire  2 %% writeJoinEvent_translated_payload_resp [1:0] $end
   $var wire  1 %! writeJoinEvent_translated_ready $end
   $var wire  1 { writeJoinEvent_translated_valid $end
   $var wire  1 { writeJoinEvent_valid $end
   $var wire  1 -! writeOccur $end
   $var wire  2 %% writeRsp_resp [1:0] $end
   $scope module timer_module $end
    $var wire  1 c$ clk $end
    $var wire  1 C clock_divider_A_full $end
    $var wire  1 K clock_divider_B_full $end
    $var wire  4 G" divider_A_limit [3:0] $end
    $var wire 16 O" divider_B_limit [15:0] $end
    $var wire  1 u! enable $end
    $var wire  1 # interrupt $end
    $var wire  1 W" interrupt_clc $end
    $var wire  1 }! interrupt_en $end
    $var wire  1 '" interrupt_polarity $end
    $var wire  1 S limit $end
    $var wire  1 + oc $end
    $var wire 16 _" oc_compare_val [15:0] $end
    $var wire  1 /" oc_en $end
    $var wire  1 3 oc_n $end
    $var wire  1 + outputCompare_1_oc $end
    $var wire  1 3 outputCompare_1_oc_n $end
    $var wire 16 7" period [15:0] $end
    $var wire 16 ?" reload_val [15:0] $end
    $var wire  1 k$ reset $end
    $var wire 16 5! timer_counter [15:0] $end
    $var wire 16 5! value [15:0] $end
    $var wire  1 g" when_Timer_l141 $end
    $var wire  1 [ when_Timer_l143 $end
    $var wire  1 c when_Timer_l147 $end
    $scope module clock_divider_A $end
     $var wire  1 c$ clk $end
     $var wire  4 M! divider_counter [3:0] $end
     $var wire  1 u! enable $end
     $var wire  1 C full $end
     $var wire  4 G" limit [3:0] $end
     $var wire  1 k$ reset $end
     $var wire  1 -% step $end
     $var wire  1 k when_Timer_l27 $end
    $upscope $end
    $scope module clock_divider_B $end
     $var wire  1 c$ clk $end
     $var wire 16 U! divider_counter [15:0] $end
     $var wire  1 u! enable $end
     $var wire  1 K full $end
     $var wire 16 O" limit [15:0] $end
     $var wire  1 k$ reset $end
     $var wire  1 C step $end
     $var wire  1 s when_Timer_l27 $end
    $upscope $end
    $scope module outputCompare_1 $end
     $var wire 16 _" compare_val [15:0] $end
     $var wire  1 /" enable $end
     $var wire  1 + oc $end
     $var wire  1 3 oc_n $end
     $var wire 16 5! timer_value [15:0] $end
    $upscope $end
   $upscope $end
  $upscope $end
 $upscope $end
$enddefinitions $end


#0
0#
0+
13
b00000000000000000000000000000000 ;
0C
0K
0S
1[
1c
1k
1s
1{
1%!
1-!
b0110101100111000 5!
b11010000 =!
b100 E!
b0110 M!
b1100010010110001 U!
1]!
0e!
1m!
0u!
0}!
1'"
0/"
b0000000000000000 7"
b0000000000000000 ?"
b0000 G"
b0000000000000000 O"
0W"
b0000000000000000 _"
1g"
1o"
1w"
b00000100 !#
b110 )#
11#
19#
b00000000000000000000000100101100 A#
b1111 I#
0Q#
1Y#
b10 a#
0i#
1q#
b01011011 y#
b000 #$
0+$
13$
b00000000000000000000000000000000 ;$
b00 C$
0K$
0S$
1[$
0c$
1k$
0s$
0{$
b00 %%
1-%
#80
0k$
#85
b0000000000000000 5!
b01011011 =!
b000 E!
b0000 M!
b0000000000000000 U!
0]!
b0000000100101100 7"
b00001000 !#
b00000000000000000000000000000000 A#
1Q#
b00 a#
1c$
#87
0c$
#89
b00001100 !#
1c$
#91
0c$
#93
b00010000 !#
1c$
#95
0c$
#97
b00000000 !#
b00000000000000000000000000011101 A#
1c$
#99
0c$
#101
1C
1K
0c
1u!
1/"
0g"
b00011100 !#
b00000000000000000000000000000011 A#
1c$
#103
0c$
#105
b0000000000000001 5!
b00100000 !#
b00000000000000000000000000001100 A#
1c$
#107
0c$
#109
b0000000000000010 5!
b00101100 !#
b00000000000000000000000001100100 A#
1c$
#111
0c$
#113
1+
03
0{
0-!
b0000000000000011 5!
b0000000001100100 _"
0o"
0w"
01#
09#
1S$
0[$
1c$
#115
0c$
#117
b0000000000000100 5!
1]!
0Q#
1c$
#119
0c$
#121
b0000000000000101 5!
1c$
#123
0c$
#125
b0000000000000110 5!
1c$
#127
0c$
#129
b0000000000000111 5!
1c$
#131
0c$
#133
b0000000000001000 5!
1c$
#135
0c$
#137
b0000000000001001 5!
1c$
#139
0c$
#141
b0000000000001010 5!
1c$
#143
0c$
#145
b0000000000001011 5!
1c$
#147
0c$
#149
b0000000000001100 5!
1c$
#151
0c$
#153
b0000000000001101 5!
1c$
#155
0c$
#157
b0000000000001110 5!
1c$
#159
0c$
#161
b0000000000001111 5!
1c$
#163
0c$
#165
b0000000000010000 5!
1c$
#167
0c$
#169
b0000000000010001 5!
1c$
#171
0c$
#173
b0000000000010010 5!
1c$
#175
0c$
#177
b0000000000010011 5!
1c$
#179
0c$
#181
b0000000000010100 5!
1c$
#183
0c$
#185
b0000000000010101 5!
1c$
#187
0c$
#189
b0000000000010110 5!
1c$
#191
0c$
#193
b0000000000010111 5!
1c$
#195
0c$
#197
b0000000000011000 5!
1c$
#199
0c$
#201
b0000000000011001 5!
1c$
#203
0c$
#205
b0000000000011010 5!
1c$
#207
0c$
#209
b0000000000011011 5!
1c$
#211
0c$
#213
b0000000000011100 5!
1c$
#215
0c$
#217
b0000000000011101 5!
1c$
#219
0c$
#221
b0000000000011110 5!
1c$
#223
0c$
#225
b0000000000011111 5!
1c$
#227
0c$
#229
b0000000000100000 5!
1c$
#231
0c$
#233
b0000000000100001 5!
1c$
#235
0c$
#237
b0000000000100010 5!
1c$
#239
0c$
#241
b0000000000100011 5!
1c$
#243
0c$
#245
b0000000000100100 5!
1c$
#247
0c$
#249
b0000000000100101 5!
1c$
#251
0c$
#253
b0000000000100110 5!
1c$
#255
0c$
#257
b0000000000100111 5!
1c$
#259
0c$
#261
b0000000000101000 5!
1c$
#263
0c$
#265
b0000000000101001 5!
1c$
#267
0c$
#269
b0000000000101010 5!
1c$
#271
0c$
#273
b0000000000101011 5!
1c$
#275
0c$
#277
b0000000000101100 5!
1c$
#279
0c$
#281
b0000000000101101 5!
1c$
#283
0c$
#285
b0000000000101110 5!
1c$
#287
0c$
#289
b0000000000101111 5!
1c$
#291
0c$
#293
b0000000000110000 5!
1c$
#295
0c$
#297
b0000000000110001 5!
1c$
#299
0c$
#301
b0000000000110010 5!
1c$
#303
0c$
#305
b0000000000110011 5!
1c$
#307
0c$
#309
b0000000000110100 5!
1c$
#311
0c$
#313
b0000000000110101 5!
1c$
#315
0c$
#317
b0000000000110110 5!
1c$
#319
0c$
#321
b0000000000110111 5!
1c$
#323
0c$
#325
b0000000000111000 5!
1c$
#327
0c$
#329
b0000000000111001 5!
1c$
#331
0c$
#333
b0000000000111010 5!
1c$
#335
0c$
#337
b0000000000111011 5!
1c$
#339
0c$
#341
b0000000000111100 5!
1c$
#343
0c$
#345
b0000000000111101 5!
1c$
#347
0c$
#349
b0000000000111110 5!
1c$
#351
0c$
#353
b0000000000111111 5!
1c$
#355
0c$
#357
b0000000001000000 5!
1c$
#359
0c$
#361
b0000000001000001 5!
1c$
#363
0c$
#365
b0000000001000010 5!
1c$
#367
0c$
#369
b0000000001000011 5!
1c$
#371
0c$
#373
b0000000001000100 5!
1c$
#375
0c$
#377
b0000000001000101 5!
1c$
#379
0c$
#381
b0000000001000110 5!
1c$
#383
0c$
#385
b0000000001000111 5!
1c$
#387
0c$
#389
b0000000001001000 5!
1c$
#391
0c$
#393
b0000000001001001 5!
1c$
#395
0c$
#397
b0000000001001010 5!
1c$
#399
0c$
#401
b0000000001001011 5!
1c$
#403
0c$
#405
b0000000001001100 5!
1c$
#407
0c$
#409
b0000000001001101 5!
1c$
#411
0c$
#413
b0000000001001110 5!
1c$
#415
0c$
#417
b0000000001001111 5!
1c$
#419
0c$
#421
b0000000001010000 5!
1c$
#423
0c$
#425
b0000000001010001 5!
1c$
#427
0c$
#429
b0000000001010010 5!
1c$
#431
0c$
#433
b0000000001010011 5!
1c$
#435
0c$
#437
b0000000001010100 5!
1c$
#439
0c$
#441
b0000000001010101 5!
1c$
#443
0c$
#445
b0000000001010110 5!
1c$
#447
0c$
#449
b0000000001010111 5!
1c$
#451
0c$
#453
b0000000001011000 5!
1c$
#455
0c$
#457
b0000000001011001 5!
1c$
#459
0c$
#461
b0000000001011010 5!
1c$
#463
0c$
#465
b0000000001011011 5!
1c$
#467
0c$
#469
b0000000001011100 5!
1c$
#471
0c$
#473
b0000000001011101 5!
1c$
#475
0c$
#477
b0000000001011110 5!
1c$
#479
0c$
#481
b0000000001011111 5!
1c$
#483
0c$
#485
b0000000001100000 5!
1c$
#487
0c$
#489
b0000000001100001 5!
1c$
#491
0c$
#493
b0000000001100010 5!
1c$
#495
0c$
#497
b0000000001100011 5!
1c$
#499
0c$
#501
0+
13
b0000000001100100 5!
0S$
1[$
1c$
#503
0c$
#505
b0000000001100101 5!
1c$
#507
0c$
#509
b0000000001100110 5!
1c$
#511
0c$
#513
b0000000001100111 5!
1c$
#515
0c$
#517
b0000000001101000 5!
1c$
#519
0c$
#521
b0000000001101001 5!
1c$
#523
0c$
#525
b0000000001101010 5!
1c$
#527
0c$
#529
b0000000001101011 5!
1c$
#531
0c$
#533
b0000000001101100 5!
1c$
#535
0c$
#537
b0000000001101101 5!
1c$
#539
0c$
#541
b0000000001101110 5!
1c$
#543
0c$
#545
b0000000001101111 5!
1c$
#547
0c$
#549
b0000000001110000 5!
1c$
#551
0c$
#553
b0000000001110001 5!
1c$
#555
0c$
#557
b0000000001110010 5!
1c$
#559
0c$
#561
b0000000001110011 5!
1c$
#563
0c$
#565
b0000000001110100 5!
1c$
#567
0c$
#569
b0000000001110101 5!
1c$
#571
0c$
#573
b0000000001110110 5!
1c$
#575
0c$
#577
b0000000001110111 5!
1c$
#579
0c$
#581
b0000000001111000 5!
1c$
#583
0c$
#585
b0000000001111001 5!
1c$
#587
0c$
#589
b0000000001111010 5!
1c$
#591
0c$
#593
b0000000001111011 5!
1c$
#595
0c$
#597
b0000000001111100 5!
1c$
#599
0c$
#601
b0000000001111101 5!
1c$
#603
0c$
#605
b0000000001111110 5!
1c$
#607
0c$
#609
b0000000001111111 5!
1c$
#611
0c$
#613
b0000000010000000 5!
1c$
#615
0c$
#617
b0000000010000001 5!
1c$
#619
0c$
#621
b0000000010000010 5!
1c$
#623
0c$
#625
b0000000010000011 5!
1c$
#627
0c$
#629
b0000000010000100 5!
1c$
#631
0c$
#633
b0000000010000101 5!
1c$
#635
0c$
#637
b0000000010000110 5!
1c$
#639
0c$
#641
b0000000010000111 5!
1c$
#643
0c$
#645
b0000000010001000 5!
1c$
#647
0c$
#649
b0000000010001001 5!
1c$
#651
0c$
#653
b0000000010001010 5!
1c$
#655
0c$
#657
b0000000010001011 5!
1c$
#659
0c$
#661
b0000000010001100 5!
1c$
#663
0c$
#665
b0000000010001101 5!
1c$
#667
0c$
#669
b0000000010001110 5!
1c$
#671
0c$
#673
b0000000010001111 5!
1c$
#675
0c$
#677
b0000000010010000 5!
1c$
#679
0c$
#681
b0000000010010001 5!
1c$
#683
0c$
#685
b0000000010010010 5!
1c$
#687
0c$
#689
b0000000010010011 5!
1c$
#691
0c$
#693
b0000000010010100 5!
1c$
#695
0c$
#697
b0000000010010101 5!
1c$
#699
0c$
#701
b0000000010010110 5!
1c$
#703
0c$
#705
b0000000010010111 5!
1c$
#707
0c$
#709
b0000000010011000 5!
1c$
#711
0c$
#713
b0000000010011001 5!
1c$
#715
0c$
#717
b0000000010011010 5!
1c$
#719
0c$
#721
b0000000010011011 5!
1c$
#723
0c$
#725
b0000000010011100 5!
1c$
#727
0c$
#729
b0000000010011101 5!
1c$
#731
0c$
#733
b0000000010011110 5!
1c$
#735
0c$
#737
b0000000010011111 5!
1c$
#739
0c$
#741
b0000000010100000 5!
1c$
#743
0c$
#745
b0000000010100001 5!
1c$
#747
0c$
#749
b0000000010100010 5!
1c$
#751
0c$
#753
b0000000010100011 5!
1c$
#755
0c$
#757
b0000000010100100 5!
1c$
#759
0c$
#761
b0000000010100101 5!
1c$
#763
0c$
#765
b0000000010100110 5!
1c$
#767
0c$
#769
b0000000010100111 5!
1c$
#771
0c$
#773
b0000000010101000 5!
1c$
#775
0c$
#777
b0000000010101001 5!
1c$
#779
0c$
#781
b0000000010101010 5!
1c$
#783
0c$
#785
b0000000010101011 5!
1c$
#787
0c$
#789
b0000000010101100 5!
1c$
#791
0c$
#793
b0000000010101101 5!
1c$
#795
0c$
#797
b0000000010101110 5!
1c$
#799
0c$
#801
b0000000010101111 5!
1c$
#803
0c$
#805
b0000000010110000 5!
1c$
#807
0c$
#809
b0000000010110001 5!
1c$
#811
0c$
#813
b0000000010110010 5!
1c$
#815
0c$
#817
b0000000010110011 5!
1c$
#819
0c$
#821
b0000000010110100 5!
1c$
#823
0c$
#825
b0000000010110101 5!
1c$
#827
0c$
#829
b0000000010110110 5!
1c$
#831
0c$
#833
b0000000010110111 5!
1c$
#835
0c$
#837
b0000000010111000 5!
1c$
#839
0c$
#841
b0000000010111001 5!
1c$
#843
0c$
#845
b0000000010111010 5!
1c$
#847
0c$
#849
b0000000010111011 5!
1c$
#851
0c$
#853
b0000000010111100 5!
1c$
#855
0c$
#857
b0000000010111101 5!
1c$
#859
0c$
#861
b0000000010111110 5!
1c$
#863
0c$
#865
b0000000010111111 5!
1c$
#867
0c$
#869
b0000000011000000 5!
1c$
#871
0c$
#873
b0000000011000001 5!
1c$
#875
0c$
#877
b0000000011000010 5!
1c$
#879
0c$
#881
b0000000011000011 5!
1c$
#883
0c$
#885
b0000000011000100 5!
1c$
#887
0c$
#889
b0000000011000101 5!
1c$
#891
0c$
#893
b0000000011000110 5!
1c$
#895
0c$
#897
b0000000011000111 5!
1c$
#899
0c$
#901
b0000000011001000 5!
1c$
#903
0c$
#905
b0000000011001001 5!
1c$
#907
0c$
#909
b0000000011001010 5!
1c$
#911
0c$
#913
b0000000011001011 5!
1c$
#915
0c$
#917
b0000000011001100 5!
1c$
#919
0c$
#921
b0000000011001101 5!
1c$
#923
0c$
#925
b0000000011001110 5!
1c$
#927
0c$
#929
b0000000011001111 5!
1c$
#931
0c$
#933
b0000000011010000 5!
1c$
#935
0c$
#937
b0000000011010001 5!
1c$
#939
0c$
#941
b0000000011010010 5!
1c$
#943
0c$
#945
b0000000011010011 5!
1c$
#947
0c$
#949
b0000000011010100 5!
1c$
#951
0c$
#953
b0000000011010101 5!
1c$
#955
0c$
#957
b0000000011010110 5!
1c$
#959
0c$
#961
b0000000011010111 5!
1c$
#963
0c$
#965
b0000000011011000 5!
1c$
#967
0c$
#969
b0000000011011001 5!
1c$
#971
0c$
#973
b0000000011011010 5!
1c$
#975
0c$
#977
b0000000011011011 5!
1c$
#979
0c$
#981
b0000000011011100 5!
1c$
#983
0c$
#985
b0000000011011101 5!
1c$
#987
0c$
#989
b0000000011011110 5!
1c$
#991
0c$
#993
b0000000011011111 5!
1c$
#995
0c$
#997
b0000000011100000 5!
1c$
#999
0c$
#1001
b0000000011100001 5!
1c$
#1003
0c$
#1005
b0000000011100010 5!
1c$
#1007
0c$
#1009
b0000000011100011 5!
1c$
#1011
0c$
#1013
b0000000011100100 5!
1c$
#1015
0c$
#1017
b0000000011100101 5!
1c$
#1019
0c$
#1021
b0000000011100110 5!
1c$
#1023
0c$
#1025
b0000000011100111 5!
1c$
#1027
0c$
#1029
b0000000011101000 5!
1c$
#1031
0c$
#1033
b0000000011101001 5!
1c$
#1035
0c$
#1037
b0000000011101010 5!
1c$
#1039
0c$
#1041
b0000000011101011 5!
1c$
#1043
0c$
#1045
b0000000011101100 5!
1c$
#1047
0c$
#1049
b0000000011101101 5!
1c$
#1051
0c$
#1053
b0000000011101110 5!
1c$
#1055
0c$
#1057
b0000000011101111 5!
1c$
#1059
0c$
#1061
b0000000011110000 5!
1c$
#1063
0c$
#1065
b0000000011110001 5!
1c$
#1067
0c$
#1069
b0000000011110010 5!
1c$
#1071
0c$
#1073
b0000000011110011 5!
1c$
#1075
0c$
#1077
b0000000011110100 5!
1c$
#1079
0c$
#1081
b0000000011110101 5!
1c$
#1083
0c$
#1085
b0000000011110110 5!
1c$
#1087
0c$
#1089
b0000000011110111 5!
1c$
#1091
0c$
#1093
b0000000011111000 5!
1c$
#1095
0c$
#1097
b0000000011111001 5!
1c$
#1099
0c$
#1101
b0000000011111010 5!
1c$
#1103
0c$
#1105
b0000000011111011 5!
1c$
#1107
0c$
#1109
b0000000011111100 5!
1c$
#1111
0c$
#1113
b0000000011111101 5!
1c$
#1115
0c$
#1117
b0000000011111110 5!
1c$
#1119
0c$
#1121
b0000000011111111 5!
1c$
#1123
0c$
#1125
b0000000100000000 5!
1c$
#1127
0c$
#1129
b0000000100000001 5!
1c$
#1131
0c$
#1133
b0000000100000010 5!
1c$
#1135
0c$
#1137
b0000000100000011 5!
1c$
#1139
0c$
#1141
b0000000100000100 5!
1c$
#1143
0c$
#1145
b0000000100000101 5!
1c$
#1147
0c$
#1149
b0000000100000110 5!
1c$
#1151
0c$
#1153
b0000000100000111 5!
1c$
#1155
0c$
#1157
b0000000100001000 5!
1c$
#1159
0c$
#1161
b0000000100001001 5!
1c$
#1163
0c$
#1165
b0000000100001010 5!
1c$
#1167
0c$
#1169
b0000000100001011 5!
1c$
#1171
0c$
#1173
b0000000100001100 5!
1c$
#1175
0c$
#1177
b0000000100001101 5!
1c$
#1179
0c$
#1181
b0000000100001110 5!
1c$
#1183
0c$
#1185
b0000000100001111 5!
1c$
#1187
0c$
#1189
b0000000100010000 5!
1c$
#1191
0c$
#1193
b0000000100010001 5!
1c$
#1195
0c$
#1197
b0000000100010010 5!
1c$
#1199
0c$
#1201
b0000000100010011 5!
1c$
#1203
0c$
#1205
b0000000100010100 5!
1c$
#1207
0c$
#1209
b0000000100010101 5!
1c$
#1211
0c$
#1213
b0000000100010110 5!
1c$
#1215
0c$
#1217
b0000000100010111 5!
1c$
#1219
0c$
#1221
b0000000100011000 5!
1c$
#1223
0c$
#1225
b0000000100011001 5!
1c$
#1227
0c$
#1229
b0000000100011010 5!
1c$
#1231
0c$
#1233
b0000000100011011 5!
1c$
#1235
0c$
#1237
b0000000100011100 5!
1c$
#1239
0c$
#1241
b0000000100011101 5!
1c$
#1243
0c$
#1245
b0000000100011110 5!
1c$
#1247
0c$
#1249
b0000000100011111 5!
1c$
#1251
0c$
#1253
b0000000100100000 5!
1c$
#1255
0c$
#1257
b0000000100100001 5!
1c$
#1259
0c$
#1261
b0000000100100010 5!
1c$
#1263
0c$
#1265
b0000000100100011 5!
1c$
#1267
0c$
#1269
b0000000100100100 5!
1c$
#1271
0c$
#1273
b0000000100100101 5!
1c$
#1275
0c$
#1277
b0000000100100110 5!
1c$
#1279
0c$
#1281
b0000000100100111 5!
1c$
#1283
0c$
#1285
b0000000100101000 5!
1c$
#1287
0c$
#1289
b0000000100101001 5!
1c$
#1291
0c$
#1293
b0000000100101010 5!
1c$
#1295
0c$
#1297
b0000000100101011 5!
1c$
#1299
0c$
#1301
1S
0[
1c
b0000000100101100 5!
1c$
#1303
0c$
#1305
1+
03
0S
1[
0c
b0000000000000000 5!
1S$
0[$
1c$
#1307
0c$
#1309
b0000000000000001 5!
1c$
#1311
0c$
#1313
b0000000000000010 5!
1c$
#1315
0c$
#1317
b0000000000000011 5!
1c$
#1319
0c$
#1321
b0000000000000100 5!
1c$
#1323
0c$
#1325
b0000000000000101 5!
1c$
#1327
0c$
#1329
b0000000000000110 5!
1c$
#1331
0c$
#1333
b0000000000000111 5!
1c$
#1335
0c$
#1337
b0000000000001000 5!
1c$
#1339
0c$
#1341
b0000000000001001 5!
1c$
#1343
0c$
#1345
b0000000000001010 5!
1c$
#1347
0c$
#1349
b0000000000001011 5!
1c$
#1351
0c$
#1353
b0000000000001100 5!
1c$
#1355
0c$
#1357
b0000000000001101 5!
1c$
#1359
0c$
#1361
b0000000000001110 5!
1c$
#1363
0c$
#1365
b0000000000001111 5!
1c$
#1367
0c$
#1369
b0000000000010000 5!
1c$
#1371
0c$
#1373
b0000000000010001 5!
1c$
#1375
0c$
#1377
b0000000000010010 5!
1c$
#1379
0c$
#1381
b0000000000010011 5!
1c$
#1383
0c$
#1385
b0000000000010100 5!
1c$
#1387
0c$
#1389
b0000000000010101 5!
1c$
#1391
0c$
#1393
b0000000000010110 5!
1c$
#1395
0c$
#1397
b0000000000010111 5!
1c$
#1399
0c$
#1401
b0000000000011000 5!
1c$
#1403
0c$
#1405
b0000000000011001 5!
1c$
#1407
0c$
#1409
b0000000000011010 5!
1c$
#1411
0c$
#1413
b0000000000011011 5!
1c$
#1415
0c$
#1417
b0000000000011100 5!
1c$
#1419
0c$
#1421
b0000000000011101 5!
1c$
#1423
0c$
#1425
b0000000000011110 5!
1c$
#1427
0c$
#1429
b0000000000011111 5!
1c$
#1431
0c$
#1433
b0000000000100000 5!
1c$
#1435
0c$
#1437
b0000000000100001 5!
1c$
#1439
0c$
#1441
b0000000000100010 5!
1c$
#1443
0c$
#1445
b0000000000100011 5!
1c$
#1447
0c$
#1449
b0000000000100100 5!
1c$
#1451
0c$
#1453
b0000000000100101 5!
1c$
#1455
0c$
#1457
b0000000000100110 5!
1c$
#1459
0c$
#1461
b0000000000100111 5!
1c$
#1463
0c$
#1465
b0000000000101000 5!
1c$
#1467
0c$
#1469
b0000000000101001 5!
1c$
#1471
0c$
#1473
b0000000000101010 5!
1c$
#1475
0c$
#1477
b0000000000101011 5!
1c$
#1479
0c$
#1481
b0000000000101100 5!
1c$
#1483
0c$
#1485
b0000000000101101 5!
1c$
#1487
0c$
#1489
b0000000000101110 5!
1c$
#1491
0c$
#1493
b0000000000101111 5!
1c$
#1495
0c$
#1497
b0000000000110000 5!
1c$
#1499
0c$
#1501
b0000000000110001 5!
1c$
#1503
0c$
#1505
b0000000000110010 5!
1c$
#1507
0c$
#1509
b0000000000110011 5!
1c$
#1511
0c$
#1513
b0000000000110100 5!
1c$
#1515
0c$
#1517
b0000000000110101 5!
1c$
#1519
0c$
#1521
b0000000000110110 5!
1c$
#1523
0c$
#1525
b0000000000110111 5!
1c$
#1527
0c$
#1529
b0000000000111000 5!
1c$
#1531
0c$
#1533
b0000000000111001 5!
1c$
#1535
0c$
#1537
b0000000000111010 5!
1c$
#1539
0c$
#1541
b0000000000111011 5!
1c$
#1543
0c$
#1545
b0000000000111100 5!
1c$
#1547
0c$
#1549
b0000000000111101 5!
1c$
#1551
0c$
#1553
b0000000000111110 5!
1c$
#1555
0c$
#1557
b0000000000111111 5!
1c$
#1559
0c$
#1561
b0000000001000000 5!
1c$
#1563
0c$
#1565
b0000000001000001 5!
1c$
#1567
0c$
#1569
b0000000001000010 5!
1c$
#1571
0c$
#1573
b0000000001000011 5!
1c$
#1575
0c$
#1577
b0000000001000100 5!
1c$
#1579
0c$
#1581
b0000000001000101 5!
1c$
#1583
0c$
#1585
b0000000001000110 5!
1c$
#1587
0c$
#1589
b0000000001000111 5!
1c$
#1591
0c$
#1593
b0000000001001000 5!
1c$
#1595
0c$
#1597
b0000000001001001 5!
1c$
#1599
0c$
#1601
b0000000001001010 5!
1c$
#1603
0c$
#1605
b0000000001001011 5!
1c$
#1607
0c$
#1609
b0000000001001100 5!
1c$
#1611
0c$
#1613
b0000000001001101 5!
1c$
#1615
0c$
#1617
b0000000001001110 5!
1c$
#1619
0c$
#1621
b0000000001001111 5!
1c$
#1623
0c$
#1625
b0000000001010000 5!
1c$
#1627
0c$
#1629
b0000000001010001 5!
1c$
#1631
0c$
#1633
b0000000001010010 5!
1c$
#1635
0c$
#1637
b0000000001010011 5!
1c$
#1639
0c$
#1641
b0000000001010100 5!
1c$
#1643
0c$
#1645
b0000000001010101 5!
1c$
#1647
0c$
#1649
b0000000001010110 5!
1c$
#1651
0c$
#1653
b0000000001010111 5!
1c$
#1655
0c$
#1657
b0000000001011000 5!
1c$
#1659
0c$
#1661
b0000000001011001 5!
1c$
#1663
0c$
#1665
b0000000001011010 5!
1c$
#1667
0c$
#1669
b0000000001011011 5!
1c$
#1671
0c$
#1673
b0000000001011100 5!
1c$
#1675
0c$
#1677
b0000000001011101 5!
1c$
#1679
0c$
#1681
b0000000001011110 5!
1c$
#1683
0c$
#1685
b0000000001011111 5!
1c$
#1687
0c$
#1689
b0000000001100000 5!
1c$
#1691
0c$
#1693
b0000000001100001 5!
1c$
#1695
0c$
#1697
b0000000001100010 5!
1c$
#1699
0c$
#1701
b0000000001100011 5!
1c$
#1703
0c$
#1705
0+
13
b0000000001100100 5!
0S$
1[$
1c$
#1707
0c$
#1709
b0000000001100101 5!
1c$
#1711
0c$
#1713
b0000000001100110 5!
1c$
#1715
0c$
#1717
b0000000001100111 5!
1c$
#1719
0c$
#1721
b0000000001101000 5!
1c$
#1723
0c$
#1725
b0000000001101001 5!
1c$
#1727
0c$
#1729
b0000000001101010 5!
1c$
#1731
0c$
#1733
b0000000001101011 5!
1c$
#1735
0c$
#1737
b0000000001101100 5!
1c$
#1739
0c$
#1741
b0000000001101101 5!
1c$
#1743
0c$
#1745
b0000000001101110 5!
1c$
#1747
0c$
#1749
b0000000001101111 5!
1c$
#1751
0c$
#1753
b0000000001110000 5!
1c$
#1755
0c$
#1757
b0000000001110001 5!
1c$
#1759
0c$
#1761
b0000000001110010 5!
1c$
#1763
0c$
#1765
b0000000001110011 5!
1c$
#1767
0c$
#1769
b0000000001110100 5!
1c$
#1771
0c$
#1773
b0000000001110101 5!
1c$
#1775
0c$
#1777
b0000000001110110 5!
1c$
#1779
0c$
#1781
b0000000001110111 5!
1c$
#1783
0c$
#1785
b0000000001111000 5!
1c$
#1787
0c$
#1789
b0000000001111001 5!
1c$
#1791
0c$
#1793
b0000000001111010 5!
1c$
#1795
0c$
#1797
b0000000001111011 5!
1c$
#1799
0c$
#1801
b0000000001111100 5!
1c$
#1803
0c$
#1805
b0000000001111101 5!
1c$
#1807
0c$
#1809
b0000000001111110 5!
1c$
#1811
0c$
#1813
b0000000001111111 5!
1c$
#1815
0c$
