simWorkspace/SCEqualizer/test.vcd
$version Generated by VerilatedVcd $end
$date Mon Jun 27 22:33:24 2022
 $end
$timescale   1ns $end

 $scope module TOP $end
  $var wire  1 51 clk $end
  $var wire 16 %1 equalized_data_payload_fragment_cha_i [15:0] $end
  $var wire 16 -1 equalized_data_payload_fragment_cha_q [15:0] $end
  $var wire  1 {0 equalized_data_payload_last $end
  $var wire  1 s0 equalized_data_valid $end
  $var wire 16 c0 raw_data_payload_fragment_cha_i [15:0] $end
  $var wire 16 k0 raw_data_payload_fragment_cha_q [15:0] $end
  $var wire  1 [0 raw_data_payload_last $end
  $var wire  1 S0 raw_data_ready $end
  $var wire  1 K0 raw_data_valid $end
  $var wire  1 =1 reset $end
  $scope module SCEqualizer $end
   $var wire 16 k cha_i_ref_0 [15:0] $end
   $var wire 16 s cha_i_ref_1 [15:0] $end
   $var wire 16 ]! cha_i_ref_10 [15:0] $end
   $var wire 16 e! cha_i_ref_11 [15:0] $end
   $var wire 16 m! cha_i_ref_12 [15:0] $end
   $var wire 16 u! cha_i_ref_13 [15:0] $end
   $var wire 16 }! cha_i_ref_14 [15:0] $end
   $var wire 16 '" cha_i_ref_15 [15:0] $end
   $var wire 16 /" cha_i_ref_16 [15:0] $end
   $var wire 16 7" cha_i_ref_17 [15:0] $end
   $var wire 16 ?" cha_i_ref_18 [15:0] $end
   $var wire 16 G" cha_i_ref_19 [15:0] $end
   $var wire 16 { cha_i_ref_2 [15:0] $end
   $var wire 16 O" cha_i_ref_20 [15:0] $end
   $var wire 16 W" cha_i_ref_21 [15:0] $end
   $var wire 16 _" cha_i_ref_22 [15:0] $end
   $var wire 16 g" cha_i_ref_23 [15:0] $end
   $var wire 16 o" cha_i_ref_24 [15:0] $end
   $var wire 16 w" cha_i_ref_25 [15:0] $end
   $var wire 16 !# cha_i_ref_26 [15:0] $end
   $var wire 16 )# cha_i_ref_27 [15:0] $end
   $var wire 16 1# cha_i_ref_28 [15:0] $end
   $var wire 16 9# cha_i_ref_29 [15:0] $end
   $var wire 16 %! cha_i_ref_3 [15:0] $end
   $var wire 16 A# cha_i_ref_30 [15:0] $end
   $var wire 16 I# cha_i_ref_31 [15:0] $end
   $var wire 16 Q# cha_i_ref_32 [15:0] $end
   $var wire 16 Y# cha_i_ref_33 [15:0] $end
   $var wire 16 a# cha_i_ref_34 [15:0] $end
   $var wire 16 i# cha_i_ref_35 [15:0] $end
   $var wire 16 q# cha_i_ref_36 [15:0] $end
   $var wire 16 y# cha_i_ref_37 [15:0] $end
   $var wire 16 #$ cha_i_ref_38 [15:0] $end
   $var wire 16 +$ cha_i_ref_39 [15:0] $end
   $var wire 16 -! cha_i_ref_4 [15:0] $end
   $var wire 16 3$ cha_i_ref_40 [15:0] $end
   $var wire 16 ;$ cha_i_ref_41 [15:0] $end
   $var wire 16 C$ cha_i_ref_42 [15:0] $end
   $var wire 16 K$ cha_i_ref_43 [15:0] $end
   $var wire 16 S$ cha_i_ref_44 [15:0] $end
   $var wire 16 [$ cha_i_ref_45 [15:0] $end
   $var wire 16 c$ cha_i_ref_46 [15:0] $end
   $var wire 16 k$ cha_i_ref_47 [15:0] $end
   $var wire 16 s$ cha_i_ref_48 [15:0] $end
   $var wire 16 {$ cha_i_ref_49 [15:0] $end
   $var wire 16 5! cha_i_ref_5 [15:0] $end
   $var wire 16 %% cha_i_ref_50 [15:0] $end
   $var wire 16 -% cha_i_ref_51 [15:0] $end
   $var wire 16 5% cha_i_ref_52 [15:0] $end
   $var wire 16 =% cha_i_ref_53 [15:0] $end
   $var wire 16 E% cha_i_ref_54 [15:0] $end
   $var wire 16 M% cha_i_ref_55 [15:0] $end
   $var wire 16 U% cha_i_ref_56 [15:0] $end
   $var wire 16 ]% cha_i_ref_57 [15:0] $end
   $var wire 16 e% cha_i_ref_58 [15:0] $end
   $var wire 16 m% cha_i_ref_59 [15:0] $end
   $var wire 16 =! cha_i_ref_6 [15:0] $end
   $var wire 16 u% cha_i_ref_60 [15:0] $end
   $var wire 16 }% cha_i_ref_61 [15:0] $end
   $var wire 16 '& cha_i_ref_62 [15:0] $end
   $var wire 16 /& cha_i_ref_63 [15:0] $end
   $var wire 16 E! cha_i_ref_7 [15:0] $end
   $var wire 16 M! cha_i_ref_8 [15:0] $end
   $var wire 16 U! cha_i_ref_9 [15:0] $end
   $var wire 16 [ cha_i_scale [15:0] $end
   $var wire 16 7& cha_q_ref_0 [15:0] $end
   $var wire 16 ?& cha_q_ref_1 [15:0] $end
   $var wire 16 )' cha_q_ref_10 [15:0] $end
   $var wire 16 1' cha_q_ref_11 [15:0] $end
   $var wire 16 9' cha_q_ref_12 [15:0] $end
   $var wire 16 A' cha_q_ref_13 [15:0] $end
   $var wire 16 I' cha_q_ref_14 [15:0] $end
   $var wire 16 Q' cha_q_ref_15 [15:0] $end
   $var wire 16 Y' cha_q_ref_16 [15:0] $end
   $var wire 16 a' cha_q_ref_17 [15:0] $end
   $var wire 16 i' cha_q_ref_18 [15:0] $end
   $var wire 16 q' cha_q_ref_19 [15:0] $end
   $var wire 16 G& cha_q_ref_2 [15:0] $end
   $var wire 16 y' cha_q_ref_20 [15:0] $end
   $var wire 16 #( cha_q_ref_21 [15:0] $end
   $var wire 16 +( cha_q_ref_22 [15:0] $end
   $var wire 16 3( cha_q_ref_23 [15:0] $end
   $var wire 16 ;( cha_q_ref_24 [15:0] $end
   $var wire 16 C( cha_q_ref_25 [15:0] $end
   $var wire 16 K( cha_q_ref_26 [15:0] $end
   $var wire 16 S( cha_q_ref_27 [15:0] $end
   $var wire 16 [( cha_q_ref_28 [15:0] $end
   $var wire 16 c( cha_q_ref_29 [15:0] $end
   $var wire 16 O& cha_q_ref_3 [15:0] $end
   $var wire 16 k( cha_q_ref_30 [15:0] $end
   $var wire 16 s( cha_q_ref_31 [15:0] $end
   $var wire 16 {( cha_q_ref_32 [15:0] $end
   $var wire 16 %) cha_q_ref_33 [15:0] $end
   $var wire 16 -) cha_q_ref_34 [15:0] $end
   $var wire 16 5) cha_q_ref_35 [15:0] $end
   $var wire 16 =) cha_q_ref_36 [15:0] $end
   $var wire 16 E) cha_q_ref_37 [15:0] $end
   $var wire 16 M) cha_q_ref_38 [15:0] $end
   $var wire 16 U) cha_q_ref_39 [15:0] $end
   $var wire 16 W& cha_q_ref_4 [15:0] $end
   $var wire 16 ]) cha_q_ref_40 [15:0] $end
   $var wire 16 e) cha_q_ref_41 [15:0] $end
   $var wire 16 m) cha_q_ref_42 [15:0] $end
   $var wire 16 u) cha_q_ref_43 [15:0] $end
   $var wire 16 }) cha_q_ref_44 [15:0] $end
   $var wire 16 '* cha_q_ref_45 [15:0] $end
   $var wire 16 /* cha_q_ref_46 [15:0] $end
   $var wire 16 7* cha_q_ref_47 [15:0] $end
   $var wire 16 ?* cha_q_ref_48 [15:0] $end
   $var wire 16 G* cha_q_ref_49 [15:0] $end
   $var wire 16 _& cha_q_ref_5 [15:0] $end
   $var wire 16 O* cha_q_ref_50 [15:0] $end
   $var wire 16 W* cha_q_ref_51 [15:0] $end
   $var wire 16 _* cha_q_ref_52 [15:0] $end
   $var wire 16 g* cha_q_ref_53 [15:0] $end
   $var wire 16 o* cha_q_ref_54 [15:0] $end
   $var wire 16 w* cha_q_ref_55 [15:0] $end
   $var wire 16 !+ cha_q_ref_56 [15:0] $end
   $var wire 16 )+ cha_q_ref_57 [15:0] $end
   $var wire 16 1+ cha_q_ref_58 [15:0] $end
   $var wire 16 9+ cha_q_ref_59 [15:0] $end
   $var wire 16 g& cha_q_ref_6 [15:0] $end
   $var wire 16 A+ cha_q_ref_60 [15:0] $end
   $var wire 16 I+ cha_q_ref_61 [15:0] $end
   $var wire 16 Q+ cha_q_ref_62 [15:0] $end
   $var wire 16 Y+ cha_q_ref_63 [15:0] $end
   $var wire 16 o& cha_q_ref_7 [15:0] $end
   $var wire 16 w& cha_q_ref_8 [15:0] $end
   $var wire 16 !' cha_q_ref_9 [15:0] $end
   $var wire 16 c cha_q_scale [15:0] $end
   $var wire  1 51 clk $end
   $var wire  6 i/ cnt [5:0] $end
   $var wire 16 %1 equalized_data_payload_fragment_cha_i [15:0] $end
   $var wire 16 -1 equalized_data_payload_fragment_cha_q [15:0] $end
   $var wire  1 {0 equalized_data_payload_last $end
   $var wire  1 s0 equalized_data_valid $end
   $var wire  1 u1 i_zf_eq_raw_data_ready $end
   $var wire 16 3 i_zf_eq_ref_data [15:0] $end
   $var wire 16 # i_zf_eq_result_data_payload [15:0] $end
   $var wire  1 Y/ i_zf_eq_result_data_valid $end
   $var wire  1 u1 q_zf_eq_raw_data_ready $end
   $var wire 16 ; q_zf_eq_ref_data [15:0] $end
   $var wire 16 + q_zf_eq_result_data_payload [15:0] $end
   $var wire  1 a/ q_zf_eq_result_data_valid $end
   $var wire  1 E1 raw_data_fire $end
   $var wire  1 E1 raw_data_fire_1 $end
   $var wire  1 E1 raw_data_fire_2 $end
   $var wire 16 c0 raw_data_payload_fragment_cha_i [15:0] $end
   $var wire 16 k0 raw_data_payload_fragment_cha_q [15:0] $end
   $var wire  1 [0 raw_data_payload_last $end
   $var wire  1 a+ raw_data_payload_last_delay_1 $end
   $var wire  1 K, raw_data_payload_last_delay_10 $end
   $var wire  1 S, raw_data_payload_last_delay_11 $end
   $var wire  1 [, raw_data_payload_last_delay_12 $end
   $var wire  1 c, raw_data_payload_last_delay_13 $end
   $var wire  1 k, raw_data_payload_last_delay_14 $end
   $var wire  1 s, raw_data_payload_last_delay_15 $end
   $var wire  1 {, raw_data_payload_last_delay_16 $end
   $var wire  1 i+ raw_data_payload_last_delay_2 $end
   $var wire  1 q+ raw_data_payload_last_delay_3 $end
   $var wire  1 y+ raw_data_payload_last_delay_4 $end
   $var wire  1 #, raw_data_payload_last_delay_5 $end
   $var wire  1 +, raw_data_payload_last_delay_6 $end
   $var wire  1 3, raw_data_payload_last_delay_7 $end
   $var wire  1 ;, raw_data_payload_last_delay_8 $end
   $var wire  1 C, raw_data_payload_last_delay_9 $end
   $var wire  1 S0 raw_data_ready $end
   $var wire  1 ;0 raw_data_ready_1 $end
   $var wire  1 K0 raw_data_valid $end
   $var wire  1 =1 reset $end
   $var wire  6 y/ train_cnt [5:0] $end
   $var wire  1 q/ train_en $end
   $var wire  1 #0 train_finished $end
   $var wire  1 M1 when_SCEqualizer_l50 $end
   $var wire  1 C when_SCEqualizer_l74 $end
   $var wire  1 +0 when_SCEqualizer_l76 $end
   $var wire  1 30 when_SCEqualizer_l79 $end
   $var wire  1 U1 when_SCEqualizer_l89 $end
   $var wire  1 ]1 when_SCEqualizer_l91 $end
   $scope module i_zf_eq $end
    $var wire 16 e1 cal_core_raw_data_payload_x [15:0] $end
    $var wire 16 K cal_core_raw_data_payload_y [15:0] $end
    $var wire 16 I/ cal_core_raw_data_payload_z [15:0] $end
    $var wire  1 u1 cal_core_raw_data_ready $end
    $var wire 16 %- cal_core_result_payload_x [15:0] $end
    $var wire 16 -- cal_core_result_payload_y [15:0] $end
    $var wire 16 5- cal_core_result_payload_z [15:0] $end
    $var wire  1 Y/ cal_core_result_valid $end
    $var wire  1 C0 cal_core_rotate_mode $end
    $var wire  1 51 clk $end
    $var wire 16 M- div_result [15:0] $end
    $var wire 16 E- mul_result [15:0] $end
    $var wire 16 c0 raw_data_payload [15:0] $end
    $var wire  1 u1 raw_data_ready $end
    $var wire  1 K0 raw_data_valid $end
    $var wire 16 3 ref_data [15:0] $end
    $var wire  1 =1 reset $end
    $var wire 16 # result_data_payload [15:0] $end
    $var wire  1 Y/ result_data_valid $end
    $var wire 16 [ scale [15:0] $end
    $var wire  1 q/ train_en $end
    $var wire  1 U- train_en_delay_1 $end
    $var wire  1 ?. train_en_delay_10 $end
    $var wire  1 G. train_en_delay_11 $end
    $var wire  1 O. train_en_delay_12 $end
    $var wire  1 W. train_en_delay_13 $end
    $var wire  1 _. train_en_delay_14 $end
    $var wire  1 g. train_en_delay_15 $end
    $var wire  1 o. train_en_delay_16 $end
    $var wire  1 ]- train_en_delay_2 $end
    $var wire  1 e- train_en_delay_3 $end
    $var wire  1 m- train_en_delay_4 $end
    $var wire  1 u- train_en_delay_5 $end
    $var wire  1 }- train_en_delay_6 $end
    $var wire  1 '. train_en_delay_7 $end
    $var wire  1 /. train_en_delay_8 $end
    $var wire  1 7. train_en_delay_9 $end
    $var wire  1 =- x_sign $end
    $scope module cal_core $end
     $var wire  1 51 clk $end
     $var wire  1 K0 raw_data_fire $end
     $var wire 16 e1 raw_data_payload_x [15:0] $end
     $var wire 16 K raw_data_payload_y [15:0] $end
     $var wire 16 I/ raw_data_payload_z [15:0] $end
     $var wire  1 u1 raw_data_ready $end
     $var wire  1 K0 raw_data_valid $end
     $var wire  1 =1 reset $end
     $var wire 16 %- result_payload_x [15:0] $end
     $var wire 16 -- result_payload_y [15:0] $end
     $var wire 16 5- result_payload_z [15:0] $end
     $var wire  1 Y/ result_valid $end
     $var wire  1 C0 rotate_mode $end
     $var wire  2 }1 x_u [1:0] $end
    $upscope $end
   $upscope $end
   $scope module q_zf_eq $end
    $var wire 16 m1 cal_core_raw_data_payload_x [15:0] $end
    $var wire 16 S cal_core_raw_data_payload_y [15:0] $end
    $var wire 16 Q/ cal_core_raw_data_payload_z [15:0] $end
    $var wire  1 u1 cal_core_raw_data_ready $end
    $var wire 16 w. cal_core_result_payload_x [15:0] $end
    $var wire 16 !/ cal_core_result_payload_y [15:0] $end
    $var wire 16 )/ cal_core_result_payload_z [15:0] $end
    $var wire  1 a/ cal_core_result_valid $end
    $var wire  1 C0 cal_core_rotate_mode $end
    $var wire  1 51 clk $end
    $var wire 16 A/ div_result [15:0] $end
    $var wire 16 9/ mul_result [15:0] $end
    $var wire 16 k0 raw_data_payload [15:0] $end
    $var wire  1 u1 raw_data_ready $end
    $var wire  1 K0 raw_data_valid $end
    $var wire 16 ; ref_data [15:0] $end
    $var wire  1 =1 reset $end
    $var wire 16 + result_data_payload [15:0] $end
    $var wire  1 a/ result_data_valid $end
    $var wire 16 c scale [15:0] $end
    $var wire  1 q/ train_en $end
    $var wire  1 U- train_en_delay_1 $end
    $var wire  1 ?. train_en_delay_10 $end
    $var wire  1 G. train_en_delay_11 $end
    $var wire  1 O. train_en_delay_12 $end
    $var wire  1 W. train_en_delay_13 $end
    $var wire  1 _. train_en_delay_14 $end
    $var wire  1 g. train_en_delay_15 $end
    $var wire  1 o. train_en_delay_16 $end
    $var wire  1 ]- train_en_delay_2 $end
    $var wire  1 e- train_en_delay_3 $end
    $var wire  1 m- train_en_delay_4 $end
    $var wire  1 u- train_en_delay_5 $end
    $var wire  1 }- train_en_delay_6 $end
    $var wire  1 '. train_en_delay_7 $end
    $var wire  1 /. train_en_delay_8 $end
    $var wire  1 7. train_en_delay_9 $end
    $var wire  1 1/ x_sign $end
    $scope module cal_core $end
     $var wire  1 51 clk $end
     $var wire  1 K0 raw_data_fire $end
     $var wire 16 m1 raw_data_payload_x [15:0] $end
     $var wire 16 S raw_data_payload_y [15:0] $end
     $var wire 16 Q/ raw_data_payload_z [15:0] $end
     $var wire  1 u1 raw_data_ready $end
     $var wire  1 K0 raw_data_valid $end
     $var wire  1 =1 reset $end
     $var wire 16 w. result_payload_x [15:0] $end
     $var wire 16 !/ result_payload_y [15:0] $end
     $var wire 16 )/ result_payload_z [15:0] $end
     $var wire  1 a/ result_valid $end
     $var wire  1 C0 rotate_mode $end
     $var wire  2 }1 x_u [1:0] $end
    $upscope $end
   $upscope $end
  $upscope $end
 $upscope $end
$enddefinitions $end


#0
b0100110100110010 #
b1111011111001100 +
b0111001101101010 3
b0010100001100010 ;
0C
b0111001101101010 K
b0010100001100010 S
b0001000100111001 [
b0001101011010101 c
b0111001101101010 k
b0111111111010101 s
b0100101000010111 {
b1110111100011011 %!
b1000001111010001 -!
b1001110101111001 5!
b0001100011111010 =!
b0001011110000011 E!
b0010001100010000 M!
b1010111111110110 U!
b1100001000010001 ]!
b1100111100111111 e!
b0001101000011001 m!
b1010111010111000 u!
b1010100110000110 }!
b1010001110100001 '"
b1011000010001110 /"
b1011100011110011 7"
b1010011000010100 ?"
b0111011100110111 G"
b0101110100101100 O"
b1110010010001110 W"
b1000111110111010 _"
b0110000011100101 g"
b1100000010111100 o"
b1101000010111111 w"
b1010000001001001 !#
b1110010000010111 )#
b1111000110101001 1#
b0010010011011101 9#
b1000111110010110 A#
b1111011110000001 I#
b1110000100111010 Q#
b0100100111010110 Y#
b1001001000100110 a#
b1000110011010110 i#
b0101101000101111 q#
b1010011000111010 y#
b0010001000001101 #$
b0101001100011000 +$
b0000000110110010 3$
b0001100111010011 ;$
b1100010011001111 C$
b1011010010110000 K$
b0001101010011001 S$
b1010100101011101 [$
b1001000111100110 c$
b0010101100001100 k$
b1100000001100011 s$
b1001001011110101 {$
b0001111000011111 %%
b1011000001011011 -%
b0100101101100000 5%
b1100010101010111 =%
b0000101100010011 E%
b0000101110100100 M%
b1101010100010100 U%
b0110101011111000 ]%
b1100001100010100 e%
b0011011101011010 m%
b0010000101100001 u%
b0101001101100101 }%
b0101000011101111 '&
b0001110010100011 /&
b0010100001100010 7&
b1110000100100001 ?&
b0111010111010000 G&
b1101101010100100 O&
b0000000000011101 W&
b1011001111000111 _&
b0010110001110010 g&
b0000001111001000 o&
b1010010010010100 w&
b0110110110010010 !'
b0000010111100100 )'
b1110111100011001 1'
b1001100100011001 9'
b1000100100100000 A'
b0110111101100011 I'
b0100110001000010 Q'
b1101000100101110 Y'
b1000010011101110 a'
b0101000100000010 i'
b1110011111100010 q'
b0010001010110101 y'
b0001101111110101 #(
b0001101101001001 +(
b0100110000110000 3(
b1010001111010111 ;(
b1001110110010001 C(
b1010100010010111 K(
b1111001000111110 S(
b0000000010001110 [(
b1011001110001001 c(
b1000000110000001 k(
b0010000000000010 s(
b0001111111011010 {(
b0001001011011100 %)
b0000101010100001 -)
b0011010000101010 5)
b0100100101011011 =)
b1111101001111011 E)
b0110110110111011 M)
b0010001101011001 U)
b1101100111011111 ])
b1100101001110001 e)
b1010001101011011 m)
b1010010000000011 u)
b1101000010001110 })
b0000110011001111 '*
b0101001100011111 /*
b1111010001011000 7*
b1001000101101010 ?*
b1000101011111000 G*
b1111001110101110 O*
b0111001000110001 W*
b1100111100100101 _*
b1000011111110110 g*
b0100010000110011 o*
b1110000100100000 w*
b0001010001100111 !+
b0110101010011110 )+
b1101111101000100 1+
b1111001000010111 9+
b0011010001000110 A+
b1011000011000101 I+
b0101000010100000 Q+
b0011111010001001 Y+
1a+
0i+
0q+
0y+
0#,
0+,
13,
1;,
1C,
1K,
0S,
0[,
1c,
1k,
0s,
1{,
b0010010010101110 %-
b0100110100110010 --
b1010001110100110 5-
0=-
b0100110100110010 E-
b1010001110100110 M-
1U-
0]-
1e-
1m-
0u-
0}-
0'.
0/.
07.
1?.
1G.
1O.
0W.
0_.
0g.
0o.
b1010011111001110 w.
b1111011111001100 !/
b1011110111100010 )/
01/
b1111011111001100 9/
b1011110111100010 A/
b0000000000000000 I/
b0000000000000000 Q/
0Y/
0a/
b000000 i/
1q/
b000000 y/
0#0
0+0
130
1;0
0C0
0K0
1S0
0[0
b0011101111100110 c0
b0000101001100010 k0
0s0
1{0
b0000000000000000 %1
b0000000000000000 -1
051
1=1
0E1
0M1
0U1
0]1
b0011101111100110 e1
b0000101001100010 m1
1u1
b01 }1
#80
0=1
#85
b0000100000110100 +
b0000000000000000 3
b0000000000000000 ;
b0000000000000000 K
b0000000000000000 S
b0000000000000000 [
b0000000000000000 k
b0000000010000000 s
b1111111110000000 {
b1111111110000000 %!
b0000000010000000 -!
b0000000010000000 5!
b1111111110000000 =!
b0000000010000000 E!
b1111111110000000 M!
b0000000010000000 U!
b1111111110000000 ]!
b1111111110000000 e!
b1111111110000000 m!
b1111111110000000 u!
b1111111110000000 }!
b0000000010000000 '"
b0000000010000000 /"
b1111111110000000 7"
b1111111110000000 ?"
b0000000010000000 G"
b1111111110000000 O"
b0000000010000000 W"
b1111111110000000 _"
b0000000010000000 g"
b0000000010000000 o"
b0000000010000000 w"
b0000000010000000 !#
b0000000000000000 )#
b0000000000000000 1#
b0000000000000000 9#
b0000000000000000 A#
b0000000000000000 I#
b0000000000000000 Q#
b0000000000000000 Y#
b0000000000000000 a#
b0000000000000000 i#
b0000000000000000 q#
b0000000000000000 y#
b0000000010000000 #$
b0000000010000000 +$
b1111111110000000 3$
b1111111110000000 ;$
b0000000010000000 C$
b0000000010000000 K$
b1111111110000000 S$
b0000000010000000 [$
b1111111110000000 c$
b0000000010000000 k$
b0000000010000000 s$
b0000000010000000 {$
b0000000010000000 %%
b0000000010000000 -%
b0000000010000000 5%
b1111111110000000 =%
b1111111110000000 E%
b0000000010000000 M%
b0000000010000000 U%
b1111111110000000 ]%
b0000000010000000 e%
b1111111110000000 m%
b0000000010000000 u%
b0000000010000000 }%
b0000000010000000 '&
b0000000010000000 /&
b0000000000000000 7&
b0000000000000000 ?&
b0000000000000000 G&
b0000000000000000 O&
b0000000000000000 W&
b0000000000000000 _&
b0000000000000000 g&
b0000000000000000 o&
b0000000000000000 w&
b0000000000000000 !'
b0000000000000000 )'
b0000000000000000 1'
b0000000000000000 9'
b0000000000000000 A'
b0000000000000000 I'
b0000000000000000 Q'
b0000000000000000 Y'
b0000000000000000 a'
b0000000000000000 i'
b0000000000000000 q'
b0000000000000000 y'
b0000000000000000 #(
b0000000000000000 +(
b0000000000000000 3(
b0000000000000000 ;(
b0000000000000000 C(
b0000000000000000 K(
b0000000000000000 S(
b0000000000000000 [(
b0000000000000000 c(
b0000000000000000 k(
b0000000000000000 s(
b0000000000000000 {(
b0000000000000000 %)
b0000000000000000 -)
b0000000000000000 5)
b0000000000000000 =)
b0000000000000000 E)
b0000000000000000 M)
b0000000000000000 U)
b0000000000000000 ])
b0000000000000000 e)
b0000000000000000 m)
b0000000000000000 u)
b0000000000000000 })
b0000000000000000 '*
b0000000000000000 /*
b0000000000000000 7*
b0000000000000000 ?*
b0000000000000000 G*
b0000000000000000 O*
b0000000000000000 W*
b0000000000000000 _*
b0000000000000000 g*
b0000000000000000 o*
b0000000000000000 w*
b0000000000000000 !+
b0000000000000000 )+
b0000000000000000 1+
b0000000000000000 9+
b0000000000000000 A+
b0000000000000000 I+
b0000000000000000 Q+
b0000000000000000 Y+
0a+
1i+
03,
1S,
0c,
1s,
0{,
1]-
0e-
1u-
0?.
1W.
11/
b0000100000110100 9/
b0100001000011110 A/
0{0
151
#87
051
#89
b1111011111001100 +
0i+
1q+
0;,
1[,
0k,
1{,
1e-
0m-
1}-
0G.
1_.
01/
b1111011111001100 9/
b1011110111100010 A/
1{0
151
#91
051
#93
b1011001011001110 #
0q+
1y+
0C,
1c,
0s,
1=-
b1011001011001110 E-
b0101110001011010 M-
1m-
0u-
1'.
0O.
1g.
151
#95
051
#97
b0101110001011010 #
b0100001000011110 +
0y+
1#,
0K,
1k,
0{,
1u-
0}-
1/.
0W.
1o.
11/
b0000100000110100 9/
b0100001000011110 A/
0{0
151
#99
051
#101
b1010001110100110 #
b1011110111100010 +
0#,
1+,
0S,
1s,
0=-
b0100110100110010 E-
b1010001110100110 M-
1}-
0'.
17.
0_.
01/
b1111011111001100 9/
b1011110111100010 A/
151
#103
051
#105
b0101110001011010 #
b0100001000011110 +
0+,
13,
0[,
1{,
1=-
b1011001011001110 E-
b0101110001011010 M-
1'.
0/.
1?.
0g.
11/
b0000100000110100 9/
b0100001000011110 A/
1{0
151
#107
051
#109
b0100110100110010 #
b1111011111001100 +
03,
1;,
0c,
0=-
b0100110100110010 E-
b1010001110100110 M-
1/.
07.
1G.
0o.
01/
b1111011111001100 9/
b1011110111100010 A/
151
#111
051
#113
0;,
1C,
0k,
17.
0?.
1O.
151
#115
051
#117
b1011001011001110 #
0C,
1K,
0s,
1=-
b1011001011001110 E-
b0101110001011010 M-
1?.
0G.
1W.
151
#119
051
#121
0K,
1S,
0{,
1G.
0O.
1_.
1K0
b0000000000000000 c0
b0000000000000000 k0
0{0
151
1E1
b0000000000000000 e1
b0000000000000000 m1
#123
051
#125
b0000100000110100 +
b0000000010000000 3
b0000000010000000 K
0S,
1[,
1O.
0W.
1g.
11/
b0000100000110100 9/
b0100001000011110 A/
b000001 i/
b0000000001011010 c0
151
b0000000001011010 e1
#127
051
#129
b1010001110100110 #
b0100001000011110 +
b1111111110000000 3
b1111111110000000 K
0[,
1c,
0=-
b0100110100110010 E-
b1010001110100110 M-
1W.
0_.
1o.
b000010 i/
b1111111110100110 c0
151
#131
051
#133
b0101110001011010 #
b1011110111100010 +
0c,
1k,
1=-
b1011001011001110 E-
b0101110001011010 M-
1_.
0g.
01/
b1111011111001100 9/
b1011110111100010 A/
b000011 i/
151
#135
051
#137
b0100110100110010 #
b0000100000110100 +
b0000000010000000 3
b0000000010000000 K
0k,
1s,
0=-
b0100110100110010 E-
b1010001110100110 M-
1g.
0o.
11/
b0000100000110100 9/
b0100001000011110 A/
b000100 i/
b0000000001011010 c0
151
#139
051
#141
b1010001110100110 #
b0100001000011110 +
0s,
1{,
1o.
b000101 i/
1{0
151
#143
051
#145
b1011110111100010 +
b1111111110000000 3
b1111111110000000 K
0{,
01/
b1111011111001100 9/
b1011110111100010 A/
b000110 i/
b1111111110100110 c0
0{0
151
#147
051
#149
b0000000010000000 3
b0000000010000000 K
b000111 i/
b0000000001011010 c0
151
#151
051
#153
b1111111110000000 3
b1111111110000000 K
b001000 i/
b1111111110100110 c0
151
#155
051
#157
b0000000010000000 3
b0000000010000000 K
b001001 i/
b0000000001011010 c0
151
#159
051
#161
b1111111110000000 3
b1111111110000000 K
b001010 i/
b1111111110100110 c0
151
#163
051
#165
b001011 i/
151
#167
051
#169
b001100 i/
151
#171
051
#173
b001101 i/
151
#175
051
#177
b001110 i/
151
#179
051
#181
b0000000010000000 3
b0000000010000000 K
b001111 i/
b0000000001011010 c0
151
#183
051
#185
b0001111111111111 #
b0001111111111111 +
1C
b0000000000000000 %-
b0000000000000000 --
b0001111111111111 5-
b0000000000000000 E-
b0001111111111111 M-
b0000000000000000 w.
b0000000000000000 !/
b0001111111111111 )/
b0000000000000000 9/
b0001111111111111 A/
1Y/
1a/
b010000 i/
151
#187
051
#189
b0001011011111111 #
b1111111110000000 3
b1111111110000000 K
b0001111111111111 [
b0001111111111111 c
b0000000001011010 %-
b0001011011111111 5-
b0001011011111111 M-
b010001 i/
b000001 y/
030
b1111111110100110 c0
151
#191
051
#193
b0001011010000001 #
b0001101101111110 [
b0001111111111110 c
b1110100101111111 5-
1=-
b0001011010000001 M-
b010010 i/
b000010 y/
151
#195
051
#197
b0000000010000000 3
b0000000010000000 K
b0001100011111111 [
b010011 i/
b000011 y/
b0000000001011010 c0
151
#199
051
#201
b0001011011111111 #
b1111111110000000 3
b1111111110000000 K
b0001011110111111 [
b0001011011111111 5-
0=-
b0001011011111111 M-
b010100 i/
b000100 y/
b1111111110100110 c0
151
#203
051
#205
b0000000010000000 3
b0000000010000000 K
b0001011101011110 [
b010101 i/
b000101 y/
b0000000001011010 c0
151
#207
051
#209
b0001011010000001 #
b1111111110000000 3
b1111111110000000 K
b0001011100101110 [
b1110100101111111 5-
1=-
b0001011010000001 M-
b010110 i/
b000110 y/
b1111111110100110 c0
151
#211
051
#213
b0001011011111111 #
b0000000010000000 3
b0000000010000000 K
b0001011011010111 [
b0001011011111111 5-
0=-
b0001011011111111 M-
b010111 i/
b000111 y/
b0000000001011010 c0
151
#215
051
#217
b0001011010000001 #
b0001011011101010 [
b1110100101111111 5-
1=-
b0001011010000001 M-
b011000 i/
b001000 y/
151
#219
051
#221
b0001011011111111 #
b0001011010110101 [
b0001011011111111 5-
0=-
b0001011011111111 M-
b011001 i/
b001001 y/
151
#223
051
#225
b0001011010000001 #
b0001011011011001 [
b1110100101111111 5-
1=-
b0001011010000001 M-
b011010 i/
b001010 y/
151
#227
051
#229
b0000000000000000 3
b0000000000000000 K
b0001011010101100 [
b011011 i/
b001011 y/
b0000000000000000 c0
151
b0000000000000000 e1
#231
051
#233
b0001011010010110 [
b011100 i/
b001100 y/
151
#235
051
#237
b0001011010001011 [
b011101 i/
b001101 y/
151
#239
051
#241
b0001011010000101 [
b011110 i/
b001110 y/
151
#243
051
#245
b0001011011111111 #
b0001011010000010 [
b0001011011111111 5-
0=-
b0001011011111111 M-
b011111 i/
b001111 y/
151
#247
051
#249
b0001011011000000 [
b100000 i/
b010000 y/
151
#251
051
#253
b0001011010000001 #
b0001011011011111 [
b1110100101111111 5-
1=-
b0001011010000001 M-
b100001 i/
b010001 y/
151
#255
051
#257
b0001011010101111 [
b100010 i/
b010010 y/
151
#259
051
#261
b0001011011111111 #
b0001011010010111 [
b0001011011111111 5-
0=-
b0001011011111111 M-
b100011 i/
b010011 y/
151
#263
051
#265
b0001011010000001 #
b0001011011001010 [
b1110100101111111 5-
1=-
b0001011010000001 M-
b100100 i/
b010100 y/
151
#267
051
#269
b0001011011111111 #
b0001011010100101 [
b0001011011111111 5-
0=-
b0001011011111111 M-
b100101 i/
b010101 y/
151
#271
051
#273
b0001011010000001 #
b0000000010000000 3
b0000000010000000 K
b0001011011010001 [
b1110100101111111 5-
1=-
b0001011010000001 M-
b100110 i/
b010110 y/
b0000000001011010 c0
151
b0000000001011010 e1
#275
051
#277
b0001011011111111 #
b0001011010101000 [
b0001011011111111 5-
0=-
b0001011011111111 M-
b100111 i/
b010111 y/
151
#279
051
#281
b1111111110000000 3
b1111111110000000 K
b0001011011010011 [
b101000 i/
b011000 y/
b1111111110100110 c0
151
#283
051
#285
b0001011011101000 [
b101001 i/
b011001 y/
151
#287
051
