simWorkspace/ZeroForcing/test.vcd
$version Generated by VerilatedVcd $end
$date Sat Jan 29 19:05:57 2022
 $end
$timescale   1ns $end

 $scope module TOP $end
  $var wire  1 B clk $end
  $var wire 16 < raw_data_payload [15:0] $end
  $var wire  1 ; raw_data_ready $end
  $var wire  1 : raw_data_valid $end
  $var wire 16 > ref_data [15:0] $end
  $var wire  1 C reset $end
  $var wire 16 A result_data_payload [15:0] $end
  $var wire  1 @ result_data_valid $end
  $var wire 16 = scale [15:0] $end
  $var wire  1 ? train_en $end
  $scope module ZeroForcing $end
   $var wire 16 E cal_core_raw_data_payload_x [15:0] $end
   $var wire 16 F cal_core_raw_data_payload_y [15:0] $end
   $var wire 16 G cal_core_raw_data_payload_z [15:0] $end
   $var wire  1 H cal_core_raw_data_ready $end
   $var wire 16 # cal_core_result_payload_x [15:0] $end
   $var wire 16 $ cal_core_result_payload_y [15:0] $end
   $var wire 16 % cal_core_result_payload_z [15:0] $end
   $var wire  1 9 cal_core_result_valid $end
   $var wire  1 D cal_core_rotate_mode $end
   $var wire  1 B clk $end
   $var wire 16 ( div_result [15:0] $end
   $var wire 16 ' mul_result [15:0] $end
   $var wire 16 < raw_data_payload [15:0] $end
   $var wire  1 ; raw_data_ready $end
   $var wire  1 : raw_data_valid $end
   $var wire 16 > ref_data [15:0] $end
   $var wire  1 C reset $end
   $var wire 16 A result_data_payload [15:0] $end
   $var wire  1 @ result_data_valid $end
   $var wire 16 = scale [15:0] $end
   $var wire  1 ? train_en $end
   $var wire  1 ) train_en_delay_1 $end
   $var wire  1 2 train_en_delay_10 $end
   $var wire  1 3 train_en_delay_11 $end
   $var wire  1 4 train_en_delay_12 $end
   $var wire  1 5 train_en_delay_13 $end
   $var wire  1 6 train_en_delay_14 $end
   $var wire  1 7 train_en_delay_15 $end
   $var wire  1 8 train_en_delay_16 $end
   $var wire  1 * train_en_delay_2 $end
   $var wire  1 + train_en_delay_3 $end
   $var wire  1 , train_en_delay_4 $end
   $var wire  1 - train_en_delay_5 $end
   $var wire  1 . train_en_delay_6 $end
   $var wire  1 / train_en_delay_7 $end
   $var wire  1 0 train_en_delay_8 $end
   $var wire  1 1 train_en_delay_9 $end
   $var wire  1 & x_sign $end
   $scope module cal_core $end
    $var wire  1 B clk $end
    $var wire  1 : raw_data_fire $end
    $var wire 16 E raw_data_payload_x [15:0] $end
    $var wire 16 F raw_data_payload_y [15:0] $end
    $var wire 16 G raw_data_payload_z [15:0] $end
    $var wire  1 H raw_data_ready $end
    $var wire  1 : raw_data_valid $end
    $var wire  1 C reset $end
    $var wire 16 # result_payload_x [15:0] $end
    $var wire 16 $ result_payload_y [15:0] $end
    $var wire 16 % result_payload_z [15:0] $end
    $var wire  1 9 result_valid $end
    $var wire  1 D rotate_mode $end
    $var wire  2 I x_u [1:0] $end
   $upscope $end
  $upscope $end
 $upscope $end
$enddefinitions $end


#0
b0001010010000100 #
b0110010001001110 $
b0001011001110111 %
1&
b1001101110110010 '
b1110100110001001 (
0)
0*
0+
1,
1-
0.
0/
10
01
12
13
14
15
06
07
08
09
0:
1;
b0011001010001000 <
b1111010100110100 =
b0001101010101010 >
0?
0@
b1001101110110010 A
0B
1C
1D
b0011001010001000 E
b0000000000000000 F
b1111010100110100 G
1H
b01 I
#80
0C
#85
0,
1.
00
11
02
16
1B
#87
0B
#89
0&
b0110010001001110 '
b0001011001110111 (
0-
1/
01
12
03
17
b0110010001001110 A
1B
#91
0B
#93
0.
10
02
13
04
18
b0001011001110111 A
1B
#95
0B
#97
1&
b1001101110110010 '
b1110100110001001 (
0/
11
03
14
05
b1110100110001001 A
1B
#99
0B
#101
0&
b0110010001001110 '
b0001011001110111 (
00
12
04
15
06
b0001011001110111 A
1B
#103
0B
#105
01
13
05
16
07
1B
#107
0B
#109
1&
b1001101110110010 '
b1110100110001001 (
02
14
06
17
08
b1001101110110010 A
1B
#111
0B
#113
0&
b0110010001001110 '
b0001011001110111 (
03
15
07
18
b0001011001110111 A
1B
#115
0B
#117
04
16
08
b0110010001001110 A
1B
#119
0B
#121
05
17
1:
b1111111111000000 <
b0000000001000000 >
1?
1B
0D
b0000000001000000 E
b0000000001000000 F
b0000000000000000 G
#123
0B
#125
1&
b1001101110110010 '
b1110100110001001 (
1)
06
18
b1111111110000000 <
b0000000011000000 >
b1110100110001001 A
1B
b0000000010000000 E
b0000000011000000 F
#127
0B
#129
0&
b0110010001001110 '
b0001011001110111 (
1*
07
b1111111101000000 <
b0000000100000000 >
b0001011001110111 A
1B
b0000000011000000 E
b0000000100000000 F
#131
0B
#133
1&
b1001101110110010 '
b1110100110001001 (
1+
08
b1111111100000000 <
b0000000110000000 >
b1001101110110010 A
1B
b0000000100000000 E
b0000000110000000 F
#135
0B
#137
1,
b1111111011000000 <
b0000000111000000 >
1B
b0000000101000000 E
b0000000111000000 F
#139
0B
#141
1-
b1111111010000000 <
b0000001001000000 >
1B
b0000000110000000 E
b0000001001000000 F
#143
0B
#145
0&
b0110010001001110 '
b0001011001110111 (
1.
b1111111001000000 <
b0000001010000000 >
b0110010001001110 A
1B
b0000000111000000 E
b0000001010000000 F
#147
0B
#149
1/
b1111111000000000 <
b0000001100000000 >
1B
b0000001000000000 E
b0000001100000000 F
#151
0B
#153
10
b1111110111000000 <
b0000001101000000 >
1B
b0000001001000000 E
b0000001101000000 F
#155
0B
#157
11
b1111110110000000 <
b0000001111000000 >
1B
b0000001010000000 E
b0000001111000000 F
#159
0B
#161
12
b1111110101000000 <
b0000010000000000 >
1B
b0000001011000000 E
b0000010000000000 F
#163
0B
#165
13
b1111110100000000 <
b0000010010000000 >
1B
b0000001100000000 E
b0000010010000000 F
#167
0B
#169
14
b1111110011000000 <
b0000010011000000 >
1B
b0000001101000000 E
b0000010011000000 F
#171
0B
#173
15
b1111110010000000 <
b0000010101000000 >
1B
b0000001110000000 E
b0000010101000000 F
#175
0B
#177
16
b1111110001000000 <
b0000010110000000 >
1B
b0000001111000000 E
b0000010110000000 F
#179
0B
#181
17
b1111110000000000 <
b0000011000000000 >
1B
b0000010000000000 E
b0000011000000000 F
#183
0B
#185
b0000000001000000 #
b1111111111111111 $
b0001000000000001 %
1&
b0000000000000001 '
b1110111111111111 (
18
19
b1111101111000000 <
b0000011001000000 >
1@
b1110111111111111 A
1B
b0000010001000000 E
b0000011001000000 F
#187
0B
#189
b0000000010000000 #
b0001100000000001 %
b1110011111111111 (
b1111101110000000 <
b0000011011000000 >
b1110011111111111 A
1B
b0000010010000000 E
b0000011011000000 F
#191
0B
#193
b0000000011000000 #
b0000000000000000 $
b0001010101111111 %
b0000000000000000 '
b1110101010000001 (
b1111101101000000 <
b0000011100000000 >
b1110101010000001 A
1B
b0000010011000000 E
b0000011100000000 F
#195
0B
#197
b0000000100000000 #
b1111111111111111 $
b0001100000000001 %
b0000000000000001 '
b1110011111111111 (
b1111101100000000 <
b0000011110000000 >
b1110011111111111 A
1B
b0000010100000000 E
b0000011110000000 F
#199
0B
#201
b0000000101000000 #
b0000000000000000 $
b0001011001111111 %
b0000000000000000 '
b1110100110000001 (
b1111101011000000 <
b0000011111000000 >
b1110100110000001 A
1B
b0000010101000000 E
b0000011111000000 F
#203
0B
#205
b0000000110000000 #
b1111111111111110 $
b0001100000000001 %
b0000000000000010 '
b1110011111111111 (
b1111101010000000 <
b0000100001000000 >
b1110011111111111 A
1B
b0000010110000000 E
b0000100001000000 F
#207
0B
#209
b0000000111000000 #
b1111111111111111 $
b0001011011100001 %
b0000000000000001 '
b1110100100011111 (
b1111101001000000 <
b0000100010000000 >
b1110100100011111 A
1B
b0000010111000000 E
b0000100010000000 F
#211
0B
#213
b0000001000000000 #
b0001100000000001 %
b1110011111111111 (
b1111101000000000 <
b0000100100000000 >
b1110011111111111 A
1B
b0000011000000000 E
b0000100100000000 F
#215
0B
#217
b0000001001000000 #
b0000000000000000 $
b0001011100011111 %
b0000000000000000 '
b1110100011100001 (
b1111100111000000 <
b0000100101000000 >
b1110100011100001 A
1B
b0000011001000000 E
b0000100101000000 F
#219
0B
#221
b0000001010000000 #
b1111111111111110 $
b0001100000000001 %
b0000000000000010 '
b1110011111111111 (
b1111100110000000 <
b0000100111000000 >
b1110011111111111 A
1B
b0000011010000000 E
b0000100111000000 F
#223
0B
#225
b0000001011000000 #
b1111111111111111 $
b0001011101000001 %
b0000000000000001 '
b1110100010111111 (
b1111100101000000 <
b0000101000000000 >
b1110100010111111 A
1B
b0000011011000000 E
b0000101000000000 F
#227
0B
#229
b0000001100000000 #
b1111111111111110 $
b0001100000000001 %
b0000000000000010 '
b1110011111111111 (
b1111100100000000 <
b0000101010000000 >
b1110011111111111 A
1B
b0000011100000000 E
b0000101010000000 F
#231
0B
#233
b0000001101000000 #
b1111111111111111 $
b0001011101100001 %
b0000000000000001 '
b1110100010011111 (
b1111100011000000 <
b0000101011000000 >
b1110100010011111 A
1B
b0000011101000000 E
b0000101011000000 F
#235
0B
#237
b0000001110000000 #
b1111111111111101 $
b0001100000000001 %
b0000000000000011 '
b1110011111111111 (
b1111100010000000 <
b0000101101000000 >
b1110011111111111 A
1B
b0000011110000000 E
b0000101101000000 F
#239
0B
#241
b0000001111000000 #
b0000000000000010 $
b0001011101111111 %
b1111111111111110 '
b1110100010000001 (
b1111100001000000 <
b0000101110000000 >
b1110100010000001 A
1B
b0000011111000000 E
b0000101110000000 F
#243
0B
#245
b0000010000000000 #
b1111111111111111 $
b0001100000000001 %
b0000000000000001 '
b1110011111111111 (
b1111100000000000 <
b0000110000000000 >
b1110011111111111 A
1B
b0000100000000000 E
b0000110000000000 F
#247
0B
#249
b0000010001000000 #
b0000000000000000 $
b0001011110000111 %
b0000000000000000 '
b1110100001111001 (
b1111011111000000 <
b0000110001000000 >
b1110100001111001 A
1B
b0000100001000000 E
b0000110001000000 F
#251
0B
#253
b0000010010000000 #
b1111111111111110 $
b0001100000000001 %
b0000000000000010 '
b1110011111111111 (
b1111011110000000 <
b0000110011000000 >
b1110011111111111 A
1B
b0000100010000000 E
b0000110011000000 F
#255
0B
#257
b0000010011000000 #
b1111111111111111 $
b0001011110010001 %
b0000000000000001 '
b1110100001101111 (
b1111011101000000 <
b0000110100000000 >
b1110100001101111 A
1B
b0000100011000000 E
b0000110100000000 F
#259
0B
#261
b0000010100000000 #
b1111111111111110 $
b0001100000000001 %
b0000000000000010 '
b1110011111111111 (
b1111011100000000 <
b0000110110000000 >
b1110011111111111 A
1B
b0000100100000000 E
b0000110110000000 F
#263
0B
#265
b0000010101000000 #
b0000000000000001 $
b0001011110011111 %
b1111111111111111 '
b1110100001100001 (
b1111011011000000 <
b0000110111000000 >
b1110100001100001 A
1B
b0000100101000000 E
b0000110111000000 F
#267
0B
#269
b0000010110000000 #
b1111111111111101 $
b0001100000000001 %
b0000000000000011 '
b1110011111111111 (
b1111011010000000 <
b0000111001000000 >
b1110011111111111 A
1B
b0000100110000000 E
b0000111001000000 F
#271
0B
#273
b0000010111000000 #
b0000000000000000 $
b0001011110100111 %
b0000000000000000 '
b1110100001011001 (
b1111011001000000 <
b0000111010000000 >
b1110100001011001 A
1B
b0000100111000000 E
b0000111010000000 F
#275
0B
#277
b0000011000000000 #
b1111111111111110 $
b0001100000000001 %
b0000000000000010 '
b1110011111111111 (
b1111011000000000 <
b0000111100000000 >
b1110011111111111 A
1B
b0000101000000000 E
b0000111100000000 F
#279
0B
#281
b0000011001000000 #
b0000000000000001 $
b0001011110101111 %
b1111111111111111 '
b1110100001010001 (
b1111010111000000 <
b0000111101000000 >
b1110100001010001 A
1B
b0000101001000000 E
b0000111101000000 F
#283
0B
#285
b0000011010000000 #
b1111111111111101 $
b0001100000000001 %
b0000000000000011 '
b1110011111111111 (
b1111010110000000 <
b0000111111000000 >
b1110011111111111 A
1B
b0000101010000000 E
b0000111111000000 F
#287
0B
#289
b0000011011000000 #
b0000000000000000 $
b0001011110110111 %
b0000000000000000 '
b1110100001001001 (
b1111010101000000 <
b0001000000000000 >
b1110100001001001 A
1B
b0000101011000000 E
b0001000000000000 F
#291
0B
#293
b0000011100000000 #
b1111111111111101 $
b0001100000000001 %
b0000000000000011 '
b1110011111111111 (
b1111010100000000 <
b0001000010000000 >
b1110011111111111 A
1B
b0000101100000000 E
b0001000010000000 F
#295
0B
#297
b0000011101000000 #
b0000000000000000 $
b0001011110111111 %
b0000000000000000 '
b1110100001000001 (
b1111010011000000 <
b0001000011000000 >
b1110100001000001 A
1B
b0000101101000000 E
b0001000011000000 F
#299
0B
#301
b0000011110000000 #
b1111111111111100 $
b0001100000000001 %
b0000000000000100 '
b1110011111111111 (
b1111010010000000 <
b0001000101000000 >
b1110011111111111 A
1B
b0000101110000000 E
b0001000101000000 F
#303
0B
#305
b0000011111000000 #
b0000000000000011 $
b0001011110111111 %
b1111111111111101 '
b1110100001000001 (
b1111010001000000 <
b0001000110000000 >
b1110100001000001 A
1B
b0000101111000000 E
b0001000110000000 F
#307
0B
#309
b0000100000000000 #
b1111111111111111 $
b0001100000000001 %
b0000000000000001 '
b1110011111111111 (
b1111010000000000 <
b0001001000000000 >
b1110011111111111 A
1B
b0000110000000000 E
b0001001000000000 F
#311
0B
#313
b0000100001000000 #
b0000000000000000 $
b0001011111000011 %
b0000000000000000 '
b1110100000111101 (
b1111001111000000 <
b0001001001000000 >
b1110100000111101 A
1B
b0000110001000000 E
b0001001001000000 F
#315
0B
#317
b0000100010000000 #
b1111111111111110 $
b0001100000000001 %
b0000000000000010 '
b1110011111111111 (
b1111001110000000 <
b0001001011000000 >
b1110011111111111 A
1B
b0000110010000000 E
b0001001011000000 F
#319
0B
#321
b0000100011000000 #
b1111111111111111 $
b0001011111000101 %
b0000000000000001 '
b1110100000111011 (
b1111001101000000 <
b0001001100000000 >
b1110100000111011 A
1B
b0000110011000000 E
b0001001100000000 F
#323
0B
#325
b0000100100000000 #
b1111111111111110 $
b0001100000000001 %
b0000000000000010 '
b1110011111111111 (
b1111001100000000 <
b0001001110000000 >
b1110011111111111 A
1B
b0000110100000000 E
b0001001110000000 F
#327
0B
#329
b0000100101000000 #
b1111111111111111 $
b0001011111001001 %
b0000000000000001 '
b1110100000110111 (
b1111001011000000 <
b0001001111000000 >
b1110100000110111 A
1B
b0000110101000000 E
b0001001111000000 F
#331
0B
#333
b0000100110000000 #
b1111111111111101 $
b0001100000000001 %
b0000000000000011 '
b1110011111111111 (
b1111001010000000 <
b0001010001000000 >
b1110011111111111 A
1B
b0000110110000000 E
b0001010001000000 F
#335
0B
#337
b0000100111000000 #
b0000000000000000 $
b0001011111001011 %
b0000000000000000 '
b1110100000110101 (
b1111001001000000 <
b0001010010000000 >
b1110100000110101 A
1B
b0000110111000000 E
b0001010010000000 F
#339
0B
#341
b0000101000000000 #
b1111111111111110 $
b0001100000000001 %
b0000000000000010 '
b1110011111111111 (
b1111001000000000 <
b0001010100000000 >
b1110011111111111 A
1B
b0000111000000000 E
b0001010100000000 F
#343
0B
#345
b0000101001000000 #
b0000000000000001 $
b0001011111001111 %
b1111111111111111 '
b1110100000110001 (
b1111000111000000 <
b0001010101000000 >
b1110100000110001 A
1B
b0000111001000000 E
b0001010101000000 F
#347
0B
#349
b0000101010000000 #
b1111111111111101 $
b0001100000000001 %
b0000000000000011 '
b1110011111111111 (
b1111000110000000 <
b0001010111000000 >
b1110011111111111 A
1B
b0000111010000000 E
b0001010111000000 F
#351
0B
#353
b0000101011000000 #
b1111111111111110 $
b0001011111010001 %
b0000000000000010 '
b1110100000101111 (
b1111000101000000 <
b0001011000000000 >
b1110100000101111 A
1B
b0000111011000000 E
b0001011000000000 F
#355
0B
#357
b0000101100000000 #
b1111111111111101 $
b0001100000000001 %
b0000000000000011 '
b1110011111111111 (
b1111000100000000 <
b0001011010000000 >
b1110011111111111 A
1B
b0000111100000000 E
b0001011010000000 F
#359
0B
#361
b0000101101000000 #
b0000000000000000 $
b0001011111010011 %
b0000000000000000 '
b1110100000101101 (
b1111000011000000 <
b0001011011000000 >
b1110100000101101 A
1B
b0000111101000000 E
b0001011011000000 F
#363
0B
#365
b0000101110000000 #
b1111111111111100 $
b0001100000000001 %
b0000000000000100 '
b1110011111111111 (
b1111000010000000 <
b0001011101000000 >
b1110011111111111 A
1B
b0000111110000000 E
b0001011101000000 F
#367
0B
#369
b0000101111000000 #
b1111111111111111 $
b0001011111010101 %
b0000000000000001 '
b1110100000101011 (
b1111000001000000 <
b0001011110000000 >
b1110100000101011 A
1B
b0000111111000000 E
b0001011110000000 F
#371
0B
#373
b0000110000000000 #
b1111111111111110 $
b0001100000000001 %
b0000000000000010 '
b1110011111111111 (
b1111000000000000 <
b0001100000000000 >
b1110011111111111 A
1B
b0001000000000000 E
b0001100000000000 F
#375
0B
#377
b0000110001000000 #
b0000000000000001 $
b0001011111010111 %
b1111111111111111 '
b1110100000101001 (
b1110111111000000 <
b0001100001000000 >
b1110100000101001 A
1B
b0001000001000000 E
b0001100001000000 F
#379
0B
#381
b0000110010000000 #
b1111111111111101 $
b0001100000000001 %
b0000000000000011 '
b1110011111111111 (
b1110111110000000 <
b0001100011000000 >
b1110011111111111 A
1B
b0001000010000000 E
b0001100011000000 F
#383
0B
#385
b0000110011000000 #
b1111111111111110 $
b0001011111011001 %
b0000000000000010 '
b1110100000100111 (
b1110111101000000 <
b0001100100000000 >
b1110100000100111 A
1B
b0001000011000000 E
b0001100100000000 F
#387
0B
#389
b0000110100000000 #
b1111111111111101 $
b0001100000000001 %
b0000000000000011 '
b1110011111111111 (
b1110111100000000 <
b0001100110000000 >
b1110011111111111 A
1B
b0001000100000000 E
b0001100110000000 F
#391
0B
#393
b0000110101000000 #
b0000000000000000 $
b0001011111011011 %
b0000000000000000 '
b1110100000100101 (
b1110111011000000 <
b0001100111000000 >
b1110100000100101 A
1B
b0001000101000000 E
b0001100111000000 F
#395
0B
#397
b0000110110000000 #
b1111111111111100 $
b0001100000000001 %
b0000000000000100 '
b1110011111111111 (
b1110111010000000 <
b0001101001000000 >
b1110011111111111 A
1B
b0001000110000000 E
b0001101001000000 F
#399
0B
#401
b0000110111000000 #
b1111111111111111 $
b0001011111011101 %
b0000000000000001 '
b1110100000100011 (
b1110111001000000 <
b0001101010000000 >
b1110100000100011 A
1B
b0001000111000000 E
b0001101010000000 F
#403
0B
#405
b0000111000000000 #
b1111111111111101 $
b0001100000000001 %
b0000000000000011 '
b1110011111111111 (
b1110111000000000 <
b0001101100000000 >
b1110011111111111 A
1B
b0001001000000000 E
b0001101100000000 F
#407
0B
#409
b0000111001000000 #
b0000000000000000 $
b0001011111011111 %
b0000000000000000 '
b1110100000100001 (
b1110110111000000 <
b0001101101000000 >
b1110100000100001 A
1B
b0001001001000000 E
b0001101101000000 F
#411
0B
#413
b0000111010000000 #
b1111111111111100 $
b0001100000000001 %
b0000000000000100 '
b1110011111111111 (
b1110110110000000 <
b0001101111000000 >
b1110011111111111 A
1B
b0001001010000000 E
b0001101111000000 F
#415
0B
#417
b0000111011000000 #
b0000000000000001 $
b0001011111011111 %
b1111111111111111 '
b1110100000100001 (
b1110110101000000 <
b0001110000000000 >
b1110100000100001 A
1B
b0001001011000000 E
b0001110000000000 F
#419
0B
#421
b0000111100000000 #
b1111111111111100 $
b0001100000000001 %
b0000000000000100 '
b1110011111111111 (
b1110110100000000 <
b0001110010000000 >
b1110011111111111 A
1B
b0001001100000000 E
b0001110010000000 F
#423
0B
#425
b0000111101000000 #
b0000000000000011 $
b0001011111011111 %
b1111111111111101 '
b1110100000100001 (
b1110110011000000 <
b0001110011000000 >
b1110100000100001 A
1B
b0001001101000000 E
b0001110011000000 F
#427
0B
#429
b0000111110000000 #
b1111111111111011 $
b0001100000000001 %
b0000000000000101 '
b1110011111111111 (
b1110110010000000 <
b0001110101000000 >
b1110011111111111 A
1B
b0001001110000000 E
b0001110101000000 F
#431
0B
#433
b0000111111000000 #
b1111111111111100 $
b0001011111100001 %
b0000000000000100 '
b1110100000011111 (
b1110110001000000 <
b0001110110000000 >
b1110100000011111 A
1B
b0001001111000000 E
b0001110110000000 F
#435
0B
#437
b0001000000000000 #
b1111111111111111 $
b0001100000000001 %
b0000000000000001 '
b1110011111111111 (
b1110110000000000 <
b0001111000000000 >
b1110011111111111 A
1B
b0001010000000000 E
b0001111000000000 F
#439
0B
#441
b0001000001000000 #
b0000000000000000 $
b0001011111100001 %
b0000000000000000 '
b1110100000011111 (
b1110101111000000 <
b0001111001000000 >
b1110100000011111 A
1B
b0001010001000000 E
b0001111001000000 F
#443
0B
#445
b0001000010000000 #
b1111111111111110 $
b0001100000000001 %
b0000000000000010 '
b1110011111111111 (
b1110101110000000 <
b0001111011000000 >
b1110011111111111 A
1B
b0001010010000000 E
b0001111011000000 F
#447
0B
#449
b0001000011000000 #
b1111111111111111 $
b0001011111100011 %
b0000000000000001 '
b1110100000011101 (
b1110101101000000 <
b0001111100000000 >
b1110100000011101 A
1B
b0001010011000000 E
b0001111100000000 F
#451
0B
#453
b0001000100000000 #
b1111111111111110 $
b0001100000000001 %
b0000000000000010 '
b1110011111111111 (
b1110101100000000 <
b0001111110000000 >
b1110011111111111 A
1B
b0001010100000000 E
b0001111110000000 F
#455
0B
#457
b0001000101000000 #
b1111111111111111 $
b0001011111100011 %
b0000000000000001 '
b1110100000011101 (
b1110101011000000 <
b0001111111000000 >
b1110100000011101 A
1B
b0001010101000000 E
b0001111111000000 F
#459
0B
#461
b0001000110000000 #
b1111111111111101 $
b0001100000000001 %
b0000000000000011 '
b1110011111111111 (
b1110101010000000 <
b0010000001000000 >
b1110011111111111 A
1B
b0001010110000000 E
b0010000001000000 F
#463
0B
#465
b0001000111000000 #
b0000000000000000 $
b0001011111100011 %
b0000000000000000 '
b1110100000011101 (
b1110101001000000 <
b0010000010000000 >
b1110100000011101 A
1B
b0001010111000000 E
b0010000010000000 F
#467
0B
#469
b0001001000000000 #
b1111111111111110 $
b0001100000000001 %
b0000000000000010 '
b1110011111111111 (
b1110101000000000 <
b0010000100000000 >
b1110011111111111 A
1B
b0001011000000000 E
b0010000100000000 F
#471
0B
#473
b0001001001000000 #
b1111111111111111 $
b0001011111100101 %
b0000000000000001 '
b1110100000011011 (
b1110100111000000 <
b0010000101000000 >
b1110100000011011 A
1B
b0001011001000000 E
b0010000101000000 F
#475
0B
#477
b0001001010000000 #
b1111111111111101 $
b0001100000000001 %
b0000000000000011 '
b1110011111111111 (
b1110100110000000 <
b0010000111000000 >
b1110011111111111 A
1B
b0001011010000000 E
b0010000111000000 F
#479
0B
#481
b0001001011000000 #
b0000000000000000 $
b0001011111100101 %
b0000000000000000 '
b1110100000011011 (
b1110100101000000 <
b0010001000000000 >
b1110100000011011 A
1B
b0001011011000000 E
b0010001000000000 F
#483
0B
#485
b0001001100000000 #
b1111111111111101 $
b0001100000000001 %
b0000000000000011 '
b1110011111111111 (
b1110100100000000 <
b0010001010000000 >
b1110011111111111 A
1B
b0001011100000000 E
b0010001010000000 F
#487
0B
#489
b0001001101000000 #
b0000000000000000 $
b0001011111100101 %
b0000000000000000 '
b1110100000011011 (
b1110100011000000 <
b0010001011000000 >
b1110100000011011 A
1B
b0001011101000000 E
b0010001011000000 F
#491
0B
#493
b0001001110000000 #
b1111111111111100 $
b0001100000000001 %
b0000000000000100 '
b1110011111111111 (
b1110100010000000 <
b0010001101000000 >
b1110011111111111 A
1B
b0001011110000000 E
b0010001101000000 F
#495
0B
#497
b0001001111000000 #
b1111111111111111 $
b0001011111100111 %
b0000000000000001 '
b1110100000011001 (
b1110100001000000 <
b0010001110000000 >
b1110100000011001 A
1B
b0001011111000000 E
b0010001110000000 F
#499
0B
#501
b0001010000000000 #
b1111111111111110 $
b0001100000000001 %
b0000000000000010 '
b1110011111111111 (
b1110100000000000 <
b0010010000000000 >
b1110011111111111 A
1B
b0001100000000000 E
b0010010000000000 F
#503
0B
#505
b0001010001000000 #
b0000000000000001 $
b0001011111100111 %
b1111111111111111 '
b1110100000011001 (
b1110011111000000 <
b0010010001000000 >
b1110100000011001 A
1B
b0001100001000000 E
b0010010001000000 F
#507
0B
#509
b0001010010000000 #
b1111111111111101 $
b0001100000000001 %
b0000000000000011 '
b1110011111111111 (
b1110011110000000 <
b0010010011000000 >
b1110011111111111 A
1B
b0001100010000000 E
b0010010011000000 F
#511
0B
#513
b0001010011000000 #
b1111111111111110 $
b0001011111101001 %
b0000000000000010 '
b1110100000010111 (
b1110011101000000 <
b0010010100000000 >
b1110100000010111 A
1B
b0001100011000000 E
b0010010100000000 F
#515
0B
#517
b0001010100000000 #
b1111111111111101 $
b0001100000000001 %
b0000000000000011 '
b1110011111111111 (
b0000000001000000 <
b0001110000000000 =
0?
b1110011111111111 A
1B
1D
b0000000001000000 E
b0000000000000000 F
b0001110000000000 G
#519
0B
#521
b0001010101000000 #
b1111111111111110 $
b0001011111101001 %
b0000000000000010 '
b1110100000010111 (
0)
b0000000010000000 <
b1110100000010111 A
1B
b0000000010000000 E
#523
0B
#525
b0001010110000000 #
b1111111111111100 $
b0001100000000001 %
b0000000000000100 '
b1110011111111111 (
0*
b0000000011000000 <
b1110011111111111 A
1B
b0000000011000000 E
#527
0B
#529
b0001010111000000 #
b1111111111111111 $
b0001011111101001 %
b0000000000000001 '
b1110100000010111 (
0+
b0000000100000000 <
b1110100000010111 A
1B
b0000000100000000 E
#531
0B
#533
b0001011000000000 #
b1111111111111101 $
b0001100000000001 %
b0000000000000011 '
b1110011111111111 (
0,
b0000000101000000 <
b1110011111111111 A
1B
b0000000101000000 E
#535
0B
#537
b0001011001000000 #
b0000000000000000 $
b0001011111101001 %
b0000000000000000 '
b1110100000010111 (
0-
b0000000110000000 <
b1110100000010111 A
1B
b0000000110000000 E
#539
0B
#541
b0001011010000000 #
b1111111111111100 $
b0001100000000001 %
b0000000000000100 '
b1110011111111111 (
0.
b0000000111000000 <
b1110011111111111 A
1B
b0000000111000000 E
#543
0B
#545
b0001011011000000 #
b1111111111111111 $
b0001011111101011 %
b0000000000000001 '
b1110100000010101 (
0/
b0000001000000000 <
b1110100000010101 A
1B
b0000001000000000 E
#547
0B
#549
b0001011100000000 #
b1111111111111100 $
b0001100000000001 %
b0000000000000100 '
b1110011111111111 (
00
b0000001001000000 <
b1110011111111111 A
1B
b0000001001000000 E
#551
0B
#553
b0001011101000000 #
b1111111111111111 $
b0001011111101011 %
b0000000000000001 '
b1110100000010101 (
01
b0000001010000000 <
b1110100000010101 A
1B
b0000001010000000 E
#555
0B
#557
b0001011110000000 #
b1111111111111011 $
b0001100000000001 %
b0000000000000101 '
b1110011111111111 (
02
b0000001011000000 <
b1110011111111111 A
1B
b0000001011000000 E
#559
0B
#561
b0001011111000000 #
b0000000000000000 $
b0001011111101011 %
b0000000000000000 '
b1110100000010101 (
03
b0000001100000000 <
b1110100000010101 A
1B
b0000001100000000 E
#563
0B
#565
b0001100000000000 #
b1111111111111110 $
b0001100000000001 %
b0000000000000010 '
b1110011111111111 (
04
b0000001101000000 <
b1110011111111111 A
1B
b0000001101000000 E
#567
0B
#569
b0001100001000000 #
b0000000000000001 $
b0001011111101011 %
b1111111111111111 '
b1110100000010101 (
05
b0000001110000000 <
b1110100000010101 A
1B
b0000001110000000 E
#571
0B
#573
b0001100010000000 #
b1111111111111101 $
b0001100000000001 %
b0000000000000011 '
b1110011111111111 (
06
b0000001111000000 <
b1110011111111111 A
1B
b0000001111000000 E
#575
0B
#577
b0001100011000000 #
b1111111111111110 $
b0001011111101101 %
b0000000000000010 '
b1110100000010011 (
07
b0000010000000000 <
b1110100000010011 A
1B
b0000010000000000 E
#579
0B
#581
b0000000001000000 #
b0000000001110001 $
b1111111111111111 %
0&
b0000000001110001 '
b1111111111111111 (
08
b0000010001000000 <
b0000000001110001 A
1B
b0000010001000000 E
#583
0B
#585
b0000000010000000 #
b0000000011100001 $
b0000000011100001 '
b0000010010000000 <
b0000000011100001 A
1B
b0000010010000000 E
#587
0B
#589
b0000000011000000 #
b0000000101010010 $
b0000000101010010 '
b0000010011000000 <
b0000000101010010 A
1B
b0000010011000000 E
#591
0B
#593
b0000000100000000 #
b0000000111000001 $
b0000000111000001 '
b0000010100000000 <
b0000000111000001 A
1B
b0000010100000000 E
#595
0B
#597
b0000000101000000 #
b0000001000110010 $
b0000001000110010 '
b0000010101000000 <
b0000001000110010 A
1B
b0000010101000000 E
#599
0B
#601
b0000000110000000 #
b0000001010100010 $
b0000001010100010 '
b0000010110000000 <
b0000001010100010 A
1B
b0000010110000000 E
#603
0B
#605
b0000000111000000 #
b0000001100010011 $
b0000001100010011 '
b0000010111000000 <
b0000001100010011 A
1B
b0000010111000000 E
#607
0B
#609
b0000001000000000 #
b0000001110000001 $
b0000001110000001 '
b0000011000000000 <
b0000001110000001 A
1B
b0000011000000000 E
#611
0B
#613
b0000001001000000 #
b0000001111110010 $
b0000001111110010 '
b0000011001000000 <
b0000001111110010 A
1B
b0000011001000000 E
#615
0B
#617
b0000001010000000 #
b0000010001100010 $
b0000010001100010 '
b0000011010000000 <
b0000010001100010 A
1B
b0000011010000000 E
#619
0B
#621
b0000001011000000 #
b0000010011010011 $
b0000010011010011 '
b0000011011000000 <
b0000010011010011 A
1B
b0000011011000000 E
#623
0B
#625
b0000001100000000 #
b0000010101000010 $
b0000010101000010 '
b0000011100000000 <
b0000010101000010 A
1B
b0000011100000000 E
#627
0B
#629
b0000001101000000 #
b0000010110110011 $
b0000010110110011 '
b0000011101000000 <
b0000010110110011 A
1B
b0000011101000000 E
#631
0B
#633
b0000001110000000 #
b0000011000100011 $
b0000011000100011 '
b0000011110000000 <
b0000011000100011 A
1B
b0000011110000000 E
#635
0B
#637
b0000001111000000 #
b0000011010010100 $
b0000011010010100 '
b0000011111000000 <
b0000011010010100 A
1B
b0000011111000000 E
