simWorkspace/IIR_I_Filter/test.vcd
$version Generated by VerilatedVcd $end
$date Wed Jan 26 21:39:33 2022
 $end
$timescale   1ns $end

 $scope module TOP $end
  $var wire  1 \ clk $end
  $var wire 29 [ filtered_data_payload_0 [28:0] $end
  $var wire  1 Z filtered_data_valid $end
  $var wire 12 Y raw_data_payload_0 [11:0] $end
  $var wire  1 X raw_data_valid $end
  $var wire  1 ] reset $end
  $scope module IIR_I_Filter $end
   $var wire  1 \ clk $end
   $var wire 29 [ filtered_data_payload_0 [28:0] $end
   $var wire  1 Z filtered_data_valid $end
   $var wire 29 2 filtered_data_vec_0 [28:0] $end
   $var wire  1 3 filtered_valid_buf $end
   $var wire 29 1 fir_pole_filtered_data_payload_0 [28:0] $end
   $var wire  1 0 fir_pole_filtered_data_valid $end
   $var wire 29 / fir_zero_filtered_data_payload_0 [28:0] $end
   $var wire  1 . fir_zero_filtered_data_valid $end
   $var wire 12 Y raw_data_payload_0 [11:0] $end
   $var wire  1 X raw_data_valid $end
   $var wire  1 ] reset $end
   $scope module fir_pole $end
    $var wire  1 \ clk $end
    $var wire 12 ' coff_mem_0 [11:0] $end
    $var wire 12 ( coff_mem_1 [11:0] $end
    $var wire 12 ) coff_mem_2 [11:0] $end
    $var wire 12 * coff_mem_3 [11:0] $end
    $var wire 12 + coff_mem_4 [11:0] $end
    $var wire 12 , coff_mem_5 [11:0] $end
    $var wire 12 - coff_mem_6 [11:0] $end
    $var wire 29 1 directFIRCore_2_filtered_data_payload [28:0] $end
    $var wire  1 0 directFIRCore_2_filtered_data_valid $end
    $var wire 29 1 filtered_data_payload_0 [28:0] $end
    $var wire  1 0 filtered_data_valid $end
    $var wire  1 0 filtered_valid_vec_0 $end
    $var wire 29 2 raw_data_payload_0 [28:0] $end
    $var wire  1 3 raw_data_valid $end
    $var wire  1 ] reset $end
    $scope module directFIRCore_2 $end
     $var wire  1 \ clk $end
     $var wire 12 ' coff_data_0 [11:0] $end
     $var wire 12 ( coff_data_1 [11:0] $end
     $var wire 12 ) coff_data_2 [11:0] $end
     $var wire 12 * coff_data_3 [11:0] $end
     $var wire 12 + coff_data_4 [11:0] $end
     $var wire 12 , coff_data_5 [11:0] $end
     $var wire 12 - coff_data_6 [11:0] $end
     $var wire 29 1 filtered_data_payload [28:0] $end
     $var wire  1 0 filtered_data_valid $end
     $var wire  3 G internal_en [2:0] $end
     $var wire 29 O mult_data_vec_0 [28:0] $end
     $var wire 29 P mult_data_vec_1 [28:0] $end
     $var wire 29 Q mult_data_vec_2 [28:0] $end
     $var wire 29 R mult_data_vec_3 [28:0] $end
     $var wire 29 S mult_data_vec_4 [28:0] $end
     $var wire 29 T mult_data_vec_5 [28:0] $end
     $var wire 29 U mult_data_vec_6 [28:0] $end
     $var wire 29 2 raw_data_payload [28:0] $end
     $var wire  1 3 raw_data_valid $end
     $var wire 29 H raw_data_vec_0 [28:0] $end
     $var wire 29 I raw_data_vec_1 [28:0] $end
     $var wire 29 J raw_data_vec_2 [28:0] $end
     $var wire 29 K raw_data_vec_3 [28:0] $end
     $var wire 29 L raw_data_vec_4 [28:0] $end
     $var wire 29 M raw_data_vec_5 [28:0] $end
     $var wire 29 N raw_data_vec_6 [28:0] $end
     $var wire  1 ] reset $end
     $var wire 29 1 sum_result [28:0] $end
     $var wire  1 V when_DirectFIR_l29 $end
     $var wire  1 W when_DirectFIR_l35 $end
    $upscope $end
   $upscope $end
   $scope module fir_zero $end
    $var wire  1 \ clk $end
    $var wire  7 # coff_mem_0 [6:0] $end
    $var wire  7 $ coff_mem_1 [6:0] $end
    $var wire  7 % coff_mem_2 [6:0] $end
    $var wire  7 & coff_mem_3 [6:0] $end
    $var wire  7 & coff_mem_4 [6:0] $end
    $var wire  7 % coff_mem_5 [6:0] $end
    $var wire  7 $ coff_mem_6 [6:0] $end
    $var wire  7 # coff_mem_7 [6:0] $end
    $var wire 29 / directFIRCore_2_filtered_data_payload [28:0] $end
    $var wire  1 . directFIRCore_2_filtered_data_valid $end
    $var wire 29 / filtered_data_payload_0 [28:0] $end
    $var wire  1 . filtered_data_valid $end
    $var wire  1 . filtered_valid_vec_0 $end
    $var wire 12 Y raw_data_payload_0 [11:0] $end
    $var wire  1 X raw_data_valid $end
    $var wire  1 ] reset $end
    $scope module directFIRCore_2 $end
     $var wire  1 \ clk $end
     $var wire  7 # coff_data_0 [6:0] $end
     $var wire  7 $ coff_data_1 [6:0] $end
     $var wire  7 % coff_data_2 [6:0] $end
     $var wire  7 & coff_data_3 [6:0] $end
     $var wire  7 & coff_data_4 [6:0] $end
     $var wire  7 % coff_data_5 [6:0] $end
     $var wire  7 $ coff_data_6 [6:0] $end
     $var wire  7 # coff_data_7 [6:0] $end
     $var wire 29 / filtered_data_payload [28:0] $end
     $var wire  1 . filtered_data_valid $end
     $var wire  3 4 internal_en [2:0] $end
     $var wire 29 = mult_data_vec_0 [28:0] $end
     $var wire 29 > mult_data_vec_1 [28:0] $end
     $var wire 29 ? mult_data_vec_2 [28:0] $end
     $var wire 29 @ mult_data_vec_3 [28:0] $end
     $var wire 29 A mult_data_vec_4 [28:0] $end
     $var wire 29 B mult_data_vec_5 [28:0] $end
     $var wire 29 C mult_data_vec_6 [28:0] $end
     $var wire 29 D mult_data_vec_7 [28:0] $end
     $var wire 12 Y raw_data_payload [11:0] $end
     $var wire  1 X raw_data_valid $end
     $var wire 12 5 raw_data_vec_0 [11:0] $end
     $var wire 12 6 raw_data_vec_1 [11:0] $end
     $var wire 12 7 raw_data_vec_2 [11:0] $end
     $var wire 12 8 raw_data_vec_3 [11:0] $end
     $var wire 12 9 raw_data_vec_4 [11:0] $end
     $var wire 12 : raw_data_vec_5 [11:0] $end
     $var wire 12 ; raw_data_vec_6 [11:0] $end
     $var wire 12 < raw_data_vec_7 [11:0] $end
     $var wire  1 ] reset $end
     $var wire 29 / sum_result [28:0] $end
     $var wire  1 E when_DirectFIR_l29 $end
     $var wire  1 F when_DirectFIR_l35 $end
    $upscope $end
   $upscope $end
  $upscope $end
 $upscope $end
$enddefinitions $end


#0
b1010010 #
b1001110 $
b0011010 %
b1000110 &
b110111010101 '
b101110001110 (
b101111100110 )
b010001001110 *
b101110111000 +
b111001010000 ,
b101000100000 -
0.
b00000000000000000000000000000 /
00
b00000000000000000000000000000 1
b00000000000000000000000000000 2
03
b000 4
b000000000000 5
b000000000000 6
b000000000000 7
b000000000000 8
b000000000000 9
b000000000000 :
b000000000000 ;
b000000000000 <
b00000000000000000000000000000 =
b00000000000000000000000000000 >
b00000000000000000000000000000 ?
b00000000000000000000000000000 @
b00000000000000000000000000000 A
b00000000000000000000000000000 B
b00000000000000000000000000000 C
b00000000000000000000000000000 D
0E
0F
b000 G
b00000000000000000000000000000 H
b00000000000000000000000000000 I
b00000000000000000000000000000 J
b00000000000000000000000000000 K
b00000000000000000000000000000 L
b00000000000000000000000000000 M
b00000000000000000000000000000 N
b00000000000000000000000000000 O
b00000000000000000000000000000 P
b00000000000000000000000000000 Q
b00000000000000000000000000000 R
b00000000000000000000000000000 S
b00000000000000000000000000000 T
b00000000000000000000000000000 U
0V
0W
0X
b000000000000 Y
0Z
b00000000000000000000000000000 [
0\
1]
#80
0]
#85
b0000111 #
b0010101 $
b0101010 %
b0111000 &
b110001100110 '
b010010001011 (
b110011010101 )
b000111011000 *
b111110000110 +
b000000011000 ,
b111111111110 -
1\
#87
0\
#89
1\
#91
0\
#93
1\
#95
0\
#97
1\
#99
0\
#101
1\
#103
0\
#105
1\
#107
0\
#109
1\
#111
0\
#113
1\
#115
0\
#117
1\
#119
0\
#121
1\
#123
0\
#125
1X
1\
#127
0\
#129
b001 4
1E
b000000011110 Y
1\
#131
0\
#133
b011 4
b000000011110 5
1F
b000000111001 Y
1\
#135
0\
#137
1.
b111 4
b000000111001 5
b000000011110 6
b00000000000000000000011010010 =
b000001010000 Y
1\
#139
0\
#141
b00000000000000000000011010010 /
13
b000001010000 5
b000000111001 6
b000000011110 7
b00000000000000000000110001111 =
b00000000000000000001001110110 >
b000001011110 Y
1Z
1\
#143
0\
#145
b00000000000000000010000000101 /
b000001011110 5
b000001010000 6
b000000111001 7
b000000011110 8
b00000000000000000001000110000 =
b00000000000000000010010101101 >
b00000000000000000010011101100 ?
b001 G
1V
b000001100100 Y
1\
#147
0\
#149
b00000000000000000101111001001 /
b00000000000000000000000000010 2
b000001100100 5
b000001011110 6
b000001010000 7
b000000111001 8
b000000011110 9
b00000000000000000001010010010 =
b00000000000000000011010010000 >
b00000000000000000100101011010 ?
b00000000000000000011010010000 @
b011 G
1W
b000001100001 Y
b00000000000000000000000000010 [
1\
#151
0\
#153
b00000000000000001100100001100 /
10
b00000000000000000000000000101 2
b000001100001 5
b000001100100 6
b000001011110 7
b000001010000 8
b000000111001 9
b000000011110 :
b00000000000000000001010111100 =
b00000000000000000011110110110 >
b00000000000000000110100100000 ?
b00000000000000000110001111000 @
b00000000000000000011010010000 A
b111 G
b00000000000000000000000000010 H
b000001010101 Y
b00000000000000000000000000101 [
1\
#155
0\
#157
b00000000000000010101010011010 /
b00000000000000000000000001100 2
b000001010101 5
b000001100001 6
b000001100100 7
b000001011110 8
b000001010000 9
b000000111001 :
b000000011110 ;
b00000000000000000001010100111 =
b00000000000000000100000110100 >
b00000000000000000111101101100 ?
b00000000000000001000110000000 @
b00000000000000000110001111000 A
b00000000000000000010011101100 B
b00000000000000000000000000101 H
b00000000000000000000000000010 I
b11111111111111111100011001100 O
b000001000000 Y
b00000000000000000000000001100 [
1\
#159
0\
#161
b00000000000000011110100101011 /
b11111111111111111100011001100 1
b00000000000000000000000010101 2
b000001000000 5
b000001010101 6
b000001100001 7
b000001100100 8
b000001011110 9
b000001010000 :
b000000111001 ;
b000000011110 <
b00000000000000000001001010011 =
b00000000000000000011111110101 >
b00000000000000001000001101000 ?
b00000000000000001010010010000 @
b00000000000000001000110000000 A
b00000000000000000100101011010 B
b00000000000000000001001110110 C
b00000000000000000000000001100 H
b00000000000000000000000000101 I
b00000000000000000000000000010 J
b11111111111111110110111111110 O
b00000000000000000100100010110 P
b000000100110 Y
b00000000000000000000000010101 [
1\
#163
0\
#165
b00000000000000100110010010000 /
b11111111111111111011100010100 1
b00000000000000000000000100010 2
b000000100110 5
b000001000000 6
b000001010101 7
b000001100001 8
b000001100100 9
b000001011110 :
b000001010000 ;
b000000111001 <
b00000000000000000000111000000 =
b00000000000000000011011111001 >
b00000000000000000111111101010 ?
b00000000000000001010111100000 @
b00000000000000001010010010000 A
b00000000000000000110100100000 B
b00000000000000000010010101101 C
b00000000000000000000011010010 D
b00000000000000000000000010101 H
b00000000000000000000000001100 I
b00000000000000000000000000101 J
b00000000000000000000000000010 K
b11111111111111101010011001000 O
b00000000000000001011010110111 P
b11111111111111111100110101010 Q
b000000001001 Y
b00000000000000000000000100010 [
1\
#167
0\
#169
b00000000000000101010110110010 /
b11111111111111110010100101001 1
b00000000000000000000000101010 2
b000000001001 5
b000000100110 6
b000001000000 7
b000001010101 8
b000001100001 9
b000001100100 :
b000001011110 ;
b000001010000 <
b00000000000000000000100001010 =
b00000000000000000010101000000 >
b00000000000000000110111110010 ?
b00000000000000001010100111000 @
b00000000000000001010111100000 A
b00000000000000000111101101100 B
b00000000000000000011010010000 C
b00000000000000000000110001111 D
b00000000000000000000000100010 H
b00000000000000000000000010101 I
b00000000000000000000000001100 J
b00000000000000000000000000101 K
b00000000000000000000000000010 L
b11111111111111011010001011110 O
b00000000000000011011010000100 P
b11111111111111111000000101001 Q
b00000000000000000001110110000 R
b111111101011 Y
b00000000000000000000000101010 [
1\
#171
0\
#173
b00000000000000101011011011111 /
b11111111111111101111010111011 1
b00000000000000000000000111000 2
b111111101011 5
b000000001001 6
b000000100110 7
b000001000000 8
b000001010101 9
b000001100001 :
b000001100100 ;
b000001011110 <
b00000000000000000000000111111 =
b00000000000000000001100011110 >
b00000000000000000101010000000 ?
b00000000000000001001010011000 @
b00000000000000001010100111000 A
b00000000000000001000001101000 B
b00000000000000000011110110110 C
b00000000000000000001000110000 D
b00000000000000000000000101010 H
b00000000000000000000000100010 I
b00000000000000000000000010101 J
b00000000000000000000000001100 K
b00000000000000000000000000101 L
b00000000000000000000000000010 M
b11111111111111000010110001100 O
b00000000000000101111101100111 P
b11111111111111101100111111100 Q
b00000000000000000100100111000 R
b11111111111111111111100001100 S
b111111001111 Y
b00000000000000000000000111000 [
1\
#175
0\
#177
b00000000000000100111111111011 /
b11111111111111100011100110011 1
b00000000000000000000000111100 2
b111111001111 5
b111111101011 6
b000000001001 7
b000000100110 8
b000001000000 9
b000001010101 :
b000001100001 ;
b000001100100 <
b11111111111111111111101101101 =
b00000000000000000000010111101 >
b00000000000000000011000111100 ?
b00000000000000000111000000000 @
b00000000000000001001010011000 A
b00000000000000000111111101010 B
b00000000000000000100000110100 C
b00000000000000000001010010010 D
b00000000000000000000000111000 H
b00000000000000000000000101010 I
b00000000000000000000000100010 J
b00000000000000000000000010101 K
b00000000000000000000000001100 L
b00000000000000000000000000101 M
b00000000000000000000000000010 N
b11111111111110110100010111100 O
b00000000000001001101001110110 P
b11111111111111011110101111001 Q
b00000000000000001011000100000 R
b11111111111111111110110011110 S
b00000000000000000000000110000 T
b111110111000 Y
b00000000000000000000000111100 [
1\
#179
0\
#181
b00000000000000100000110101110 /
b11111111111111101010010011001 1
b00000000000000000000001000100 2
b111110111000 5
b111111001111 6
b111111101011 7
b000000001001 8
b000000100110 9
b000001000000 :
b000001010101 ;
b000001100001 <
b11111111111111111111010101001 =
b11111111111111111111001000111 >
b00000000000000000000101111010 ?
b00000000000000000100001010000 @
b00000000000000000111000000000 A
b00000000000000000110111110010 B
b00000000000000000011111110101 C
b00000000000000000001010111100 D
b00000000000000000000000111100 H
b00000000000000000000000111000 I
b00000000000000000000000101010 J
b00000000000000000000000100010 K
b00000000000000000000000010101 L
b00000000000000000000000001100 M
b00000000000000000000000000101 N
b11111111111110011011001010000 O
b00000000000001011111011001110 P
b11111111111111001010001001010 Q
b00000000000000010011010111000 R
b11111111111111111101001001000 S
b00000000000000000000001111000 T
b11111111111111111111111111100 U
b111110101000 Y
b00000000000000000000001000100 [
1\
#183
0\
#185
b00000000000000010110101011101 /
b11111111111111010101011011100 1
b00000000000000000000000110110 2
b111110101000 5
b111110111000 6
b111111001111 7
b111111101011 8
b000000001001 9
b000000100110 :
b000001000000 ;
b000001010101 <
b11111111111111111111000001000 =
b11111111111111111101111111011 >
b11111111111111111110010001110 ?
b00000000000000000000111111000 @
b00000000000000000100001010000 A
b00000000000000000101010000000 B
b00000000000000000011011111001 C
b00000000000000000001010100111 D
b00000000000000000000001000100 H
b00000000000000000000000111100 I
b00000000000000000000000111000 J
b00000000000000000000000101010 K
b00000000000000000000000100010 L
b00000000000000000000000010101 M
b00000000000000000000000001100 N
b11111111111110010011111101000 O
b00000000000001111111001101000 P
b11111111111110111101011110010 Q
b00000000000000011111010110000 R
b11111111111111111010111111110 S
b00000000000000000000100100000 T
b11111111111111111111111110110 U
b111110100000 Y
b00000000000000000000000110110 [
1\
#187
0\
#189
b00000000000000001010011111001 /
b11111111111111101011100000110 1
b00000000000000000000001000001 2
b111110100000 5
b111110101000 6
b111110111000 7
b111111001111 8
b111111101011 9
b000000001001 :
b000000100110 ;
b000001000000 <
b11111111111111111110110011000 =
b11111111111111111101000011000 >
b11111111111111111011111110110 ?
b11111111111111111101101101000 @
b00000000000000000000111111000 A
b00000000000000000011000111100 B
b00000000000000000010101000000 C
b00000000000000000001001010011 D
b00000000000000000000000110110 H
b00000000000000000000001000100 I
b00000000000000000000000111100 J
b00000000000000000000000111000 K
b00000000000000000000000101010 L
b00000000000000000000000100010 M
b00000000000000000000000010101 N
b11111111111110000101100011000 O
b00000000000010001000010010100 P
b11111111111110100111010011000 Q
b00000000000000100110101110000 R
b11111111111111110111111001100 S
b00000000000000000000111111000 T
b11111111111111111111111101000 U
b111110100001 Y
b00000000000000000000001000001 [
1\
#191
0\
#193
b11111111111111111101011010101 /
b11111111111111010100101100000 1
b00000000000000000000000011110 2
b111110100001 5
b111110100000 6
b111110101000 7
b111110111000 8
b111111001111 9
b111111101011 :
b000000001001 ;
b000000100110 <
b11111111111111111110101100000 =
b11111111111111111100011001000 >
b11111111111111111010000110000 ?
b11111111111111111010101001000 @
b11111111111111111101101101000 A
b00000000000000000000101111010 B
b00000000000000000001100011110 C
b00000000000000000000111000000 D
b00000000000000000000001000001 H
b00000000000000000000000110110 I
b00000000000000000000001000100 J
b00000000000000000000000111100 K
b00000000000000000000000111000 L
b00000000000000000000000101010 M
b00000000000000000000000100010 N
b11111111111110011110110000100 O
b00000000000010011010011101100 P
b11111111111110100000111101100 Q
b00000000000000110011101000000 R
b11111111111111110101111111100 S
b00000000000000000001100110000 T
b11111111111111111111111010110 U
b111110101100 Y
b00000000000000000000000011110 [
1\
#195
0\
#197
b11111111111111110000101100000 /
b00000000000000000101010011110 1
b00000000000000000000000101000 2
b111110101100 5
b111110100001 6
b111110100000 7
b111110101000 8
b111110111000 9
b111111001111 :
b111111101011 ;
b000000001001 <
b11111111111111111110101100111 =
b11111111111111111100000100000 >
b11111111111111111000110010000 ?
b11111111111111111000001000000 @
b11111111111111111010101001000 A
b11111111111111111110010001110 B
b00000000000000000000010111101 C
b00000000000000000000100001010 D
b00000000000000000000000011110 H
b00000000000000000000001000001 I
b00000000000000000000000110110 J
b00000000000000000000001000100 K
b00000000000000000000000111100 L
b00000000000000000000000111000 M
b00000000000000000000000101010 N
b11111111111110001010111100110 O
b00000000000001111010101010010 P
b11111111111110010100010010100 Q
b00000000000000110111010100000 R
b11111111111111110010101010000 S
b00000000000000000001111110000 T
b11111111111111111111110111100 U
b111110111111 Y
b00000000000000000000000101000 [
1\
#199
0\
#201
b11111111111111100101011110100 /
b11111111111111000101101101000 1
b11111111111111111111111101011 2
b111110111111 5
b111110101100 6
b111110100001 7
b111110100000 8
b111110101000 9
b111110111000 :
b111111001111 ;
b111111101011 <
b11111111111111111110110110100 =
b11111111111111111100000110101 >
b11111111111111111000001000000 ?
b11111111111111110110011000000 @
b11111111111111111000001000000 A
b11111111111111111011111110110 B
b11111111111111111111001000111 C
b00000000000000000000000111111 D
b00000000000000000000000101000 H
b00000000000000000000000011110 I
b00000000000000000000001000001 J
b00000000000000000000000110110 K
b00000000000000000000001000100 L
b00000000000000000000000111100 M
b00000000000000000000000111000 N
b11111111111111001001111110100 O
b00000000000010010011101001011 P
b11111111111110101010011101110 Q
b00000000000000111110101100000 R
b11111111111111110001101101000 S
b00000000000000000010101000000 T
b11111111111111111111110101100 U
b111111011000 Y
b11111111111111111111111101011 [
1\
#203
0\
#205
b11111111111111011100110100101 /
b00000000000000111010111100001 1
b00000000000000000000000011111 2
b111111011000 5
b111110111111 6
b111110101100 7
b111110100001 8
b111110100000 9
b111110101000 :
b111110111000 ;
b111111001111 <
b11111111111111111111000111001 =
b11111111111111111100100011100 >
b11111111111111111000001101010 ?
b11111111111111110101100000000 @
b11111111111111110110011000000 A
b11111111111111111010000110000 B
b11111111111111111101111111011 C
b11111111111111111111101101101 D
b11111111111111111111111101011 H
b00000000000000000000000101000 I
b00000000000000000000000011110 J
b00000000000000000000001000001 K
b00000000000000000000000110110 L
b00000000000000000000001000100 M
b00000000000000000000000111100 N
b11111111111110110111111110000 O
b00000000000001000100001001010 P
b11111111111110011001000010101 Q
b00000000000000110001110010000 R
b11111111111111101111110011000 S
b00000000000000000010110100000 T
b11111111111111111111110010000 U
b111111110101 Y
b00000000000000000000000011111 [
1\
#207
0\
#209
b11111111111111010111100010111 /
b11111111111110111001010100111 1
b11111111111111111111110100001 2
b111111110101 5
b111111011000 6
b111110111111 7
b111110101100 8
b111110100001 9
b111110100000 :
b111110101000 ;
b111110111000 <
b11111111111111111111011101000 =
b11111111111111111101010101011 >
b11111111111111111001000111000 ?
b11111111111111110101100111000 @
b11111111111111110101100000000 A
b11111111111111111000110010000 B
b11111111111111111101000011000 C
b11111111111111111111010101001 D
b00000000000000000000000011111 H
b11111111111111111111111101011 I
b00000000000000000000000101000 J
b00000000000000000000000011110 K
b00000000000000000000001000001 L
b00000000000000000000000110110 M
b00000000000000000000001000100 N
b00000000000000100101110100010 O
b00000000000001011010110111000 P
b11111111111111010000011110110 Q
b00000000000000111011111011000 R
b11111111111111110011001000100 S
b00000000000000000011001100000 T
b11111111111111111111110001000 U
b000000010011 Y
b11111111111111111111110100001 [
1\
#211
0\
#213
b11111111111111010110001010100 /
b00000000000010000011001010100 1
b00000000000000000000000011110 2
b000000010011 5
b111111110101 6
b111111011000 7
b111110111111 8
b111110101100 9
b111110100001 :
b111110100000 ;
b111110101000 <
b11111111111111111111110110011 =
b11111111111111111110010111000 >
b11111111111111111010101010110 ?
b11111111111111110110110100000 @
b11111111111111110101100111000 A
b11111111111111111000001000000 B
b11111111111111111100011001000 C
b11111111111111111111000001000 D
b11111111111111111111110100001 H
b00000000000000000000000011111 I
b11111111111111111111111101011 J
b00000000000000000000000101000 K
b00000000000000000000000011110 L
b00000000000000000000001000001 M
b00000000000000000000000110110 N
b11111111111111001000001011010 O
b11111111111111010000010011001 P
b11111111111111000000101001000 Q
b00000000000000011011101010000 R
b11111111111111110000100000110 S
b00000000000000000010100010000 T
b11111111111111111111101111000 U
b000000110000 Y
b00000000000000000000000011110 [
1\
#215
0\
#217
b11111111111111011000110101001 /
b11111111111101100111100011001 1
b11111111111111111111101010011 2
b000000110000 5
b000000010011 6
b111111110101 7
b111111011000 8
b111110111111 9
b111110101100 :
b111110100001 ;
b111110100000 <
b00000000000000000000010000101 =
b11111111111111111111100011001 >
b11111111111111111100101110000 ?
b11111111111111111000111001000 @
b11111111111111110110110100000 A
b11111111111111111000001101010 B
b11111111111111111100000100000 C
b11111111111111111110110011000 D
b00000000000000000000000011110 H
b11111111111111111111110100001 I
b00000000000000000000000011111 J
b11111111111111111111111101011 K
b00000000000000000000000101000 L
b00000000000000000000000011110 M
b00000000000000000000001000001 N
b00000000000010101011000100110 O
b00000000000001000110011010101 P
b00000000000000100001010000111 Q
b00000000000000100100111000000 R
b11111111111111111000110110100 S
b00000000000000000011000011000 T
b11111111111111111111110010100 U
b000001001001 Y
b11111111111111111111101010011 [
1\
#219
0\
#221
b11111111111111011111010011000 /
b00000000000100110011010100010 1
b00000000000000000000001110001 2
b000001001001 5
b000000110000 6
b000000010011 7
b111111110101 8
b111111011000 9
b111110111111 :
b111110101100 ;
b111110100001 <
b00000000000000000000101010000 =
b00000000000000000000110001111 >
b11111111111111111111000110010 ?
b11111111111111111011101000000 @
b11111111111111111000111001000 A
b11111111111111111001000111000 B
b11111111111111111100000110101 C
b11111111111111111110101100000 D
b11111111111111111111101010011 H
b00000000000000000000000011110 I
b11111111111111111111110100001 J
b00000000000000000000000011111 K
b11111111111111111111111101011 L
b00000000000000000000000101000 M
b00000000000000000000000011110 N
b11111111111111001001111110100 O
b11111111111100101000001101011 P
b11111111111111001110111001011 Q
b11111111111111101100101001000 R
b11111111111111110110011110000 S
b00000000000000000001011010000 T
b11111111111111111111101111110 U
b000001011100 Y
b00000000000000000000001110001 [
1\
#223
0\
#225
b11111111111111101000111100110 /
b11111111111010100101010110000 1
b11111111111111111111010101011 2
b000001011100 5
b000001001001 6
b000000110000 7
b000000010011 8
b111111110101 9
b111111011000 :
b111110111111 ;
b111110101100 <
b00000000000000000000111111111 =
b00000000000000000001111110000 >
b00000000000000000001100011110 ?
b11111111111111111110110011000 @
b11111111111111111011101000000 A
b11111111111111111010101010110 B
b11111111111111111100100011100 C
b11111111111111111110101100111 D
b00000000000000000000001110001 H
b11111111111111111111101010011 I
b00000000000000000000000011110 J
b11111111111111111111110100001 K
b00000000000000000000000011111 L
b11111111111111111111111101011 M
b00000000000000000000000101000 N
b00000000000100110111100010010 O
b00000000000001000100001001010 P
b00000000000010010110011110101 Q
b00000000000000011100100101000 R
b00000000000000000101000000010 S
b00000000000000000001111000000 T
b11111111111111111111111000100 U
b000001100110 Y
b11111111111111111111010101011 [
1\
#227
0\
#229
b11111111111111110100110111110 /
b00000000001000110101011111111 1
b00000000000000000000101000011 2
b000001100110 5
b000001011100 6
b000001001001 7
b000000110000 8
b000000010011 9
b111111110101 :
b111111011000 ;
b111110111111 <
b00000000000000000001010000100 =
b00000000000000000010111111101 >
b00000000000000000011111100000 ?
b00000000000000000010000101000 @
b11111111111111111110110011000 A
b11111111111111111100101110000 B
b11111111111111111101010101011 C
b11111111111111111110110110100 D
b11111111111111111111010101011 H
b00000000000000000000001110001 I
b11111111111111111111101010011 J
b00000000000000000000000011110 K
b11111111111111111111110100001 L
b00000000000000000000000011111 M
b11111111111111111111111101011 N
b11111111111100110100100000110 O
b11111111111001110111000010001 P
b11111111111111010000011110110 Q
b11111111111110101000011011000 R
b11111111111111111000100111010 S
b11111111111111111111000001000 T
b11111111111111111111110110000 U
b000001100111 Y
b00000000000000000000101000011 [
1\
#231
0\
#233
b00000000000000000001111110000 /
b11111111110100011011111010111 1
b11111111111111111110110111111 2
b000001100111 5
b000001100110 6
b000001011100 7
b000001001001 8
b000000110000 9
b000000010011 :
b111111110101 ;
b111111011000 <
b00000000000000000001011001010 =
b00000000000000000011110001100 >
b00000000000000000101111111010 ?
b00000000000000000101010000000 @
b00000000000000000010000101000 A
b11111111111111111111000110010 B
b11111111111111111110010111000 C
b11111111111111111111000111001 D
b00000000000000000000101000011 H
b11111111111111111111010101011 I
b00000000000000000000001110001 J
b11111111111111111111101010011 K
b00000000000000000000000011110 L
b11111111111111111111110100001 M
b00000000000000000000000011111 N
b00000000001001100110000100010 O
b00000000000100000000101011011 P
b00000000000100010010000001111 Q
b00000000000000011011101010000 R
b00000000000000010110101000110 S
b00000000000000000001011101000 T
b00000000000000000000000101010 U
b000001011111 Y
b11111111111111111110110111111 [
1\
#235
0\
#237
b00000000000000001111000011011 /
b00000000010010101100100110100 1
b00000000000000000001011100110 2
b000001011111 5
b000001100111 6
b000001100110 7
b000001011100 8
b000001001001 9
b000000110000 :
b000000010011 ;
b111111110101 <
b00000000000000000001011010001 =
b00000000000000000100001011110 >
b00000000000000000111100011000 ?
b00000000000000000111111111000 @
b00000000000000000101010000000 A
b00000000000000000001100011110 B
b11111111111111111111100011001 C
b11111111111111111111011101000 D
b11111111111111111110110111111 H
b00000000000000000000101000011 I
b11111111111111111111010101011 J
b00000000000000000000001110001 K
b11111111111111111111101010011 L
b00000000000000000000000011110 M
b11111111111111111111110100001 N
b11111111110110111010010110010 O
b11111111110011111001011011001 P
b11111111111101001101000000101 Q
b11111111111101100000100001000 R
b11111111111111111000110110100 S
b11111111111111111011100011000 T
b11111111111111111111111000010 U
b000001001111 Y
b00000000000000000001011100110 [
1\
#239
0\
#241
b00000000000000011010111011110 /
b11111111100101010101100100110 1
b11111111111111111101101100010 2
b000001001111 5
b000001011111 6
b000001100111 7
b000001100110 8
b000001011100 9
b000001001001 :
b000000110000 ;
b000000010011 <
b00000000000000000001010011001 =
b00000000000000000100001110011 >
b00000000000000001000010111100 ?
b00000000000000001010000100000 @
b00000000000000000111111111000 A
b00000000000000000011111100000 B
b00000000000000000000110001111 C
b11111111111111111111110110011 D
b00000000000000000001011100110 H
b11111111111111111110110111111 I
b00000000000000000000101000011 J
b11111111111111111111010101011 K
b00000000000000000000001110001 L
b11111111111111111111101010011 M
b00000000000000000000000011110 N
b00000000010000001111000011010 O
b00000000001011011101101100001 P
b00000000001000011100001000111 Q
b00000000000001101000001011000 R
b00000000000000101001001110010 S
b00000000000000000001011010000 T
b00000000000000000000010111110 U
b000000110111 Y
b11111111111111111101101100010 [
1\
#243
0\
#245
b00000000000000100100100000010 /
b00000000100110011100000011010 1
b00000000000000000011011000101 2
b000000110111 5
b000001001111 6
b000001011111 7
b000001100111 8
b000001100110 9
b000001011100 :
b000001001001 ;
b000000110000 <
b00000000000000000001000101001 =
b00000000000000000011111001011 >
b00000000000000001000011100110 ?
b00000000000000001011001010000 @
b00000000000000001010000100000 A
b00000000000000000101111111010 B
b00000000000000000001111110000 C
b00000000000000000000010000101 D
b11111111111111111101101100010 H
b00000000000000000001011100110 I
b11111111111111111110110111111 J
b00000000000000000000101000011 K
b11111111111111111111010101011 L
b00000000000000000000001110001 M
b11111111111111111111101010011 N
b11111111101011000111110100100 O
b11111111101011100001010110101 P
b11111111111000000000010111111 Q
b11111111111011000101101001000 R
b11111111111111100101000100110 S
b11111111111111110111111001000 T
b11111111111111111111111000100 U
b000000011011 Y
b00000000000000000011011000101 [
1\
#247
0\
#249
b00000000000000101010110111001 /
b11111111001001001100000010010 1
b11111111111111111011010001000 2
b000000011011 5
b000000110111 6
b000001001111 7
b000001011111 8
b000001100111 9
b000001100110 :
b000001011100 ;
b000001001001 <
b00000000000000000000110000001 =
b00000000000000000011001111011 >
b00000000000000000111110010110 ?
b00000000000000001011010001000 @
b00000000000000001011001010000 A
b00000000000000000111100011000 B
b00000000000000000010111111101 C
b00000000000000000000101010000 D
b00000000000000000011011000101 H
b11111111111111111101101100010 I
b00000000000000000001011100110 J
b11111111111111111110110111111 K
b00000000000000000000101000011 L
b11111111111111111111010101011 M
b00000000000000000000001110001 N
b00000000100001010000100001100 O
b00000000011010010101011100010 P
b00000000001110010001111101011 Q
b00000000000100101001110001000 R
b00000000000001010001010000010 S
b00000000000000000101010011000 T
b00000000000000000000101011010 U
b111111111101 Y
b11111111111111111011010001000 [
1\
#251
0\
