simWorkspace/PhaseRotator/test.vcd
$version Generated by VerilatedVcd $end
$date Mon Nov 29 11:59:09 2021
 $end
$timescale   1ns $end

 $scope module TOP $end
  $var wire  1 y# clk $end
  $var wire 32 Y# phiCorrect_payload [31:0] $end
  $var wire  1 Q# phiCorrect_valid $end
  $var wire 16 A# raw_data_payload_cha_i [15:0] $end
  $var wire 16 I# raw_data_payload_cha_q [15:0] $end
  $var wire  1 9# raw_data_valid $end
  $var wire  1 #$ reset $end
  $var wire 16 i# rotated_data_payload_cha_i [15:0] $end
  $var wire 16 q# rotated_data_payload_cha_q [15:0] $end
  $var wire  1 a# rotated_data_valid $end
  $scope module PhaseRotator $end
   $var wire  1 y# clk $end
   $var wire 32 +$ cordic_pipeline_core_raw_data_payload_x [31:0] $end
   $var wire 32 3$ cordic_pipeline_core_raw_data_payload_y [31:0] $end
   $var wire  1 C$ cordic_pipeline_core_raw_data_ready $end
   $var wire 32 =! cordic_pipeline_core_result_payload_x [31:0] $end
   $var wire 32 E! cordic_pipeline_core_result_payload_y [31:0] $end
   $var wire 32 M! cordic_pipeline_core_result_payload_z [31:0] $end
   $var wire  1 !# cordic_pipeline_core_result_valid $end
   $var wire 32 K$ math_pi [31:0] $end
   $var wire 32 S$ math_pi_2 [31:0] $end
   $var wire 32 [$ neg_math_pi_2 [31:0] $end
   $var wire 32 ]! phi [31:0] $end
   $var wire 32 1# phiCorrect [31:0] $end
   $var wire 32 Y# phiCorrect_payload [31:0] $end
   $var wire  1 Q# phiCorrect_valid $end
   $var wire 32 %! phiNext [31:0] $end
   $var wire 16 A# raw_data_payload_cha_i [15:0] $end
   $var wire 16 I# raw_data_payload_cha_q [15:0] $end
   $var wire  1 9# raw_data_valid $end
   $var wire  1 #$ reset $end
   $var wire 16 i# rotated_data_payload_cha_i [15:0] $end
   $var wire 16 q# rotated_data_payload_cha_q [15:0] $end
   $var wire  1 a# rotated_data_valid $end
   $var wire 16 3 rotated_x_raw [15:0] $end
   $var wire 16 c rotated_y_raw [15:0] $end
   $var wire  1 ;$ shiftRegister_1_clc $end
   $var wire  1 U! shiftRegister_1_output_1 $end
   $var wire  1 -! when_PhaseRotator_l47 $end
   $var wire  1 5! when_PhaseRotator_l50 $end
   $var wire  1 ; when_SInt_l125 $end
   $var wire  1 k when_SInt_l125_1 $end
   $var wire  1 C when_SInt_l126 $end
   $var wire  1 s when_SInt_l126_1 $end
   $var wire  1 K when_SInt_l132 $end
   $var wire  1 { when_SInt_l132_1 $end
   $var wire  1 + when_SInt_l186 $end
   $var wire  1 [ when_SInt_l186_1 $end
   $var wire  1 # when_SInt_l332 $end
   $var wire  1 S when_SInt_l332_1 $end
   $var wire  1 )# xy_symbol $end
   $scope module cordic_pipeline_core $end
    $var wire  1 y# clk $end
    $var wire  1 9# raw_data_fire $end
    $var wire 32 +$ raw_data_payload_x [31:0] $end
    $var wire 32 3$ raw_data_payload_y [31:0] $end
    $var wire 32 ]! raw_data_payload_z [31:0] $end
    $var wire  1 C$ raw_data_ready $end
    $var wire  1 9# raw_data_valid $end
    $var wire  1 #$ reset $end
    $var wire 32 =! result_payload_x [31:0] $end
    $var wire 32 E! result_payload_y [31:0] $end
    $var wire 32 M! result_payload_z [31:0] $end
    $var wire  1 !# result_valid $end
    $var wire  1 C$ rotate_mode $end
    $var wire  2 c$ x_u [1:0] $end
   $upscope $end
   $scope module shiftRegister_1 $end
    $var wire  1 ;$ clc $end
    $var wire  1 y# clk $end
    $var wire  1 9# enable $end
    $var wire  1 )# input_1 $end
    $var wire  1 U! output_1 $end
    $var wire  1 #$ reset $end
    $var wire  1 e! shift_reg_0 $end
    $var wire  1 m! shift_reg_1 $end
    $var wire  1 W" shift_reg_10 $end
    $var wire  1 _" shift_reg_11 $end
    $var wire  1 g" shift_reg_12 $end
    $var wire  1 o" shift_reg_13 $end
    $var wire  1 w" shift_reg_14 $end
    $var wire  1 U! shift_reg_15 $end
    $var wire  1 u! shift_reg_2 $end
    $var wire  1 }! shift_reg_3 $end
    $var wire  1 '" shift_reg_4 $end
    $var wire  1 /" shift_reg_5 $end
    $var wire  1 7" shift_reg_6 $end
    $var wire  1 ?" shift_reg_7 $end
    $var wire  1 G" shift_reg_8 $end
    $var wire  1 O" shift_reg_9 $end
   $upscope $end
  $upscope $end
 $upscope $end
$enddefinitions $end


#0
1#
1+
b1000111011001011 3
1;
0C
1K
0S
1[
b0001000000110000 c
0k
1s
0{
b00110010100011011110101111101100 %!
1-!
05!
b10001110110010101000011011011110 =!
b00010000001011111000100111111110 E!
b11010011000000110011011010100011 M!
1U!
b00110010100100010001000000101011 ]!
1e!
1m!
0u!
0}!
0'"
0/"
17"
1?"
0G"
0O"
0W"
0_"
1g"
1o"
1w"
0!#
0)#
b00000000000000000000000000000000 1#
09#
b0011000000010101 A#
b1010010110111100 I#
1Q#
b11111111111111111111011011110110 Y#
0a#
b1000111011001011 i#
b0001000000110000 q#
0y#
1#$
b00110000000101010000000000000000 +$
b10100101101111000000000000000000 3$
1;$
1C$
b00000000000000110010010000111111 K$
b00000000000000011001001000011111 S$
b11111111111111100110110111100001 [$
b00 c$
#80
0#$
#85
b11111111111111111111011011110110 %!
0-!
0U!
b00000000000000000000000000000000 ]!
0e!
0m!
07"
0?"
0g"
0o"
0w"
1)#
b11111111111111111111011011110110 1#
b0111000100110101 i#
b1110111111010000 q#
1y#
#87
0y#
#89
1y#
#91
0y#
#93
1y#
#95
0y#
#97
1y#
#99
0y#
#101
1y#
#103
0y#
#105
1y#
#107
0y#
#109
1y#
#111
0y#
#113
1y#
#115
0y#
#117
1y#
#119
0y#
#121
19#
b0000000010000000 A#
b0000001000000000 I#
1y#
b00000000100000000000000000000000 +$
b00000010000000000000000000000000 3$
0;$
#123
0y#
#125
b11111111111111111110110111101100 %!
b11111111111111111111011011110110 ]!
1e!
b0000000001101101 A#
b0000001000000100 I#
1y#
b00000000011011010000000000000000 +$
b00000010000001000000000000000000 3$
#127
0y#
#129
b11111111111111111110010011100010 %!
b11111111111111111110110111101100 ]!
1m!
b0000000001011011 A#
b0000001000000111 I#
1y#
b00000000010110110000000000000000 +$
b00000010000001110000000000000000 3$
#131
0y#
#133
b11111111111111111101101111011000 %!
b11111111111111111110010011100010 ]!
1u!
b0000000001001001 A#
b0000001000001010 I#
1y#
b00000000010010010000000000000000 +$
b00000010000010100000000000000000 3$
#135
0y#
#137
b11111111111111111101001011001110 %!
b11111111111111111101101111011000 ]!
1}!
b0000000000110110 A#
b0000001000001100 I#
1y#
b00000000001101100000000000000000 +$
b00000010000011000000000000000000 3$
#139
0y#
#141
b11111111111111111100100111000100 %!
b11111111111111111101001011001110 ]!
1'"
b0000000000100100 A#
b0000001000001110 I#
1y#
b00000000001001000000000000000000 +$
b00000010000011100000000000000000 3$
#143
0y#
#145
b11111111111111111100000010111010 %!
b11111111111111111100100111000100 ]!
1/"
b0000000000010001 A#
b0000001000001111 I#
1y#
b00000000000100010000000000000000 +$
b00000010000011110000000000000000 3$
#147
0y#
#149
b11111111111111111011011110110000 %!
b11111111111111111100000010111010 ]!
17"
b1111111111111111 A#
1y#
b11111111111111110000000000000000 +$
#151
0y#
#153
b11111111111111111010111010100110 %!
b11111111111111111011011110110000 ]!
1?"
b1111111111101101 A#
1y#
b11111111111011010000000000000000 +$
#155
0y#
#157
b11111111111111111010010110011100 %!
b11111111111111111010111010100110 ]!
1G"
b1111111111011010 A#
b0000001000001110 I#
1y#
b11111111110110100000000000000000 +$
b00000010000011100000000000000000 3$
#159
0y#
#161
b11111111111111111001110010010010 %!
b11111111111111111010010110011100 ]!
1O"
b1111111111001000 A#
b0000001000001100 I#
1y#
b11111111110010000000000000000000 +$
b00000010000011000000000000000000 3$
#163
0y#
#165
b11111111111111111001001110001000 %!
b11111111111111111001110010010010 ]!
1W"
b1111111110110101 A#
b0000001000001010 I#
1y#
b11111111101101010000000000000000 +$
b00000010000010100000000000000000 3$
#167
0y#
#169
b11111111111111111000101001111110 %!
b11111111111111111001001110001000 ]!
1_"
b1111111110100011 A#
b0000001000000111 I#
1y#
b11111111101000110000000000000000 +$
b00000010000001110000000000000000 3$
#171
0y#
#173
b11111111111111111000000101110100 %!
b11111111111111111000101001111110 ]!
1g"
b1111111110010000 A#
b0000001000000011 I#
1y#
b11111111100100000000000000000000 +$
b00000010000000110000000000000000 3$
#175
0y#
#177
b11111111111111110111100001101010 %!
b11111111111111111000000101110100 ]!
1o"
b1111111101111110 A#
b0000000111111111 I#
1y#
b11111111011111100000000000000000 +$
b00000001111111110000000000000000 3$
#179
0y#
#181
b11111111111111110110111101100000 %!
b11111111111111110111100001101010 ]!
1w"
b1111111101101100 A#
b0000000111111010 I#
1y#
b11111111011011000000000000000000 +$
b00000001111110100000000000000000 3$
#183
0y#
#185
0#
b0000000011010011 3
0;
1C
0K
b0000001101001011 c
b11111111111111110110011001010110 %!
b00000000110100101100011000111110 =!
b00000011010010110010010011011110 E!
b11111111111111111111111111111101 M!
1U!
b11111111111111110110111101100000 ]!
1!#
b1111111101011011 A#
b0000000111110100 I#
1a#
b0000000011010011 i#
b0000001101001011 q#
1y#
b11111111010110110000000000000000 +$
b00000001111101000000000000000000 3$
#187
0y#
#189
b0000000011010001 3
b11111111111111110101110101001100 %!
b00000000110100010101101000010010 =!
b00000011010010101101111010011100 E!
b11111111111111110110011001010110 ]!
b1111111101001001 A#
b0000000111101110 I#
b0000000011010001 i#
1y#
b11111111010010010000000000000000 +$
b00000001111011100000000000000000 3$
#191
0y#
#193
b0000000011010010 3
b0000001101001010 c
b11111111111111110101010001000010 %!
b00000000110100011011101010000101 =!
b00000011010010011111101010101001 E!
b11111111111111110101110101001100 ]!
b1111111100111000 A#
b0000000111101000 I#
b0000000011010010 i#
b0000001101001010 q#
1y#
b11111111001110000000000000000000 +$
b00000001111010000000000000000000 3$
#195
0y#
#197
b11111111111111110100101100111000 %!
b00000000110100100111000001101010 =!
b00000011010010100001001111000100 E!
b11111111111111111111111111111111 M!
b11111111111111110101010001000010 ]!
b1111111100100110 A#
b0000000111100000 I#
1y#
b11111111001001100000000000000000 +$
b00000001111000000000000000000000 3$
#199
0y#
#201
b0000000011010001 3
b11111111111111110100001000101110 %!
b00000000110100010111101010011100 =!
b00000011010010011100110010110111 E!
b00000000000000000000000000000011 M!
b11111111111111110100101100111000 ]!
b1111111100010110 A#
b0000000111011000 I#
b0000000011010001 i#
1y#
b11111111000101100000000000000000 +$
b00000001110110000000000000000000 3$
#203
0y#
#205
b0000000011010011 3
b11111111111111110011100100100100 %!
b00000000110100101000100110001100 =!
b00000011010010100100111100000110 E!
b11111111111111110100001000101110 ]!
b1111111100000101 A#
b0000000111010000 I#
b0000000011010011 i#
1y#
b11111111000001010000000000000000 +$
b00000001110100000000000000000000 3$
#207
0y#
#209
b0000000011010010 3
b0000001101001011 c
b11111111111111110011000000011010 %!
b00000000110100011101101110110101 =!
b00000011010010101000110101011001 E!
b11111111111111110011100100100100 ]!
b1111111011110101 A#
b0000000111000110 I#
b0000000011010010 i#
b0000001101001011 q#
1y#
b11111110111101010000000000000000 +$
b00000001110001100000000000000000 3$
#211
0y#
#213
b0000000011010011 3
b0000001101001010 c
b11111111111111110010011100010000 %!
b00000000110100101100111000001000 =!
b00000011010010011101101000100001 E!
b11111111111111110011000000011010 ]!
b1111111011100101 A#
b0000000110111101 I#
b0000000011010011 i#
b0000001101001010 q#
1y#
b11111110111001010000000000000000 +$
b00000001101111010000000000000000 3$
#215
0y#
#217
b0000000011010100 3
b11111111111111110001111000000110 %!
b00000000110100111110001010010000 =!
b00000011010010100010100100100011 E!
b00000000000000000000000000000001 M!
b11111111111111110010011100010000 ]!
b1111111011010101 A#
b0000000110110010 I#
b0000000011010100 i#
1y#
b11111110110101010000000000000000 +$
b00000001101100100000000000000000 3$
#219
0y#
#221
b0000000011010011 3
b11111111111111110001010011111100 %!
b00000000110100110011011111110101 =!
b00000011010010100110000001011001 E!
b11111111111111111111111111111101 M!
b11111111111111110001111000000110 ]!
b1111111011000110 A#
b0000000110101000 I#
b0000000011010011 i#
1y#
b11111110110001100000000000000000 +$
b00000001101010000000000000000000 3$
#223
0y#
#225
b0000000011010100 3
b11111111111111110000101111110010 %!
b00000000110100111101001101100111 =!
b00000011010010011001000100011000 E!
b11111111111111111111111111111111 M!
b11111111111111110001010011111100 ]!
b1111111010111000 A#
b0000000110011100 I#
b0000000011010100 i#
1y#
b11111110101110000000000000000000 +$
b00000001100111000000000000000000 3$
#227
0y#
#229
b0000000011010011 3
b11111111111111110000001011101000 %!
b00000000110100110010011111110001 =!
b00000011010010100101111111010001 E!
b11111111111111110000101111110010 ]!
b1111111010101001 A#
b0000000110010000 I#
b0000000011010011 i#
1y#
b11111110101010010000000000000000 +$
b00000001100100000000000000000000 3$
#231
0y#
#233
b0000000011010100 3
b11111111111111101111100111011110 %!
b00000000110100111100100010110101 =!
b00000011010010100000111010101010 E!
b11111111111111110000001011101000 ]!
b1111111010011011 A#
b0000000110000100 I#
b0000000011010100 i#
1y#
b11111110100110110000000000000000 +$
b00000001100001000000000000000000 3$
#235
0y#
#237
b0000000011010010 3
b11111111111111101111000011010100 %!
b00000000110100100101111001111110 =!
b00000011010010100000011000011010 E!
b00000000000000000000000000000001 M!
b11111111111111101111100111011110 ]!
b1111111010001110 A#
b0000000101110111 I#
b0000000011010010 i#
1y#
b11111110100011100000000000000000 +$
b00000001011101110000000000000000 3$
#239
0y#
#241
b0000000011010011 3
b11111111111111101110011111001010 %!
b00000000110100101101000110011101 =!
b00000011010010100101000100101111 E!
b11111111111111101111000011010100 ]!
b1111111010000001 A#
b0000000101101010 I#
b0000000011010011 i#
1y#
b11111110100000010000000000000000 +$
b00000001011010100000000000000000 3$
#243
0y#
#245
b11111111111111101101111011000000 %!
b00000000110100101010010001000101 =!
b00000011010010100011101100100110 E!
b11111111111111111111111111111101 M!
b11111111111111101110011111001010 ]!
b1111111001110100 A#
b0000000101011100 I#
1y#
b11111110011101000000000000000000 +$
b00000001010111000000000000000000 3$
#247
0y#
#249
b0000001101001001 c
b11111111111111101101010110110110 %!
b00000000110100110110000111100010 =!
b00000011010010001110010010110011 E!
b11111111111111111111111111111111 M!
b11111111111111101101111011000000 ]!
b1111111001101000 A#
b0000000101001110 I#
b0000001101001001 q#
1y#
b11111110011010000000000000000000 +$
b00000001010011100000000000000000 3$
#251
0y#
#253
b0000001101001010 c
b11111111111111101100110010101100 %!
b00000000110100101101110011000000 =!
b00000011010010011000000111100111 E!
b00000000000000000000000000000001 M!
b11111111111111101101010110110110 ]!
b1111111001011101 A#
b0000000100111111 I#
b0000001101001010 q#
1y#
b11111110010111010000000000000000 +$
b00000001001111110000000000000000 3$
#255
0y#
#257
b0000000011010100 3
b11111111111111101100001110100010 %!
b00000000110101000000000011001000 =!
b00000011010010100011011111000111 E!
b11111111111111101100110010101100 ]!
b1111111001010010 A#
b0000000100110000 I#
b0000000011010100 i#
1y#
b11111110010100100000000000000000 +$
b00000001001100000000000000000000 3$
#259
0y#
#261
b0000000011010010 3
b11111111111111101011101010011000 %!
b00000000110100100100010100001001 =!
b00000011010010100100110001011010 E!
b00000000000000000000000000000011 M!
b11111111111111101100001110100010 ]!
b1111111001000111 A#
b0000000100100001 I#
b0000000011010010 i#
1y#
b11111110010001110000000000000000 +$
b00000001001000010000000000000000 3$
#263
0y#
#265
b0000000011010011 3
b0000001101001001 c
b11111111111111101011000110001110 %!
b00000000110100110011110010111011 =!
b00000011010010010111000000000111 E!
b11111111111111111111111111111111 M!
b11111111111111101011101010011000 ]!
b1111111000111101 A#
b0000000100010001 I#
b0000000011010011 i#
b0000001101001001 q#
1y#
b11111110001111010000000000000000 +$
b00000001000100010000000000000000 3$
#267
0y#
#269
b0000001101001011 c
b11111111111111101010100010000100 %!
b00000000110100110101011110000000 =!
b00000011010010101010000101011101 E!
b00000000000000000000000000000011 M!
b11111111111111101011000110001110 ]!
b1111111000110100 A#
b0000000100000001 I#
b0000001101001011 q#
1y#
b11111110001101000000000000000000 +$
b00000001000000010000000000000000 3$
#271
0y#
#273
b0000001101001001 c
b11111111111111101001111101111010 %!
b00000000110100101001010011111111 =!
b00000011010010010110001001011111 E!
b11111111111111111111111111111101 M!
b11111111111111101010100010000100 ]!
b1111111000101011 A#
b0000000011110000 I#
b0000001101001001 q#
1y#
b11111110001010110000000000000000 +$
b00000000111100000000000000000000 3$
#275
0y#
#277
b0000001101001010 c
b11111111111111101001011001110000 %!
b00000000110100110011011100111101 =!
b00000011010010100101111000001111 E!
b11111111111111111111111111111111 M!
b11111111111111101001111101111010 ]!
b1111111000100011 A#
b0000000011100000 I#
b0000001101001010 q#
1y#
b11111110001000110000000000000000 +$
b00000000111000000000000000000000 3$
#279
0y#
#281
b0000000011010010 3
b11111111111111101000110101100110 %!
b00000000110100011101110101011010 =!
b00000011010010100010000101100101 E!
b00000000000000000000000000000001 M!
b11111111111111101001011001110000 ]!
b1111111000011011 A#
b0000000011001111 I#
b0000000011010010 i#
1y#
b11111110000110110000000000000000 +$
b00000000110011110000000000000000 3$
#283
0y#
#285
b0000000011010011 3
b0000001101001011 c
b11111111111111101000010001011100 %!
b00000000110100101110100100011100 =!
b00000011010010101101101111100101 E!
b11111111111111111111111111111111 M!
b11111111111111101000110101100110 ]!
b1111111000010100 A#
b0000000010111101 I#
b0000000011010011 i#
b0000001101001011 q#
1y#
b11111110000101000000000000000000 +$
b00000000101111010000000000000000 3$
#287
0y#
#289
b0000001101001001 c
b11111111111111100111101101010010 %!
b00000000110100101110011111111000 =!
b00000011010010010010110111010000 E!
b11111111111111101000010001011100 ]!
b1111111000001110 A#
b0000000010101100 I#
b0000001101001001 q#
1y#
b11111110000011100000000000000000 +$
b00000000101011000000000000000000 3$
#291
0y#
#293
b0000000011010010 3
b0000001101001010 c
b11111111111111100111001001001000 %!
b00000000110100100000001111101111 =!
b00000011010010011110101101000001 E!
b11111111111111111111111111111011 M!
b11111111111111100111101101010010 ]!
b1111111000001000 A#
b0000000010011010 I#
b0000000011010010 i#
b0000001101001010 q#
1y#
b11111110000010000000000000000000 +$
b00000000100110100000000000000000 3$
#295
0y#
#297
b00000000000000011000110101111101 %!
15!
b00000000110100100111111101111100 =!
b00000011010010100101101000110011 E!
b11111111111111111111111111111101 M!
b11111111111111100111001001001000 ]!
b1111111000000011 A#
b0000000010001000 I#
1y#
b11111110000000110000000000000000 +$
b00000000100010000000000000000000 3$
#299
0y#
#301
b0000000011010011 3
b00000000000000011000010001110011 %!
05!
b00000000110100101010011110001000 =!
b00000011010010011000111100111011 E!
b11111111111111111111111111111111 M!
b00000000000000011000110101111101 ]!
0)#
b1111110111111110 A#
b0000000001110110 I#
b0000000011010011 i#
1y#
b11111101111111100000000000000000 +$
b00000000011101100000000000000000 3$
#303
0y#
#305
b00000000000000010111101101101001 %!
b00000000110100110000111001111100 =!
b00000011010010011100101100110110 E!
b00000000000000011000010001110011 ]!
0e!
b1111110111111010 A#
b0000000001100100 I#
1y#
b11111101111110100000000000000000 +$
b00000000011001000000000000000000 3$
#307
0y#
#309
b0000000011010010 3
b00000000000000010111001001011111 %!
b00000000110100100110011001110011 =!
b00000011010010100100001001011101 E!
b00000000000000000000000000000001 M!
b00000000000000010111101101101001 ]!
0m!
b1111110111110111 A#
b0000000001010010 I#
b0000000011010010 i#
1y#
b11111101111101110000000000000000 +$
b00000000010100100000000000000000 3$
#311
0y#
#313
b0000000011010011 3
b00000000000000010110100101010101 %!
b00000000110100101010110101010111 =!
b00000011010010100101100111010111 E!
b00000000000000000000000000000011 M!
b00000000000000010111001001011111 ]!
0u!
b1111110111110101 A#
b0000000000111111 I#
b0000000011010011 i#
1y#
b11111101111101010000000000000000 +$
b00000000001111110000000000000000 3$
#315
0y#
#317
b0000001101001001 c
b00000000000000010110000001001011 %!
b00000000110100101000001100011101 =!
b00000011010010010100010010011010 E!
b00000000000000010110100101010101 ]!
0}!
b1111110111110011 A#
b0000000000101101 I#
b0000001101001001 q#
1y#
b11111101111100110000000000000000 +$
b00000000001011010000000000000000 3$
#319
0y#
#321
b0000000011010010 3
b00000000000000010101011101000001 %!
b00000000110100100111010011010111 =!
b00000011010010010100010110110100 E!
b11111111111111111111111111111111 M!
b00000000000000010110000001001011 ]!
0'"
b1111110111110001 A#
b0000000000011010 I#
b0000000011010010 i#
1y#
b11111101111100010000000000000000 +$
b00000000000110100000000000000000 3$
#323
0y#
#325
b0000000011010011 3
b0000001101001010 c
b00000000000000010100111000110111 %!
b00000000110100101011011001011001 =!
b00000011010010100101000000101110 E!
b00000000000000010101011101000001 ]!
0/"
b0000000000000111 I#
b0000000011010011 i#
b0000001101001010 q#
1y#
b00000000000001110000000000000000 3$
#327
0y#
#329
b0000000011010010 3
b00000000000000010100010100101101 %!
b00000000110100100101011010100111 =!
b00000011010010100100101001101011 E!
b00000000000000000000000000000101 M!
b00000000000000010100111000110111 ]!
07"
b1111111111110110 I#
b0000000011010010 i#
1y#
b11111111111101100000000000000000 3$
#331
0y#
#333
b0000000011010011 3
b00000000000000010011110000100011 %!
b00000000110100101001101111010101 =!
b00000011010010011100010101001101 E!
b11111111111111111111111111111101 M!
b00000000000000010100010100101101 ]!
0?"
b1111110111110010 A#
b1111111111100011 I#
b0000000011010011 i#
1y#
b11111101111100100000000000000000 +$
b11111111111000110000000000000000 3$
#335
0y#
#337
b0000000011010010 3
b00000000000000010011001100011001 %!
b00000000110100011000010110101010 =!
b00000011010010011110011001101101 E!
b11111111111111111111111111111111 M!
b00000000000000010011110000100011 ]!
0G"
b1111110111110011 A#
b1111111111010001 I#
b0000000011010010 i#
1y#
b11111101111100110000000000000000 +$
b11111111110100010000000000000000 3$
#339
0y#
#341
b0000000011010011 3
b00000000000000010010101000001111 %!
b00000000110100101100100001001110 =!
b00000011010010011101000101000011 E!
b00000000000000000000000000000001 M!
b00000000000000010011001100011001 ]!
0O"
b1111110111110101 A#
b1111111110111110 I#
b0000000011010011 i#
1y#
b11111101111101010000000000000000 +$
b11111111101111100000000000000000 3$
#343
0y#
#345
b00000000000000010010000100000101 %!
b00000000110100101001111001000100 =!
b00000011010010100111001111011111 E!
b11111111111111111111111111111101 M!
b00000000000000010010101000001111 ]!
0W"
b1111110111111000 A#
b1111111110101100 I#
1y#
b11111101111110000000000000000000 +$
b11111111101011000000000000000000 3$
#347
0y#
#349
b0000000011010001 3
b00000000000000010001011111111011 %!
b00000000110100010101101001101111 =!
b00000011010010100100110110000101 E!
b11111111111111111111111111110111 M!
b00000000000000010010000100000101 ]!
0_"
b1111110111111011 A#
b1111111110011001 I#
b0000000011010001 i#
1y#
b11111101111110110000000000000000 +$
b11111111100110010000000000000000 3$
#351
0y#
#353
b0000000011010010 3
b00000000000000010000111011110001 %!
b00000000110100100010110011101101 =!
b00000011010010011100011111011100 E!
b11111111111111111111111111111101 M!
b00000000000000010001011111111011 ]!
0g"
b1111110111111111 A#
b1111111110000111 I#
b0000000011010010 i#
1y#
b11111101111111110000000000000000 +$
b11111111100001110000000000000000 3$
#355
0y#
#357
b00000000000000010000010111100111 %!
b00000000110100011011011001101101 =!
b00000011010010100010000011000111 E!
b11111111111111111111111111111111 M!
b00000000000000010000111011110001 ]!
0o"
b1111111000000100 A#
b1111111101110101 I#
1y#
b11111110000001000000000000000000 +$
b11111111011101010000000000000000 3$
#359
0y#
#361
b00000000000000001111110011011101 %!
b00000000110100011001101101000001 =!
b00000011010010011110011110101000 E!
b00000000000000000000000000000001 M!
b00000000000000010000010111100111 ]!
0w"
b1111111000001001 A#
b1111111101100011 I#
1y#
b11111110000010010000000000000000 +$
b11111111011000110000000000000000 3$
#363
0y#
#365
1#
b1111111100101110 3
1;
0C
1K
1S
b1111110010110101 c
1k
0s
1{
b00000000000000001111001111010011 %!
b11111111001011100110110100111000 =!
b11111100101101010011011001111100 E!
b00000000000000000000000000000010 M!
0U!
b00000000000000001111110011011101 ]!
b1111111000001111 A#
b1111111101010001 I#
b0000001101001011 q#
1y#
b11111110000011110000000000000000 +$
b11111111010100010000000000000000 3$
#367
0y#
#369
b00000000000000001110101011001001 %!
b11111111001011011111101010001000 =!
b11111100101101001111111100000101 E!
b00000000000000000000000000000100 M!
b00000000000000001111001111010011 ]!
b1111111000010101 A#
b1111111101000000 I#
1y#
b11111110000101010000000000000000 +$
b11111111010000000000000000000000 3$
#371
0y#
#373
b00000000000000001110000110111111 %!
b11111111001011011001001000110010 =!
b11111100101101010101101010001001 E!
b11111111111111111111111111111100 M!
b00000000000000001110101011001001 ]!
b1111111000011100 A#
b1111111100101111 I#
1y#
b11111110000111000000000000000000 +$
b11111111001011110000000000000000 3$
#375
0y#
#377
b1111111100101111 3
b1111110010110110 c
b00000000000000001101100010110101 %!
b11111111001011101000010110110010 =!
b11111100101101100011000010111001 E!
b00000000000000000000000000000000 M!
b00000000000000001110000110111111 ]!
b1111111000100100 A#
b1111111100011110 I#
b0000000011010001 i#
b0000001101001010 q#
1y#
b11111110001001000000000000000000 +$
b11111111000111100000000000000000 3$
#379
0y#
#381
b1111111100101110 3
b00000000000000001100111110101011 %!
b11111111001011011011100001100000 =!
b11111100101101100010010100111011 E!
b00000000000000001101100010110101 ]!
b1111111000101100 A#
b1111111100001101 I#
b0000000011010010 i#
1y#
b11111110001011000000000000000000 +$
b11111111000011010000000000000000 3$
#383
0y#
#385
b1111110010110101 c
b00000000000000001100011010100001 %!
b11111111001011100001111001100010 =!
b11111100101101001101010011000000 E!
b00000000000000000000000000000010 M!
b00000000000000001100111110101011 ]!
b1111111000110101 A#
b1111111011111101 I#
b0000001101001011 q#
1y#
b11111110001101010000000000000000 +$
b11111110111111010000000000000000 3$
#387
0y#
#389
b1111111100101111 3
b1111110010110110 c
b00000000000000001011110110010111 %!
b11111111001011101111110101001101 =!
b11111100101101011001111110010110 E!
b11111111111111111111111111111110 M!
b00000000000000001100011010100001 ]!
b1111111000111111 A#
b1111111011101101 I#
b0000000011010001 i#
b0000001101001010 q#
1y#
b11111110001111110000000000000000 +$
b11111110111011010000000000000000 3$
#391
0y#
#393
b1111111100101100 3
b00000000000000001011010010001101 %!
b11111111001011000111000011101010 =!
b11111100101101100010110101111011 E!
b00000000000000001011110110010111 ]!
b1111111001001001 A#
b1111111011011101 I#
b0000000011010100 i#
1y#
b11111110010010010000000000000000 +$
b11111110110111010000000000000000 3$
#395
0y#
#397
b1111111100101101 3
b1111110010110111 c
b00000000000000001010101110000011 %!
b11111111001011010010011101111100 =!
b11111100101101101000000001011000 E!
b00000000000000001011010010001101 ]!
b1111111001010011 A#
b1111111011001110 I#
b0000000011010011 i#
b0000001101001001 q#
1y#
b11111110010100110000000000000000 +$
b11111110110011100000000000000000 3$
#399
0y#
#401
b1111111100101100 3
b1111110010110110 c
b00000000000000001010001001111001 %!
b11111111001011000010011100000100 =!
b11111100101101100011110111111111 E!
b00000000000000000000000000000000 M!
b00000000000000001010101110000011 ]!
b1111111001011110 A#
b1111111010111111 I#
b0000000011010100 i#
b0000001101001010 q#
1y#
b11111110010111100000000000000000 +$
b11111110101111110000000000000000 3$
#403
0y#
#405
b1111111100101101 3
b00000000000000001001100101101111 %!
b11111111001011001101100011000101 =!
b11111100101101011111110001010001 E!
b00000000000000000000000000000100 M!
b00000000000000001010001001111001 ]!
b1111111001101010 A#
b1111111010110000 I#
b0000000011010011 i#
1y#
b11111110011010100000000000000000 +$
b11111110101100000000000000000000 3$
#407
0y#
#409
b1111111100101100 3
b1111110010110111 c
b00000000000000001001000001100101 %!
b11111111001011000111100101010001 =!
b11111100101101101100010100111001 E!
b00000000000000000000000000000000 M!
b00000000000000001001100101101111 ]!
b1111111001110110 A#
b1111111010100010 I#
b0000000011010100 i#
b0000001101001001 q#
1y#
b11111110011101100000000000000000 +$
b11111110101000100000000000000000 3$
#411
0y#
#413
b1111111100101101 3
b1111110010110110 c
b00000000000000001000011101011011 %!
b11111111001011010011101100000110 =!
b11111100101101011101111001011010 E!
b00000000000000001001000001100101 ]!
b1111111010000011 A#
b1111111010010100 I#
b0000000011010011 i#
b0000001101001010 q#
1y#
b11111110100000110000000000000000 +$
b11111110100101000000000000000000 3$
#415
0y#
#417
b00000000000000000111111001010001 %!
b11111111001011010000100000000011 =!
b11111100101101100000111101100110 E!
b00000000000000000000000000000010 M!
b00000000000000001000011101011011 ]!
b1111111010010000 A#
b1111111010000111 I#
1y#
b11111110100100000000000000000000 +$
b11111110100001110000000000000000 3$
#419
0y#
#421
b1111110010110111 c
b00000000000000000111010101000111 %!
b11111111001011010101101001010011 =!
b11111100101101101010101000010000 E!
b11111111111111111111111111111110 M!
b00000000000000000111111001010001 ]!
b1111111010011101 A#
b1111111001111010 I#
b0000001101001001 q#
1y#
b11111110100111010000000000000000 +$
b11111110011110100000000000000000 3$
#423
0y#
#425
b1111110010110110 c
b00000000000000000110110000111101 %!
b11111111001011010110011110011110 =!
b11111100101101100011011000100011 E!
b11111111111111111111111111111000 M!
b00000000000000000111010101000111 ]!
b1111111010101011 A#
b1111111001101110 I#
b0000001101001010 q#
1y#
b11111110101010110000000000000000 +$
b11111110011011100000000000000000 3$
#427
0y#
#429
b1111111100101110 3
b00000000000000000110001100110011 %!
b11111111001011100000100100011111 =!
b11111100101101100001011110101101 E!
b11111111111111111111111111111110 M!
b00000000000000000110110000111101 ]!
b1111111010111010 A#
b1111111001100010 I#
b0000000011010010 i#
1y#
b11111110101110100000000000000000 +$
b11111110011000100000000000000000 3$
#431
0y#
