simWorkspace/StreamPackageGen/test.vcd
$version Generated by VerilatedVcd $end
$date Wed Oct 27 15:02:17 2021
 $end
$timescale   1ns $end

 $scope module TOP $end
  $var wire  1 E! clk $end
  $var wire  8 =! pkg_data_payload [7:0] $end
  $var wire  1 5! pkg_data_ready $end
  $var wire  1 -! pkg_data_valid $end
  $var wire 32 { raw_data_payload_data [31:0] $end
  $var wire  4 %! raw_data_payload_strb [3:0] $end
  $var wire  1 s raw_data_ready $end
  $var wire  1 k raw_data_valid $end
  $var wire  1 M! reset $end
  $scope module StreamPackageGen $end
   $var wire  1 C bit_valid $end
   $var wire  1 E! clk $end
   $var wire  8 =! pkg_data_payload [7:0] $end
   $var wire  1 5! pkg_data_ready $end
   $var wire  1 -! pkg_data_valid $end
   $var wire  1 U! raw_data_fire $end
   $var wire 32 { raw_data_payload_data [31:0] $end
   $var wire  4 %! raw_data_payload_strb [3:0] $end
   $var wire  1 s raw_data_ready $end
   $var wire  1 k raw_data_valid $end
   $var wire  1 M! reset $end
   $var wire  1 S split_core_raw_data_ready $end
   $var wire  1 ]! split_core_split_data_fire $end
   $var wire  8 3 split_core_split_data_payload [7:0] $end
   $var wire  1 [ split_core_split_data_valid $end
   $var wire  4 ; strb_buf [3:0] $end
   $scope module split_core $end
    $var wire  1 E! clk $end
    $var wire  3 c cnt [2:0] $end
    $var wire 32 K data_buf [31:0] $end
    $var wire  1 # raw_data_fire $end
    $var wire 32 { raw_data_payload [31:0] $end
    $var wire  1 S raw_data_ready $end
    $var wire  1 k raw_data_valid $end
    $var wire  1 M! reset $end
    $var wire  1 + split_data_fire $end
    $var wire  8 3 split_data_payload [7:0] $end
    $var wire  1 5! split_data_ready $end
    $var wire  1 [ split_data_valid $end
   $upscope $end
  $upscope $end
 $upscope $end
$enddefinitions $end


#0
0#
0+
b10100110 3
b0000 ;
0C
b10100110111010001001100011001111 K
1S
0[
b000 c
0k
1s
b10001111111100011110111010101110 {
b1111 %!
0-!
15!
b10100110 =!
0E!
1M!
0U!
0]!
#80
0M!
#85
1#
1k
b00000100000000110000001000000001 {
b1011 %!
1E!
1U!
#87
0E!
#89
0#
1+
b00000100 3
b1011 ;
1C
b00000100000000110000001000000001 K
0S
1[
b100 c
0k
0s
b1010 %!
1-!
b00000100 =!
1E!
0U!
1]!
#91
0E!
#93
b00000011 3
b0110 ;
0C
b00000011000000100000000100000000 K
b011 c
1k
b0100 %!
0-!
b00000011 =!
1E!
#95
0E!
#97
0+
b00000010 3
b1100 ;
1C
b00000010000000010000000000000000 K
b010 c
0k
b0001 %!
1-!
05!
b00000010 =!
1E!
0]!
#99
0E!
#101
1+
b1111 %!
15!
1E!
1]!
#103
0E!
#105
0+
b00000001 3
b1000 ;
b00000001000000000000000000000000 K
b001 c
b0001 %!
05!
b00000001 =!
1E!
0]!
#107
0E!
#109
1k
b0100 %!
1E!
#111
0E!
#113
0k
b0011 %!
1E!
#115
0E!
#117
b1100 %!
1E!
#119
0E!
#121
1k
b0011 %!
1E!
#123
0E!
#125
b0101 %!
1E!
#127
0E!
#129
1+
b0000 %!
15!
1E!
1]!
#131
0E!
#133
1#
0+
b00000000 3
b0000 ;
0C
b00000000000000000000000000000000 K
1S
0[
b000 c
1s
b0010 %!
0-!
05!
b00000000 =!
1E!
1U!
0]!
#135
0E!
#137
0#
1+
b00000100 3
b0010 ;
b00000100000000110000001000000001 K
0S
1[
b100 c
0s
b0000 %!
15!
b00000100 =!
1E!
0U!
1]!
#139
0E!
#141
b00000011 3
b0100 ;
b00000011000000100000000100000000 K
b011 c
b1000 %!
b00000011 =!
1E!
#143
0E!
#145
0+
b00000010 3
b1000 ;
1C
b00000010000000010000000000000000 K
b010 c
0k
b1010 %!
1-!
05!
b00000010 =!
1E!
0]!
#147
0E!
#149
b0011 %!
1E!
#151
0E!
#153
b1010 %!
1E!
#155
0E!
#157
1+
1k
b1111 %!
15!
1E!
1]!
#159
0E!
#161
b00000001 3
b0000 ;
0C
b00000001000000000000000000000000 K
b001 c
b0000 %!
0-!
b00000001 =!
1E!
#163
0E!
#165
0+
b00000000 3
b00000000000000000000000000000000 K
1S
0[
b000 c
0k
1s
b1110 %!
05!
b00000000 =!
1E!
0]!
#167
0E!
#169
b0001 %!
1E!
#171
0E!
#173
b1001 %!
15!
1E!
#175
0E!
#177
1#
1k
b0101 %!
05!
1E!
1U!
#179
0E!
#181
0#
b00000100 3
b0101 ;
b00000100000000110000001000000001 K
0S
1[
b100 c
0s
b0111 %!
b00000100 =!
1E!
0U!
#183
0E!
#185
1E!
#187
0E!
#189
0k
1E!
#191
0E!
#193
1+
b1000 %!
15!
1E!
1]!
#195
0E!
#197
b00000011 3
b1010 ;
1C
b00000011000000100000000100000000 K
b011 c
b1100 %!
1-!
b00000011 =!
1E!
#199
0E!
#201
0+
b00000010 3
b0100 ;
0C
b00000010000000010000000000000000 K
b010 c
1k
b1101 %!
0-!
05!
b00000010 =!
1E!
0]!
#203
0E!
#205
0k
b1100 %!
1E!
#207
0E!
#209
1+
1k
15!
1E!
1]!
#211
0E!
#213
b00000001 3
b1000 ;
1C
b00000001000000000000000000000000 K
b001 c
b0001 %!
1-!
b00000001 =!
1E!
#215
0E!
#217
1#
0+
b00000000 3
b0000 ;
0C
b00000000000000000000000000000000 K
1S
0[
b000 c
1s
b0011 %!
0-!
05!
b00000000 =!
1E!
1U!
0]!
#219
0E!
#221
0#
b00000100 3
b0011 ;
b00000100000000110000001000000001 K
0S
1[
b100 c
0s
b1000 %!
b00000100 =!
1E!
0U!
#223
0E!
#225
0k
b0001 %!
1E!
#227
0E!
#229
1k
b0100 %!
1E!
#231
0E!
#233
1+
0k
b1011 %!
15!
1E!
1]!
#235
0E!
#237
0+
b00000011 3
b0110 ;
b00000011000000100000000100000000 K
b011 c
05!
b00000011 =!
1E!
0]!
#239
0E!
#241
1+
1k
b1000 %!
15!
1E!
1]!
#243
0E!
#245
0+
b00000010 3
b1100 ;
1C
b00000010000000010000000000000000 K
b010 c
0k
1-!
05!
b00000010 =!
1E!
0]!
#247
0E!
#249
1+
b0110 %!
15!
1E!
1]!
#251
0E!
#253
b00000001 3
b1000 ;
b00000001000000000000000000000000 K
b001 c
b1000 %!
b00000001 =!
1E!
#255
0E!
#257
1#
0+
b00000000 3
b0000 ;
0C
b00000000000000000000000000000000 K
1S
0[
b000 c
1k
1s
b0011 %!
0-!
b00000000 =!
1E!
1U!
0]!
#259
0E!
#261
0#
1+
b00000100 3
b0011 ;
b00000100000000110000001000000001 K
0S
1[
b100 c
0k
0s
b1101 %!
b00000100 =!
1E!
0U!
1]!
#263
0E!
#265
0+
b00000011 3
b0110 ;
b00000011000000100000000100000000 K
b011 c
b0100 %!
05!
b00000011 =!
1E!
0]!
#267
0E!
#269
1k
b1110 %!
1E!
#271
0E!
#273
b0001 %!
1E!
#275
0E!
#277
1+
0k
b0101 %!
15!
1E!
1]!
#279
0E!
#281
b00000010 3
b1100 ;
1C
b00000010000000010000000000000000 K
b010 c
b0111 %!
1-!
b00000010 =!
1E!
#283
0E!
#285
b00000001 3
b1000 ;
b00000001000000000000000000000000 K
b001 c
b1111 %!
b00000001 =!
1E!
#287
0E!
#289
0+
b00000000 3
b0000 ;
0C
b00000000000000000000000000000000 K
1S
0[
b000 c
1s
b0101 %!
0-!
b00000000 =!
1E!
0]!
#291
0E!
#293
1#
1k
b0000 %!
1E!
1U!
#295
0E!
#297
0#
1+
b00000100 3
b00000100000000110000001000000001 K
0S
1[
b100 c
0s
b1111 %!
b00000100 =!
1E!
0U!
1]!
#299
0E!
#301
0+
b00000011 3
b00000011000000100000000100000000 K
b011 c
0k
b1100 %!
05!
b00000011 =!
1E!
0]!
#303
0E!
#305
1k
b1111 %!
1E!
#307
0E!
#309
1E!
#311
0E!
#313
1E!
#315
0E!
#317
1+
b0110 %!
15!
1E!
1]!
#319
0E!
#321
b00000010 3
b00000010000000010000000000000000 K
b010 c
0k
b1111 %!
b00000010 =!
1E!
#323
0E!
#325
0+
b00000001 3
b00000001000000000000000000000000 K
b001 c
b0100 %!
05!
b00000001 =!
1E!
0]!
#327
0E!
#329
1k
b0101 %!
1E!
#331
0E!
#333
1+
0k
b1110 %!
15!
1E!
1]!
#335
0E!
#337
0+
b00000000 3
b00000000000000000000000000000000 K
1S
0[
b000 c
1s
b1000 %!
05!
b00000000 =!
1E!
0]!
#339
0E!
#341
b1111 %!
15!
1E!
#343
0E!
#345
b0101 %!
05!
1E!
#347
0E!
#349
1E!
#351
0E!
#353
b1011 %!
15!
1E!
#355
0E!
#357
b0010 %!
05!
1E!
#359
0E!
#361
b1110 %!
1E!
#363
0E!
#365
b1100 %!
15!
1E!
#367
0E!
#369
b0111 %!
05!
1E!
#371
0E!
#373
1#
1k
b1101 %!
1E!
1U!
#375
0E!
#377
0#
1+
b00000100 3
b1101 ;
1C
b00000100000000110000001000000001 K
0S
1[
b100 c
0s
b0010 %!
1-!
15!
b00000100 =!
1E!
0U!
1]!
#379
0E!
#381
0+
b00000011 3
b1010 ;
b00000011000000100000000100000000 K
b011 c
0k
b0011 %!
05!
b00000011 =!
1E!
0]!
#383
0E!
#385
1k
b1110 %!
1E!
#387
0E!
#389
1+
b0001 %!
15!
1E!
1]!
#391
0E!
#393
b00000010 3
b0100 ;
0C
b00000010000000010000000000000000 K
b010 c
0-!
b00000010 =!
1E!
#395
0E!
#397
0+
b00000001 3
b1000 ;
1C
b00000001000000000000000000000000 K
b001 c
b1101 %!
1-!
05!
b00000001 =!
1E!
0]!
#399
0E!
#401
1+
0k
b0010 %!
15!
1E!
1]!
#403
0E!
#405
0+
b00000000 3
b0000 ;
0C
b00000000000000000000000000000000 K
1S
0[
b000 c
1s
b0000 %!
0-!
05!
b00000000 =!
1E!
0]!
#407
0E!
#409
1#
1k
b1101 %!
1E!
1U!
#411
0E!
#413
0#
1+
b00000100 3
b1101 ;
1C
b00000100000000110000001000000001 K
0S
1[
b100 c
0k
0s
b1001 %!
1-!
15!
b00000100 =!
1E!
0U!
1]!
#415
0E!
#417
b00000011 3
b1010 ;
b00000011000000100000000100000000 K
b011 c
b0011 %!
b00000011 =!
1E!
#419
0E!
#421
0+
b00000010 3
b0100 ;
0C
b00000010000000010000000000000000 K
b010 c
1k
b1010 %!
0-!
05!
b00000010 =!
1E!
0]!
#423
0E!
#425
b0111 %!
1E!
#427
0E!
#429
1+
0k
b1001 %!
15!
1E!
1]!
#431
0E!
#433
0+
b00000001 3
b1000 ;
1C
b00000001000000000000000000000000 K
b001 c
1k
b0001 %!
1-!
05!
b00000001 =!
1E!
0]!
#435
0E!
#437
0k
1E!
#439
0E!
#441
1k
b1111 %!
1E!
#443
0E!
#445
b1110 %!
1E!
#447
0E!
#449
1+
b1111 %!
15!
1E!
1]!
#451
0E!
#453
0+
b00000000 3
b0000 ;
0C
b00000000000000000000000000000000 K
1S
0[
b000 c
0k
1s
b0101 %!
0-!
05!
b00000000 =!
1E!
0]!
#455
0E!
#457
1#
1k
b0111 %!
1E!
1U!
#459
0E!
#461
0#
1+
b00000100 3
b0111 ;
b00000100000000110000001000000001 K
0S
1[
b100 c
0s
b1001 %!
15!
b00000100 =!
1E!
0U!
1]!
#463
0E!
#465
0+
b00000011 3
b1110 ;
1C
b00000011000000100000000100000000 K
b011 c
0k
b1110 %!
1-!
05!
b00000011 =!
1E!
0]!
#467
0E!
#469
1k
b0111 %!
1E!
#471
0E!
#473
1+
b0000 %!
15!
1E!
1]!
#475
0E!
#477
b00000010 3
b1100 ;
b00000010000000010000000000000000 K
b010 c
b1011 %!
b00000010 =!
1E!
#479
0E!
#481
b00000001 3
b1000 ;
b00000001000000000000000000000000 K
b001 c
0k
b1101 %!
b00000001 =!
1E!
#483
0E!
#485
0+
b00000000 3
b0000 ;
0C
b00000000000000000000000000000000 K
1S
0[
b000 c
1s
0-!
b00000000 =!
1E!
0]!
