simWorkspace/ViterbiDecoder/test.vcd
$version Generated by VerilatedVcd $end
$date Thu Oct 28 22:49:23 2021
 $end
$timescale   1ns $end

 $scope module TOP $end
  $var wire  1 W& clk $end
  $var wire  1 O& raw_data_payload_last $end
  $var wire  1 G& raw_data_ready $end
  $var wire  1 ?& raw_data_valid $end
  $var wire  1 _& reset $end
  $scope module ViterbiDecoder $end
   $var wire  1 W& clk $end
   $var wire  2 /" pmu_core_min_idx [1:0] $end
   $var wire  1 [$ pmu_core_raw_data_ready $end
   $var wire  4 7" pmu_core_s_path_payload_fragment [3:0] $end
   $var wire  1 k$ pmu_core_s_path_payload_last $end
   $var wire  1 c$ pmu_core_s_path_valid $end
   $var wire  1 g& raw_data_fire $end
   $var wire  1 O& raw_data_payload_last $end
   $var wire  1 G& raw_data_ready $end
   $var wire  1 ?& raw_data_valid $end
   $var wire  1 _& reset $end
   $var wire  1 ]% tbu_core_finished $end
   $var wire  1 G" tbu_core_halt $end
   $var wire  1 ?" tbu_core_tb_node_payload_fragment [0:0] $end
   $var wire  1 {$ tbu_core_tb_node_payload_last $end
   $var wire  1 s$ tbu_core_tb_node_valid $end
   $scope module pmu_core $end
    $var wire  1 + addCompareSelect_4_decision $end
    $var wire 16 O" addCompareSelect_4_dist_0 [15:0] $end
    $var wire 16 W" addCompareSelect_4_dist_1 [15:0] $end
    $var wire 16 # addCompareSelect_4_state_weight [15:0] $end
    $var wire  1 ; addCompareSelect_5_decision $end
    $var wire 16 _" addCompareSelect_5_dist_0 [15:0] $end
    $var wire 16 g" addCompareSelect_5_dist_1 [15:0] $end
    $var wire 16 3 addCompareSelect_5_state_weight [15:0] $end
    $var wire  1 K addCompareSelect_6_decision $end
    $var wire 16 o" addCompareSelect_6_dist_0 [15:0] $end
    $var wire 16 w" addCompareSelect_6_dist_1 [15:0] $end
    $var wire 16 C addCompareSelect_6_state_weight [15:0] $end
    $var wire  1 [ addCompareSelect_7_decision $end
    $var wire 16 !# addCompareSelect_7_dist_0 [15:0] $end
    $var wire 16 )# addCompareSelect_7_dist_1 [15:0] $end
    $var wire 16 S addCompareSelect_7_state_weight [15:0] $end
    $var wire  2 o& branchMetric_4_dist_0 [1:0] $end
    $var wire  2 w& branchMetric_4_dist_1 [1:0] $end
    $var wire  2 !' branchMetric_5_dist_0 [1:0] $end
    $var wire  2 )' branchMetric_5_dist_1 [1:0] $end
    $var wire  2 w& branchMetric_6_dist_0 [1:0] $end
    $var wire  2 o& branchMetric_6_dist_1 [1:0] $end
    $var wire  2 )' branchMetric_7_dist_0 [1:0] $end
    $var wire  2 !' branchMetric_7_dist_1 [1:0] $end
    $var wire  2 Y# candidate_branches_0 [1:0] $end
    $var wire  2 a# candidate_branches_1 [1:0] $end
    $var wire  2 i# candidate_branches_2 [1:0] $end
    $var wire  2 q# candidate_branches_3 [1:0] $end
    $var wire  2 y# candidate_branches_4 [1:0] $end
    $var wire  2 #$ candidate_branches_5 [1:0] $end
    $var wire  2 +$ candidate_branches_6 [1:0] $end
    $var wire  2 3$ candidate_branches_7 [1:0] $end
    $var wire  1 W& clk $end
    $var wire  2 /" minVal_1_min_idx [1:0] $end
    $var wire 16 1# minVal_1_min_val [15:0] $end
    $var wire  2 /" min_idx [1:0] $end
    $var wire 16 9# node_weight_0 [15:0] $end
    $var wire 16 A# node_weight_1 [15:0] $end
    $var wire 16 I# node_weight_2 [15:0] $end
    $var wire 16 Q# node_weight_3 [15:0] $end
    $var wire  1 -% raw_data_last_next $end
    $var wire  1 %% raw_data_next $end
    $var wire  1 O& raw_data_payload_last $end
    $var wire  1 [$ raw_data_ready $end
    $var wire  1 [$ raw_data_ready_1 $end
    $var wire  1 g& raw_data_valid $end
    $var wire  1 _& reset $end
    $var wire  4 7" s_path_payload_fragment [3:0] $end
    $var wire  1 k$ s_path_payload_last $end
    $var wire  1 c$ s_path_valid $end
    $var wire  4 7" survival_path [3:0] $end
    $var wire  1 k$ survival_path_last $end
    $var wire  1 c$ survival_path_valid $end
    $var wire  1 ]% tbu_finished $end
    $scope module addCompareSelect_4 $end
     $var wire 16 c branch_weight_0 [15:0] $end
     $var wire 16 k branch_weight_1 [15:0] $end
     $var wire  1 + decision $end
     $var wire 16 O" dist_0 [15:0] $end
     $var wire 16 W" dist_1 [15:0] $end
     $var wire 16 9# last_state_weight_0 [15:0] $end
     $var wire 16 A# last_state_weight_1 [15:0] $end
     $var wire 16 # state_weight [15:0] $end
     $var wire  1 s when_AddCompareSelect_l17 $end
    $upscope $end
    $scope module addCompareSelect_5 $end
     $var wire 16 { branch_weight_0 [15:0] $end
     $var wire 16 %! branch_weight_1 [15:0] $end
     $var wire  1 ; decision $end
     $var wire 16 _" dist_0 [15:0] $end
     $var wire 16 g" dist_1 [15:0] $end
     $var wire 16 I# last_state_weight_0 [15:0] $end
     $var wire 16 Q# last_state_weight_1 [15:0] $end
     $var wire 16 3 state_weight [15:0] $end
     $var wire  1 -! when_AddCompareSelect_l17 $end
    $upscope $end
    $scope module addCompareSelect_6 $end
     $var wire 16 5! branch_weight_0 [15:0] $end
     $var wire 16 =! branch_weight_1 [15:0] $end
     $var wire  1 K decision $end
     $var wire 16 o" dist_0 [15:0] $end
     $var wire 16 w" dist_1 [15:0] $end
     $var wire 16 9# last_state_weight_0 [15:0] $end
     $var wire 16 A# last_state_weight_1 [15:0] $end
     $var wire 16 C state_weight [15:0] $end
     $var wire  1 E! when_AddCompareSelect_l17 $end
    $upscope $end
    $scope module addCompareSelect_7 $end
     $var wire 16 M! branch_weight_0 [15:0] $end
     $var wire 16 U! branch_weight_1 [15:0] $end
     $var wire  1 [ decision $end
     $var wire 16 !# dist_0 [15:0] $end
     $var wire 16 )# dist_1 [15:0] $end
     $var wire 16 I# last_state_weight_0 [15:0] $end
     $var wire 16 Q# last_state_weight_1 [15:0] $end
     $var wire 16 S state_weight [15:0] $end
     $var wire  1 ]! when_AddCompareSelect_l17 $end
    $upscope $end
    $scope module branchMetric_4 $end
     $var wire  2 o& dist_0 [1:0] $end
     $var wire  2 w& dist_1 [1:0] $end
     $var wire  2 o& hammingDistance_8_distance [1:0] $end
     $var wire  2 w& hammingDistance_9_distance [1:0] $end
     $scope module hammingDistance_8 $end
      $var wire  2 o& distance [1:0] $end
      $var wire  2 Q' in_a [1:0] $end
      $var wire  2 1' in_b [1:0] $end
      $var wire  2 1' xorResult [1:0] $end
     $upscope $end
     $scope module hammingDistance_9 $end
      $var wire  2 w& distance [1:0] $end
      $var wire  2 Y' in_a [1:0] $end
      $var wire  2 1' in_b [1:0] $end
      $var wire  2 9' xorResult [1:0] $end
     $upscope $end
    $upscope $end
    $scope module branchMetric_5 $end
     $var wire  2 !' dist_0 [1:0] $end
     $var wire  2 )' dist_1 [1:0] $end
     $var wire  2 !' hammingDistance_8_distance [1:0] $end
     $var wire  2 )' hammingDistance_9_distance [1:0] $end
     $scope module hammingDistance_8 $end
      $var wire  2 !' distance [1:0] $end
      $var wire  2 a' in_a [1:0] $end
      $var wire  2 1' in_b [1:0] $end
      $var wire  2 A' xorResult [1:0] $end
     $upscope $end
     $scope module hammingDistance_9 $end
      $var wire  2 )' distance [1:0] $end
      $var wire  2 i' in_a [1:0] $end
      $var wire  2 1' in_b [1:0] $end
      $var wire  2 I' xorResult [1:0] $end
     $upscope $end
    $upscope $end
    $scope module branchMetric_6 $end
     $var wire  2 w& dist_0 [1:0] $end
     $var wire  2 o& dist_1 [1:0] $end
     $var wire  2 w& hammingDistance_8_distance [1:0] $end
     $var wire  2 o& hammingDistance_9_distance [1:0] $end
     $scope module hammingDistance_8 $end
      $var wire  2 w& distance [1:0] $end
      $var wire  2 Y' in_a [1:0] $end
      $var wire  2 1' in_b [1:0] $end
      $var wire  2 9' xorResult [1:0] $end
     $upscope $end
     $scope module hammingDistance_9 $end
      $var wire  2 o& distance [1:0] $end
      $var wire  2 Q' in_a [1:0] $end
      $var wire  2 1' in_b [1:0] $end
      $var wire  2 1' xorResult [1:0] $end
     $upscope $end
    $upscope $end
    $scope module branchMetric_7 $end
     $var wire  2 )' dist_0 [1:0] $end
     $var wire  2 !' dist_1 [1:0] $end
     $var wire  2 )' hammingDistance_8_distance [1:0] $end
     $var wire  2 !' hammingDistance_9_distance [1:0] $end
     $scope module hammingDistance_8 $end
      $var wire  2 )' distance [1:0] $end
      $var wire  2 i' in_a [1:0] $end
      $var wire  2 1' in_b [1:0] $end
      $var wire  2 I' xorResult [1:0] $end
     $upscope $end
     $scope module hammingDistance_9 $end
      $var wire  2 !' distance [1:0] $end
      $var wire  2 a' in_a [1:0] $end
      $var wire  2 1' in_b [1:0] $end
      $var wire  2 A' xorResult [1:0] $end
     $upscope $end
    $upscope $end
    $scope module minVal_1 $end
     $var wire  1 W& clk $end
     $var wire 16 9# data_0 [15:0] $end
     $var wire 16 A# data_1 [15:0] $end
     $var wire 16 I# data_2 [15:0] $end
     $var wire 16 Q# data_3 [15:0] $end
     $var wire  2 /" min_idx [1:0] $end
     $var wire 16 1# min_val [15:0] $end
     $var wire  1 _& reset $end
    $upscope $end
   $upscope $end
   $scope module tbu_core $end
    $var wire  1 W& clk $end
    $var wire  3 S$ cursor [2:0] $end
    $var wire  1 e% decoded_ram_sel $end
    $var wire  1 ]% finished $end
    $var wire  1 G" halt $end
    $var wire  2 m% halt_cnt [1:0] $end
    $var wire  1 q' in_data_rom_0 [0:0] $end
    $var wire  1 q' in_data_rom_1 [0:0] $end
    $var wire  1 q' in_data_rom_2 [0:0] $end
    $var wire  1 q' in_data_rom_3 [0:0] $end
    $var wire  1 y' in_data_rom_4 [0:0] $end
    $var wire  1 y' in_data_rom_5 [0:0] $end
    $var wire  1 y' in_data_rom_6 [0:0] $end
    $var wire  1 y' in_data_rom_7 [0:0] $end
    $var wire  2 K$ min_cursor [1:0] $end
    $var wire  2 e! min_cursor_next [1:0] $end
    $var wire  2 /" min_idx [1:0] $end
    $var wire  1 G" pipe_halt $end
    $var wire  1 E% pkg_tail $end
    $var wire  4 ;$ ram_0_value [3:0] $end
    $var wire  4 C$ ram_1_value [3:0] $end
    $var wire  6 }% ram_addr_read [5:0] $end
    $var wire  6 =% ram_addr_write [5:0] $end
    $var wire  1 5% ram_select $end
    $var wire  1 _& reset $end
    $var wire  4 7" s_path_payload_fragment [3:0] $end
    $var wire  1 k$ s_path_payload_last $end
    $var wire  1 c$ s_path_valid $end
    $var wire  2 Q' states_shift_rom_0 [1:0] $end
    $var wire  2 i' states_shift_rom_1 [1:0] $end
    $var wire  2 a' states_shift_rom_2 [1:0] $end
    $var wire  2 Y' states_shift_rom_3 [1:0] $end
    $var wire  2 Q' states_shift_rom_4 [1:0] $end
    $var wire  2 i' states_shift_rom_5 [1:0] $end
    $var wire  2 a' states_shift_rom_6 [1:0] $end
    $var wire  2 Y' states_shift_rom_7 [1:0] $end
    $var wire  1 '& tail_repeat $end
    $var wire  1 ]% tb_finish $end
    $var wire  1 ?" tb_node_data [0:0] $end
    $var wire  1 m! tb_node_data_next [0:0] $end
    $var wire  1 {$ tb_node_last $end
    $var wire  1 ?" tb_node_payload_fragment [0:0] $end
    $var wire  1 {$ tb_node_payload_last $end
    $var wire  1 s$ tb_node_valid $end
    $var wire  1 s$ tb_node_valid_1 $end
    $var wire  3 /& traceback_state [2:0] $end
    $var wire 88 u! traceback_state_string [87:0] $end
    $var wire  1 u% when_Traceback_l106 $end
    $var wire  1 7& when_Traceback_l114 $end
    $var wire  1 7& when_Traceback_l132 $end
    $var wire  1 7& when_Traceback_l140 $end
    $var wire  1 M% when_Traceback_l46 $end
    $var wire  1 U% when_Traceback_l95 $end
   $upscope $end
  $upscope $end
 $upscope $end
$enddefinitions $end


#0
b0111000010010111 #
0+
b1001100001010101 3
0;
b0111000010010101 C
0K
b1001100001010101 S
0[
b0111000010010111 c
b1000111010111010 k
1s
b1001100001010101 {
b1011000001110100 %!
1-!
b0111000010010101 5!
b1000111010111010 =!
1E!
b1001100001010101 M!
b1011000001110011 U!
1]!
b11 e!
1m!
b0100011001001001010011100100100101010011010010000010000000100000001000000010000000100000 u!
b11 /"
b1101 7"
1?"
1G"
b0000000000000011 O"
b0000000000000011 W"
b0000000000000011 _"
b0000000000000001 g"
b0000000000000001 o"
b0000000000000011 w"
b0000000000000011 !#
b0000000000000000 )#
b0111000001010111 1#
b0111000010010100 9#
b1000111010110111 A#
b1001100001010010 I#
b1011000001110011 Q#
b11 Y#
b11 a#
b11 i#
b01 q#
b01 y#
b11 #$
b11 +$
b00 3$
b1010 ;$
b1000 C$
b11 K$
b111 S$
0[$
0c$
0k$
0s$
0{$
0%%
0-%
05%
b000000 =%
0E%
0M%
0U%
1]%
1e%
b00 m%
0u%
b000000 }%
0'&
b101 /&
07&
0?&
0G&
0O&
0W&
1_&
0g&
b01 o&
b01 w&
b10 !'
b00 )'
b01 1'
b10 9'
b11 A'
b00 I'
b00 Q'
b11 Y'
b10 a'
b01 i'
0q'
1y'
#80
0_&
#85
b0000000000000001 #
b0000000000000000 3
1;
b0000000000000001 C
b0000000000000000 S
b0000000000000001 c
b0000000000000001 k
b0000000000000010 {
b0000000000000000 %!
0-!
b0000000000000001 5!
b0000000000000001 =!
b0000000000000000 M!
b0000000000000010 U!
b10 e!
b0100100101000100010011000100010100100000001000000010000000100000001000000010000000100000 u!
b00 /"
b0000 7"
b0000000000000001 O"
b0000000000000001 W"
b0000000000000010 _"
b0000000000000000 g"
b0000000000000001 w"
b0000000000000000 !#
b0000000000000010 )#
b0001010000011100 1#
b0000000000000000 9#
b0000000000000000 A#
b0000000000000000 I#
b0000000000000000 Q#
b01 Y#
b01 a#
b10 i#
b00 q#
b01 #$
b00 +$
b10 3$
b0111 ;$
b0011 C$
b110 S$
1[$
b000 /&
1W&
#87
0W&
#89
0G"
b0111000010010100 1#
0]%
1G&
1W&
#91
0W&
#93
b0000000000000000 1#
1W&
#95
0W&
#97
1W&
#99
0W&
#101
1W&
#103
0W&
#105
1W&
#107
0W&
#109
1W&
#111
0W&
#113
1W&
#115
0W&
#117
1W&
#119
0W&
#121
1?&
1W&
1g&
b10 o&
b00 w&
b01 !'
b01 )'
b11 1'
b00 9'
b01 A'
b10 I'
#123
0W&
#125
b0000000000000000 #
1+
b0000000000000001 3
0;
b0000000000000000 C
b0000000000000001 S
b0000000000000010 c
b0000000000000000 k
0s
b0000000000000001 {
b0000000000000001 %!
1-!
b0000000000000000 5!
b0000000000000010 =!
b0000000000000001 M!
b0000000000000001 U!
b0000000000000010 O"
b0000000000000000 W"
b0000000000000001 _"
b0000000000000001 g"
b0000000000000000 o"
b0000000000000010 w"
b0000000000000001 !#
b0000000000000001 )#
b10 Y#
b00 a#
b01 i#
b01 q#
b00 y#
b10 #$
b01 +$
b01 3$
1%%
1W&
b01 o&
b01 w&
b00 !'
b10 )'
b10 1'
b01 9'
b00 A'
b11 I'
#127
0W&
#129
b0000000000000001 #
0+
b0000000000000000 3
b0000000000000001 C
1[
b0000000000000001 c
b0000000000000010 k
1s
b0000000000000000 {
b0000000000000011 %!
b0000000000000001 5!
b0000000000000010 M!
0]!
b0001 7"
b0000000000000001 O"
b0000000000000001 W"
b0000000000000000 _"
b0000000000000010 g"
b0000000000000001 o"
b0000000000000001 w"
b0000000000000010 !#
b0000000000000000 )#
b0000000000000001 A#
b0000000000000001 Q#
b01 Y#
b01 a#
b00 i#
b10 q#
b01 y#
b01 #$
b10 +$
b00 3$
1c$
1W&
b10 o&
b00 w&
b01 !'
b01 )'
b11 1'
b00 9'
b01 A'
b10 I'
#131
0W&
#133
b0000000000000000 #
1+
b0000000000000010 3
b0000000000000010 S
0[
b0000000000000011 c
b0000000000000000 k
0s
b0000000000000010 {
b0000000000000010 %!
b0000000000000010 U!
1]!
b1000 7"
b0000000000000010 O"
b0000000000000000 W"
b0000000000000001 _"
b0000000000000001 g"
b0000000000000000 o"
b0000000000000010 w"
b0000000000000001 !#
b0000000000000001 )#
b0000000000000001 9#
b0000000000000000 A#
b0000000000000001 I#
b10 Y#
b00 a#
b01 i#
b01 q#
b00 y#
b10 #$
b01 +$
b01 3$
b000001 =%
1W&
#135
0W&
#137
b0000000000000010 #
0+
b0000000000000000 C
b0000000000000010 c
b0000000000000010 k
1s
b0000000000000011 %!
b0000000000000000 5!
b0000000000000100 =!
b0000000000000011 U!
b0001 7"
b0000000000000000 9#
b0000000000000010 A#
b0000000000000010 Q#
b0001 ;$
b000010 =%
1W&
b01 o&
b01 w&
b10 !'
b00 )'
b01 1'
b10 9'
b11 A'
b00 I'
#139
0W&
#141
b0000000000000011 #
b0000000000000011 C
b0000000000000000 S
b0000000000000011 c
b0000000000000011 k
b0000000000000010 %!
b0000000000000011 5!
b0000000000000011 =!
b0000000000000000 M!
b0000000000000100 U!
b01 /"
b0000 7"
b0000000000000001 O"
b0000000000000001 W"
b0000000000000010 _"
b0000000000000000 g"
b0000000000000001 o"
b0000000000000001 w"
b0000000000000000 !#
b0000000000000010 )#
b0000000000000010 9#
b0000000000000000 I#
b01 Y#
b01 a#
b10 i#
b00 q#
b01 y#
b01 #$
b00 +$
b10 3$
b000011 =%
1W&
#143
0W&
#145
1+
b0000000000000000 3
1;
1K
b0000000000000010 S
1[
b0000000000000100 c
0s
b0000000000000101 {
b0000000000000000 %!
0-!
b0000000000000100 5!
0E!
b0000000000000011 M!
b0000000000000010 U!
0]!
b00 /"
b0000000000000011 9#
b0000000000000011 I#
b0000000000000000 Q#
b000100 =%
1O&
1W&
b10 o&
b00 w&
b01 !'
b01 )'
b11 1'
b00 9'
b01 A'
b10 I'
#147
0W&
#149
b0000000000000000 #
b0000000000000011 3
b0000000000000010 C
b0000000000000011 S
b0000000000000101 c
b0000000000000000 k
b0000000000000100 {
b0000000000000011 %!
b0000000000000011 5!
b0000000000000010 =!
b0000000000000100 M!
b0000000000000011 U!
b10 /"
b1111 7"
b0000000000000010 O"
b0000000000000000 W"
b0000000000000001 _"
b0000000000000001 g"
b0000000000000000 o"
b0000000000000010 w"
b0000000000000001 !#
b0000000000000001 )#
b0000000000000000 A#
b0000000000000010 Q#
b10 Y#
b00 a#
b01 i#
b01 q#
b00 y#
b10 #$
b01 +$
b01 3$
0[$
1-%
b000101 =%
0?&
0G&
0O&
1W&
0g&
#151
0W&
#153
b0000000000000010 #
0+
0;
b0000000000000000 C
0K
0[
b0000000000000010 c
b0000000000000011 k
1s
b0000000000000011 {
b0000000000000100 %!
1-!
b0000000000000000 5!
b0000000000000101 =!
1E!
b0000000000000011 M!
b0000000000000100 U!
1]!
b11 /"
b0000000000000000 9#
b0000000000000011 A#
b0000000000000010 I#
b0000000000000011 Q#
1k$
0%%
0-%
b000110 =%
1W&
#155
0W&
#157
b01 /"
0c$
0k$
b000111 =%
1E%
1U%
1W&
#159
0W&
#161
b0100100001000001010011000101010000100000001000000010000000100000001000000010000000100000 u!
b00 /"
b000110 }%
b011 /&
1W&
#163
0W&
#165
1G"
b1111 ;$
b0111 C$
b01 m%
1W&
#167
0W&
#169
b10 m%
1u%
1W&
#171
0W&
#173
b01 e!
0m!
b0101010001000001010010010100110001011111010001000100010101000011010011110100010001000101 u!
b00 K$
b001 S$
0e%
b11 m%
0u%
b000101 }%
b100 /&
1W&
#175
0W&
#177
b11 e!
0?"
b01 K$
b011 S$
1s$
b000100 }%
1W&
#179
0W&
#181
b10 e!
1m!
b0000 ;$
b11 K$
b110 S$
b000011 }%
1W&
#183
0W&
#185
b00 e!
1?"
b1100 C$
b10 K$
b100 S$
b000010 }%
1W&
#187
0W&
#189
b01 e!
0m!
b0001 ;$
b0001 C$
b00 K$
b001 S$
b000001 }%
1W&
#191
0W&
#193
b10 e!
0?"
b1000 ;$
b1100 C$
b01 K$
b010 S$
b000000 }%
1W&
#195
0W&
#197
b00 e!
1m!
b0001 ;$
b0011 C$
b10 K$
b100 S$
b111111 }%
17&
1W&
#199
0W&
#201
0m!
b0100011001001001010011100100100101010011010010000010000000100000001000000010000000100000 u!
1?"
b1110 ;$
b1101 C$
b00 K$
b000 S$
1{$
1]%
b111110 }%
b101 /&
07&
1W&
#203
0W&
#205
b0000000000000000 #
1+
b0000000000000001 3
b0000000000000001 S
b0000000000000000 k
0s
b0000000000000001 {
b0000000000000001 %!
b0000000000000010 =!
b0000000000000001 M!
b0000000000000001 U!
b01 e!
b0100100101000100010011000100010100100000001000000010000000100000001000000010000000100000 u!
b0000 7"
b0000000000000000 A#
b0000000000000000 I#
b0000000000000000 Q#
b001 S$
1[$
0s$
0{$
b000000 =%
0E%
0U%
1e%
b000 /&
1W&
#207
0W&
#209
0G"
0]%
b00 m%
1G&
1W&
