simWorkspace/BDMAs2m/test.vcd
$version Generated by VerilatedVcd $end
$date Thu Mar  3 11:12:44 2022
 $end
$timescale   1ns $end

 $scope module TOP $end
  $var wire  1 I; clk $end
  $var wire 32 s8 dma_aw_payload_addr [31:0] $end
  $var wire  2 59 dma_aw_payload_burst [1:0] $end
  $var wire  4 {8 dma_aw_payload_id [3:0] $end
  $var wire  8 %9 dma_aw_payload_len [7:0] $end
  $var wire  3 -9 dma_aw_payload_size [2:0] $end
  $var wire  1 k8 dma_aw_ready $end
  $var wire  1 c8 dma_aw_valid $end
  $var wire  4 u9 dma_b_payload_id [3:0] $end
  $var wire  2 }9 dma_b_payload_resp [1:0] $end
  $var wire  1 m9 dma_b_ready $end
  $var wire  1 e9 dma_b_valid $end
  $var wire 32 M9 dma_w_payload_data [31:0] $end
  $var wire  1 ]9 dma_w_payload_last $end
  $var wire  4 U9 dma_w_payload_strb [3:0] $end
  $var wire  1 E9 dma_w_ready $end
  $var wire  1 =9 dma_w_valid $end
  $var wire  1 Q; reset $end
  $var wire  2 ); s2m_cch_payload_desc_burst [1:0] $end
  $var wire  4 1; s2m_cch_payload_desc_id [3:0] $end
  $var wire  1 9; s2m_cch_payload_desc_reset $end
  $var wire 32 w: s2m_cch_payload_desc_start_addr [31:0] $end
  $var wire 30 !; s2m_cch_payload_desc_total_bytes [29:0] $end
  $var wire  1 o: s2m_cch_ready $end
  $var wire  1 g: s2m_cch_valid $end
  $var wire 32 7: s2m_data_stream_payload_data [31:0] $end
  $var wire  4 ?: s2m_data_stream_payload_id [3:0] $end
  $var wire  4 O: s2m_data_stream_payload_keep_ [3:0] $end
  $var wire  1 W: s2m_data_stream_payload_last $end
  $var wire  4 G: s2m_data_stream_payload_strb [3:0] $end
  $var wire  1 /: s2m_data_stream_ready $end
  $var wire  1 ': s2m_data_stream_valid $end
  $var wire  1 A; s2m_intr $end
  $var wire  2 _: s2m_state [1:0] $end
  $scope module BDMAs2m $end
   $var wire 32 -) aligned_address [31:0] $end
   $var wire  1 u! aw_finish $end
   $var wire 32 c( cch_address [31:0] $end
   $var wire  2 k( cch_burst_type [1:0] $end
   $var wire  4 s( cch_id [3:0] $end
   $var wire  1 W2 cch_ready $end
   $var wire 30 A7 cch_total_bytes [29:0] $end
   $var wire  1 I; clk $end
   $var wire  1 o2 cycle_finished $end
   $var wire  1 i; dma_aw_fire $end
   $var wire  1 o& dma_aw_fire_1 $end
   $var wire  1 i; dma_aw_fire_2 $end
   $var wire 32 s8 dma_aw_payload_addr [31:0] $end
   $var wire  2 59 dma_aw_payload_burst [1:0] $end
   $var wire  4 {8 dma_aw_payload_id [3:0] $end
   $var wire  8 %9 dma_aw_payload_len [7:0] $end
   $var wire  3 -9 dma_aw_payload_size [2:0] $end
   $var wire  1 k8 dma_aw_ready $end
   $var wire  1 c8 dma_aw_valid $end
   $var wire  4 u9 dma_b_payload_id [3:0] $end
   $var wire  2 }9 dma_b_payload_resp [1:0] $end
   $var wire  1 m9 dma_b_ready $end
   $var wire  1 e9 dma_b_valid $end
   $var wire 32 M9 dma_w_payload_data [31:0] $end
   $var wire  1 ]9 dma_w_payload_last $end
   $var wire  4 U9 dma_w_payload_strb [3:0] $end
   $var wire  1 E9 dma_w_ready $end
   $var wire  1 =9 dma_w_valid $end
   $var wire  8 =) len_pending [7:0] $end
   $var wire  4 =! len_pending_fifo_io_availability [3:0] $end
   $var wire  4 5! len_pending_fifo_io_occupancy [3:0] $end
   $var wire  1 }! len_pending_fifo_io_pop_fire $end
   $var wire  8 [( len_pending_fifo_io_pop_payload [7:0] $end
   $var wire  1 -! len_pending_fifo_io_pop_valid $end
   $var wire  1 %! len_pending_fifo_io_push_ready $end
   $var wire  1 ;4 pending_fifo_pop_ready $end
   $var wire  1 )3 pending_valid $end
   $var wire  1 Q; reset $end
   $var wire  4 ; s2m_aw_fifo_io_availability [3:0] $end
   $var wire  4 3 s2m_aw_fifo_io_occupancy [3:0] $end
   $var wire 32 q' s2m_aw_fifo_io_pop_payload_addr [31:0] $end
   $var wire  2 3( s2m_aw_fifo_io_pop_payload_burst [1:0] $end
   $var wire  4 y' s2m_aw_fifo_io_pop_payload_id [3:0] $end
   $var wire  8 #( s2m_aw_fifo_io_pop_payload_len [7:0] $end
   $var wire  3 +( s2m_aw_fifo_io_pop_payload_size [2:0] $end
   $var wire  1 Y; s2m_aw_fifo_io_pop_ready $end
   $var wire  1 + s2m_aw_fifo_io_pop_valid $end
   $var wire  1 e! s2m_aw_fifo_io_push_fire $end
   $var wire  1 m! s2m_aw_fifo_io_push_fire_1 $end
   $var wire  1 e! s2m_aw_fifo_io_push_fire_2 $end
   $var wire  1 m! s2m_aw_fifo_io_push_fire_3 $end
   $var wire  1 # s2m_aw_fifo_io_push_ready $end
   $var wire  1 g2 s2m_aw_halt_exec $end
   $var wire  8 %) s2m_aw_len [7:0] $end
   $var wire  1 _2 s2m_aw_valid $end
   $var wire 32 M) s2m_axis_data [31:0] $end
   $var wire  1 i3 s2m_axis_final_last $end
   $var wire  1 Y3 s2m_axis_first $end
   $var wire  1 a3 s2m_axis_last_cycle $end
   $var wire  1 q3 s2m_axis_leak $end
   $var wire  1 Q3 s2m_axis_req $end
   $var wire 32 U) s2m_axis_residual_data [31:0] $end
   $var wire  4 A3 s2m_axis_residual_strb_keep [3:0] $end
   $var wire  4 93 s2m_axis_strb_keep [3:0] $end
   $var wire 30 I3 s2m_axis_trans_bytes [29:0] $end
   $var wire  1 13 s2m_axis_valve $end
   $var wire  2 w2 s2m_bytes_shift [1:0] $end
   $var wire  1 g& s2m_cch_fire $end
   $var wire  2 ); s2m_cch_payload_desc_burst [1:0] $end
   $var wire  4 1; s2m_cch_payload_desc_id [3:0] $end
   $var wire  1 9; s2m_cch_payload_desc_reset $end
   $var wire 32 w: s2m_cch_payload_desc_start_addr [31:0] $end
   $var wire 30 !; s2m_cch_payload_desc_total_bytes [29:0] $end
   $var wire  1 o: s2m_cch_ready $end
   $var wire  2 G2 s2m_cch_state [1:0] $end
   $var wire 72 7" s2m_cch_state_string [71:0] $end
   $var wire  1 g: s2m_cch_valid $end
   $var wire  1 q; s2m_data_stream_fire $end
   $var wire  1 q; s2m_data_stream_fire_1 $end
   $var wire 32 7: s2m_data_stream_payload_data [31:0] $end
   $var wire  4 ?: s2m_data_stream_payload_id [3:0] $end
   $var wire  4 O: s2m_data_stream_payload_keep_ [3:0] $end
   $var wire  1 W: s2m_data_stream_payload_last $end
   $var wire  4 G: s2m_data_stream_payload_strb [3:0] $end
   $var wire  1 /: s2m_data_stream_ready $end
   $var wire  1 ': s2m_data_stream_valid $end
   $var wire  1 A; s2m_intr $end
   $var wire  2 !3 s2m_mask_shift [1:0] $end
   $var wire  2 _: s2m_state [1:0] $end
   $var wire 40 +< s2m_state_string [39:0] $end
   $var wire  4 [ s2m_trans_bytes_fifo_io_availability [3:0] $end
   $var wire  4 S s2m_trans_bytes_fifo_io_occupancy [3:0] $end
   $var wire 30 ;( s2m_trans_bytes_fifo_io_pop_payload [29:0] $end
   $var wire  1 K s2m_trans_bytes_fifo_io_pop_valid $end
   $var wire  1 C s2m_trans_bytes_fifo_io_push_ready $end
   $var wire 32 ]) s2m_w_data [31:0] $end
   $var wire  6 { s2m_w_fifo_io_availability [5:0] $end
   $var wire  6 s s2m_w_fifo_io_occupancy [5:0] $end
   $var wire 32 C( s2m_w_fifo_io_pop_payload_data [31:0] $end
   $var wire  1 S( s2m_w_fifo_io_pop_payload_last $end
   $var wire  4 K( s2m_w_fifo_io_pop_payload_strb [3:0] $end
   $var wire  1 k s2m_w_fifo_io_pop_valid $end
   $var wire  1 c s2m_w_fifo_io_push_ready $end
   $var wire  4 34 s2m_w_final_mask [3:0] $end
   $var wire  1 y3 s2m_w_last $end
   $var wire  8 Q7 s2m_w_len [7:0] $end
   $var wire  2 O2 s2m_w_state [1:0] $end
   $var wire 40 [4 s2m_w_state_string [39:0] $end
   $var wire  4 #4 s2m_w_strb [3:0] $end
   $var wire  1 +4 s2m_w_valid $end
   $var wire  4 ;< strb_full [3:0] $end
   $var wire 30 {( trans_bytes_cnt [29:0] $end
   $var wire 30 E) trans_pending [29:0] $end
   $var wire  4 ]! trans_pending_fifo_io_availability [3:0] $end
   $var wire  4 U! trans_pending_fifo_io_occupancy [3:0] $end
   $var wire 30 97 trans_pending_fifo_io_pop_payload [29:0] $end
   $var wire  1 M! trans_pending_fifo_io_pop_valid $end
   $var wire  1 E! trans_pending_fifo_io_push_ready $end
   $var wire  1 72 when_BDMAs2m_l102 $end
   $var wire  1 I7 when_BDMAs2m_l116 $end
   $var wire  1 72 when_BDMAs2m_l133 $end
   $var wire  1 ?2 when_BDMAs2m_l137 $end
   $var wire  1 5) when_BDMAs2m_l149 $end
   $var wire  1 a; when_BDMAs2m_l161 $end
   $var wire  1 w& when_BDMAs2m_l271 $end
   $var wire  1 C4 when_BDMAs2m_l274 $end
   $var wire  1 y; when_BDMAs2m_l326 $end
   $var wire  1 K4 when_BDMAs2m_l331 $end
   $var wire  1 '" when_BDMAs2m_l345 $end
   $var wire  1 /& when_BDMAs2m_l349 $end
   $var wire  1 Y7 when_BDMAs2m_l357 $end
   $var wire  1 #< when_BDMAs2m_l371 $end
   $var wire  1 S4 when_BDMAs2m_l401 $end
   $var wire  1 /" when_BDMAs2m_l403 $end
   $var wire  1 I7 when_BDMAs2m_l86 $end
   $scope module len_pending_fifo $end
    $var wire  1 I; clk $end
    $var wire  4 =! io_availability [3:0] $end
    $var wire  1 K< io_flush $end
    $var wire  4 5! io_occupancy [3:0] $end
    $var wire  8 [( io_pop_payload [7:0] $end
    $var wire  1 ;4 io_pop_ready $end
    $var wire  1 -! io_pop_valid $end
    $var wire  8 =) io_push_payload [7:0] $end
    $var wire  1 %! io_push_ready $end
    $var wire  1 )3 io_push_valid $end
    $var wire  1 s$ logic_empty $end
    $var wire  1 {$ logic_full $end
    $var wire  4 O6 logic_popPtr_value [3:0] $end
    $var wire  4 S$ logic_popPtr_valueNext [3:0] $end
    $var wire  1 K< logic_popPtr_willClear $end
    $var wire  1 K$ logic_popPtr_willIncrement $end
    $var wire  1 [$ logic_popPtr_willOverflow $end
    $var wire  1 W6 logic_popPtr_willOverflowIfInc $end
    $var wire  1 }! logic_popping $end
    $var wire  4 -% logic_ptrDif [3:0] $end
    $var wire  1 c$ logic_ptrMatch $end
    $var wire  4 ?6 logic_pushPtr_value [3:0] $end
    $var wire  4 ;$ logic_pushPtr_valueNext [3:0] $end
    $var wire  1 K< logic_pushPtr_willClear $end
    $var wire  1 3$ logic_pushPtr_willIncrement $end
    $var wire  1 C$ logic_pushPtr_willOverflow $end
    $var wire  1 G6 logic_pushPtr_willOverflowIfInc $end
    $var wire  1 k$ logic_pushing $end
    $var wire  8 51 logic_ram(0) [7:0] $end
    $var wire  8 61 logic_ram(1) [7:0] $end
    $var wire  8 ?1 logic_ram(10) [7:0] $end
    $var wire  8 @1 logic_ram(11) [7:0] $end
    $var wire  8 71 logic_ram(2) [7:0] $end
    $var wire  8 81 logic_ram(3) [7:0] $end
    $var wire  8 91 logic_ram(4) [7:0] $end
    $var wire  8 :1 logic_ram(5) [7:0] $end
    $var wire  8 ;1 logic_ram(6) [7:0] $end
    $var wire  8 <1 logic_ram(7) [7:0] $end
    $var wire  8 =1 logic_ram(8) [7:0] $end
    $var wire  8 >1 logic_ram(9) [7:0] $end
    $var wire  1 _6 logic_risingOccupancy $end
    $var wire  1 Q; reset $end
    $var wire  1 %% when_Stream_l933 $end
   $upscope $end
   $scope module s2m_aw_fifo $end
    $var wire  1 I; clk $end
    $var wire  4 ; io_availability [3:0] $end
    $var wire  1 K< io_flush $end
    $var wire  4 3 io_occupancy [3:0] $end
    $var wire 32 q' io_pop_payload_addr [31:0] $end
    $var wire  2 3( io_pop_payload_burst [1:0] $end
    $var wire  4 y' io_pop_payload_id [3:0] $end
    $var wire  8 #( io_pop_payload_len [7:0] $end
    $var wire  3 +( io_pop_payload_size [2:0] $end
    $var wire  1 Y; io_pop_ready $end
    $var wire  1 + io_pop_valid $end
    $var wire 32 -) io_push_payload_addr [31:0] $end
    $var wire  2 k( io_push_payload_burst [1:0] $end
    $var wire  4 s( io_push_payload_id [3:0] $end
    $var wire  8 %) io_push_payload_len [7:0] $end
    $var wire  3 C< io_push_payload_size [2:0] $end
    $var wire  1 # io_push_ready $end
    $var wire  1 _2 io_push_valid $end
    $var wire  1 o" logic_empty $end
    $var wire  1 w" logic_full $end
    $var wire  3 {4 logic_popPtr_value [2:0] $end
    $var wire  3 )' logic_popPtr_valueNext [2:0] $end
    $var wire  1 K< logic_popPtr_willClear $end
    $var wire  1 !' logic_popPtr_willIncrement $end
    $var wire  1 7& logic_popPtr_willOverflow $end
    $var wire  1 %5 logic_popPtr_willOverflowIfInc $end
    $var wire  1 1' logic_popping $end
    $var wire  3 55 logic_ptrDif [2:0] $end
    $var wire  1 g" logic_ptrMatch $end
    $var wire  3 k4 logic_pushPtr_value [2:0] $end
    $var wire  3 W" logic_pushPtr_valueNext [2:0] $end
    $var wire  1 K< logic_pushPtr_willClear $end
    $var wire  1 O" logic_pushPtr_willIncrement $end
    $var wire  1 _" logic_pushPtr_willOverflow $end
    $var wire  1 s4 logic_pushPtr_willOverflowIfInc $end
    $var wire  1 e! logic_pushing $end
    $var wire 49 e) logic_ram(0) [48:0] $end
    $var wire 49 g) logic_ram(1) [48:0] $end
    $var wire 49 i) logic_ram(2) [48:0] $end
    $var wire 49 k) logic_ram(3) [48:0] $end
    $var wire 49 m) logic_ram(4) [48:0] $end
    $var wire 49 o) logic_ram(5) [48:0] $end
    $var wire 49 q) logic_ram(6) [48:0] $end
    $var wire 49 s) logic_ram(7) [48:0] $end
    $var wire  1 -5 logic_risingOccupancy $end
    $var wire  1 Q; reset $end
    $var wire  1 ?& when_Stream_l933 $end
   $upscope $end
   $scope module s2m_trans_bytes_fifo $end
    $var wire  1 I; clk $end
    $var wire  4 [ io_availability [3:0] $end
    $var wire  1 K< io_flush $end
    $var wire  4 S io_occupancy [3:0] $end
    $var wire 30 ;( io_pop_payload [29:0] $end
    $var wire  1 i; io_pop_ready $end
    $var wire  1 K io_pop_valid $end
    $var wire 30 {( io_push_payload [29:0] $end
    $var wire  1 C io_push_ready $end
    $var wire  1 _2 io_push_valid $end
    $var wire  1 I# logic_empty $end
    $var wire  1 Q# logic_full $end
    $var wire  3 M5 logic_popPtr_value [2:0] $end
    $var wire  3 A' logic_popPtr_valueNext [2:0] $end
    $var wire  1 K< logic_popPtr_willClear $end
    $var wire  1 9' logic_popPtr_willIncrement $end
    $var wire  1 G& logic_popPtr_willOverflow $end
    $var wire  1 U5 logic_popPtr_willOverflowIfInc $end
    $var wire  1 I' logic_popping $end
    $var wire  3 e5 logic_ptrDif [2:0] $end
    $var wire  1 9# logic_ptrMatch $end
    $var wire  3 =5 logic_pushPtr_value [2:0] $end
    $var wire  3 )# logic_pushPtr_valueNext [2:0] $end
    $var wire  1 K< logic_pushPtr_willClear $end
    $var wire  1 !# logic_pushPtr_willIncrement $end
    $var wire  1 1# logic_pushPtr_willOverflow $end
    $var wire  1 E5 logic_pushPtr_willOverflowIfInc $end
    $var wire  1 A# logic_pushing $end
    $var wire 30 )+ logic_ram(0) [29:0] $end
    $var wire 30 *+ logic_ram(1) [29:0] $end
    $var wire 30 ++ logic_ram(2) [29:0] $end
    $var wire 30 ,+ logic_ram(3) [29:0] $end
    $var wire 30 -+ logic_ram(4) [29:0] $end
    $var wire 30 .+ logic_ram(5) [29:0] $end
    $var wire 30 /+ logic_ram(6) [29:0] $end
    $var wire 30 0+ logic_ram(7) [29:0] $end
    $var wire  1 ]5 logic_risingOccupancy $end
    $var wire  1 Q; reset $end
    $var wire  1 O& when_Stream_l933 $end
   $upscope $end
   $scope module s2m_w_fifo $end
    $var wire  1 I; clk $end
    $var wire  6 { io_availability [5:0] $end
    $var wire  1 K< io_flush $end
    $var wire  6 s io_occupancy [5:0] $end
    $var wire 32 C( io_pop_payload_data [31:0] $end
    $var wire  1 S( io_pop_payload_last $end
    $var wire  4 K( io_pop_payload_strb [3:0] $end
    $var wire  1 E9 io_pop_ready $end
    $var wire  1 k io_pop_valid $end
    $var wire 32 ]) io_push_payload_data [31:0] $end
    $var wire  1 y3 io_push_payload_last $end
    $var wire  4 #4 io_push_payload_strb [3:0] $end
    $var wire  1 c io_push_ready $end
    $var wire  1 +4 io_push_valid $end
    $var wire  1 #$ logic_empty $end
    $var wire  1 +$ logic_full $end
    $var wire  5 }5 logic_popPtr_value [4:0] $end
    $var wire  5 Y' logic_popPtr_valueNext [4:0] $end
    $var wire  1 K< logic_popPtr_willClear $end
    $var wire  1 Q' logic_popPtr_willIncrement $end
    $var wire  1 W& logic_popPtr_willOverflow $end
    $var wire  1 '6 logic_popPtr_willOverflowIfInc $end
    $var wire  1 a' logic_popping $end
    $var wire  5 76 logic_ptrDif [4:0] $end
    $var wire  1 q# logic_ptrMatch $end
    $var wire  5 m5 logic_pushPtr_value [4:0] $end
    $var wire  5 a# logic_pushPtr_valueNext [4:0] $end
    $var wire  1 K< logic_pushPtr_willClear $end
    $var wire  1 Y# logic_pushPtr_willIncrement $end
    $var wire  1 i# logic_pushPtr_willOverflow $end
    $var wire  1 u5 logic_pushPtr_willOverflowIfInc $end
    $var wire  1 y# logic_pushing $end
    $var wire 37 i+ logic_ram(0) [36:0] $end
    $var wire 37 k+ logic_ram(1) [36:0] $end
    $var wire 37 }+ logic_ram(10) [36:0] $end
    $var wire 37 !, logic_ram(11) [36:0] $end
    $var wire 37 #, logic_ram(12) [36:0] $end
    $var wire 37 %, logic_ram(13) [36:0] $end
    $var wire 37 ', logic_ram(14) [36:0] $end
    $var wire 37 ), logic_ram(15) [36:0] $end
    $var wire 37 +, logic_ram(16) [36:0] $end
    $var wire 37 -, logic_ram(17) [36:0] $end
    $var wire 37 /, logic_ram(18) [36:0] $end
    $var wire 37 1, logic_ram(19) [36:0] $end
    $var wire 37 m+ logic_ram(2) [36:0] $end
    $var wire 37 3, logic_ram(20) [36:0] $end
    $var wire 37 5, logic_ram(21) [36:0] $end
    $var wire 37 7, logic_ram(22) [36:0] $end
    $var wire 37 9, logic_ram(23) [36:0] $end
    $var wire 37 ;, logic_ram(24) [36:0] $end
    $var wire 37 =, logic_ram(25) [36:0] $end
    $var wire 37 ?, logic_ram(26) [36:0] $end
    $var wire 37 A, logic_ram(27) [36:0] $end
    $var wire 37 C, logic_ram(28) [36:0] $end
    $var wire 37 E, logic_ram(29) [36:0] $end
    $var wire 37 o+ logic_ram(3) [36:0] $end
    $var wire 37 G, logic_ram(30) [36:0] $end
    $var wire 37 I, logic_ram(31) [36:0] $end
    $var wire 37 q+ logic_ram(4) [36:0] $end
    $var wire 37 s+ logic_ram(5) [36:0] $end
    $var wire 37 u+ logic_ram(6) [36:0] $end
    $var wire 37 w+ logic_ram(7) [36:0] $end
    $var wire 37 y+ logic_ram(8) [36:0] $end
    $var wire 37 {+ logic_ram(9) [36:0] $end
    $var wire  1 /6 logic_risingOccupancy $end
    $var wire  1 Q; reset $end
    $var wire  1 _& when_Stream_l933 $end
   $upscope $end
   $scope module trans_pending_fifo $end
    $var wire  1 I; clk $end
    $var wire  4 ]! io_availability [3:0] $end
    $var wire  1 K< io_flush $end
    $var wire  4 U! io_occupancy [3:0] $end
    $var wire 30 97 io_pop_payload [29:0] $end
    $var wire  1 ;4 io_pop_ready $end
    $var wire  1 M! io_pop_valid $end
    $var wire 30 E) io_push_payload [29:0] $end
    $var wire  1 E! io_push_ready $end
    $var wire  1 )3 io_push_valid $end
    $var wire  1 u% logic_empty $end
    $var wire  1 }% logic_full $end
    $var wire  4 w6 logic_popPtr_value [3:0] $end
    $var wire  4 i' logic_popPtr_valueNext [3:0] $end
    $var wire  1 K< logic_popPtr_willClear $end
    $var wire  1 M% logic_popPtr_willIncrement $end
    $var wire  1 U% logic_popPtr_willOverflow $end
    $var wire  1 !7 logic_popPtr_willOverflowIfInc $end
    $var wire  1 m% logic_popping $end
    $var wire  4 17 logic_ptrDif [3:0] $end
    $var wire  1 ]% logic_ptrMatch $end
    $var wire  4 g6 logic_pushPtr_value [3:0] $end
    $var wire  4 =% logic_pushPtr_valueNext [3:0] $end
    $var wire  1 K< logic_pushPtr_willClear $end
    $var wire  1 5% logic_pushPtr_willIncrement $end
    $var wire  1 E% logic_pushPtr_willOverflow $end
    $var wire  1 o6 logic_pushPtr_willOverflowIfInc $end
    $var wire  1 e% logic_pushing $end
    $var wire 30 a7 logic_ram(0) [29:0] $end
    $var wire 30 b7 logic_ram(1) [29:0] $end
    $var wire 30 k7 logic_ram(10) [29:0] $end
    $var wire 30 l7 logic_ram(11) [29:0] $end
    $var wire 30 c7 logic_ram(2) [29:0] $end
    $var wire 30 d7 logic_ram(3) [29:0] $end
    $var wire 30 e7 logic_ram(4) [29:0] $end
    $var wire 30 f7 logic_ram(5) [29:0] $end
    $var wire 30 g7 logic_ram(6) [29:0] $end
    $var wire 30 h7 logic_ram(7) [29:0] $end
    $var wire 30 i7 logic_ram(8) [29:0] $end
    $var wire 30 j7 logic_ram(9) [29:0] $end
    $var wire  1 )7 logic_risingOccupancy $end
    $var wire  1 Q; reset $end
    $var wire  1 '& when_Stream_l933 $end
   $upscope $end
  $upscope $end
 $upscope $end
$enddefinitions $end


#0
1#
0+
b0000 3
b1000 ;
1C
0K
b0000 S
b1000 [
1c
0k
b000000 s
b100000 {
1%!
0-!
b0000 5!
b1100 =!
1E!
0M!
b0000 U!
b1100 ]!
0e!
0m!
0u!
0}!
0'"
0/"
b010010010100010001001100010001010010000000100000001000000010000000100000 7"
0O"
b000 W"
0_"
1g"
1o"
0w"
0!#
b000 )#
01#
19#
0A#
1I#
0Q#
0Y#
b00000 a#
0i#
1q#
0y#
1#$
0+$
03$
b0000 ;$
0C$
0K$
b0000 S$
0[$
1c$
0k$
1s$
0{$
0%%
b0000 -%
05%
b0000 =%
0E%
0M%
0U%
1]%
0e%
0m%
1u%
0}%
0'&
0/&
07&
0?&
0G&
0O&
0W&
0_&
0g&
0o&
0w&
0!'
b000 )'
01'
09'
b000 A'
0I'
0Q'
b00000 Y'
0a'
b0000 i'
b01010001100110110000110010010110 q'
b0000 y'
b10001011 #(
b000 +(
b10 3(
b101000001100110110010101100111 ;(
b10100101001000010100010110010010 C(
b0011 K(
0S(
b10111100 [(
b10010011000100011110001010001000 c(
b01 k(
b1110 s(
b100000000110100011010010111110 {(
b10000100 %)
b10010011000100011110001010001000 -)
05)
b10001000 =)
b110000100000101110011001110011 E)
b01010000011001100110100101011001 M)
b00001101111110011110111101111000 U)
b10111000000110000111010011100001 ])
b1011100000100000111010101000001000111001001011100 e)
b1111110110001110100100000010110110100000100101000 g)
b0110010000011110010011011101000000100000101100001 i)
b1010000001010111010010010000011001100010001111100 k)
b1111101111101000110011011111100011110010101000100 m)
b1101101101010100100001101001101001001101100001011 o)
b1101111010101000111101010101111110100100110000001 q)
b0110110101101111011010011010100011010001010111110 s)
b000100000000100100000010110111 )+
b101011100000111110000001100000 *+
b000000001101111101011000111000 ++
b110000100110101110111011100001 ,+
b111011001010100101100001111100 -+
b101111111000111011001010100000 .+
b111000011100101000010000010110 /+
b010010110011100110011111010000 0+
b0001011110010110100111111010001000010 i+
b1011011010100010001011010101010110000 k+
b1011010011010101110010100111110000100 m+
b1011010001101110011010001100011110000 o+
b1011011100111101010101000010001111010 q+
b0110100101000101101110111010001000110 s+
b1000111011010110100111011001111011000 u+
b0001110110100011111000110010110101101 w+
b1110100010010110001111000111000010101 y+
b0011010001110000111110110100000101100 {+
b1110000011111001000100111101000111101 }+
b0101101000000101000001110100001111011 !,
b1001100100000001010011101010111001110 #,
b0010000100000101101111101111100101100 %,
b0111001010011001000011110100001101111 ',
b1001000001000101100010000011011111100 ),
b1011100110010101101010111010110111111 +,
b0000011111011001011101001010000000011 -,
b0011101011111011110110001110101101110 /,
b0111001110010100111010110011111000001 1,
b1111001100010101000000001011001011101 3,
b1110100111110010001101000010111110110 5,
b1001101100011100100000100101001111110 7,
b0110101001110010011001110101001011010 9,
b0001100000011001010111100011010110100 ;,
b1011101101111001000011000000111111011 =,
b0111101110100110000011111101101110111 ?,
b1110001100011001110100000011111011111 A,
b1010101010100100110100001010000001000 C,
b0001111110100110001101111011111011111 E,
b0110101110101110110011111101101110000 G,
b0010110101000001101011110001001000111 I,
b00011001 51
b01011001 61
b10101100 71
b01100111 81
b10010101 91
b01011101 :1
b11110010 ;1
b00000110 <1
b01010110 =1
b01110001 >1
b00101111 ?1
b10100011 @1
072
1?2
b00 G2
b00 O2
0W2
0_2
0g2
0o2
b00 w2
b00 !3
0)3
013
b0000 93
b0000 A3
b000000000000000000000000000000 I3
0Q3
0Y3
0a3
0i3
0q3
0y3
b0000 #4
0+4
b0000 34
0;4
1C4
1K4
1S4
b0100100101000100010011000100010100100000 [4
b000 k4
0s4
b000 {4
0%5
0-5
b000 55
b000 =5
0E5
b000 M5
0U5
0]5
b000 e5
b00000 m5
0u5
b00000 }5
0'6
0/6
b00000 76
b0000 ?6
0G6
b0000 O6
0W6
0_6
b0000 g6
0o6
b0000 w6
0!7
0)7
b0000 17
b100011010011000000101101011011 97
b010110101101111100110110000101 A7
0I7
b01110101 Q7
0Y7
b000101000010111010011100110001 a7
b100000010010100100101010011000 b7
b001110111000111101011010001100 c7
b010000010000011011111110110100 d7
b101011010010100101101110001101 e7
b101100101100101001101001111100 f7
b101010011010010101001110101110 g7
b101010101010010111011000010010 h7
b100100110100001101110010100001 i7
b010010111101100100001001010101 j7
b001000100111110100010110011010 k7
b110111000011111001011111000010 l7
0c8
1k8
b01010001100110110000110010010110 s8
b0000 {8
b10001011 %9
b000 -9
b10 59
0=9
1E9
b10100101001000010100010110010010 M9
b0011 U9
0]9
1e9
1m9
b0011 u9
b00 }9
0':
0/:
b11111110111111010100100010110000 7:
b1010 ?:
b1001 G:
b0110 O:
0W:
b00 _:
0g:
0o:
b11000011000101001100101100001110 w:
b100000100111101001101010101001 !;
b00 );
b0111 1;
09;
0A;
0I;
1Q;
1Y;
0a;
0i;
0q;
0y;
0#<
b0100100101000100010011000100010100100000 +<
b1111 ;<
b010 C<
0K<
#80
0Q;
#85
b11010101000001000111001001011100 q'
b0001 y'
b00000100 #(
b111 +(
b000100000000100100000010110111 ;(
b11110010110100111111010001000010 C(
b0010 K(
b00011001 [(
1W2
b000101000010111010011100110001 97
b11010101000001000111001001011100 s8
b0001 {8
b00000100 %9
b111 -9
b11110010110100111111010001000010 M9
b0010 U9
1o:
1I;
#87
0I;
#89
1I;
#91
0I;
#93
1I;
#95
0I;
#97
1I;
#99
0I;
#101
1I;
#103
0I;
#105
1I;
#107
0I;
#109
1I;
#111
0I;
#113
1I;
#115
0I;
#117
1I;
#119
0I;
#121
1g&
1g:
b00010000000000010110001100000101 w:
b000000000000000000000010000000 !;
b01 );
b0011 1;
1I;
#123
0I;
#125
b010010010100111001000011010100100101111101010010010001010101000100100000 7"
0g&
b00010000000000010110001100000101 c(
b0011 s(
b00010000000000010110001100000100 -)
0?2
b10 G2
0W2
b01 w2
b01 !3
0S4
b000000000000000000000010000000 A7
1':
b00000001000000010000000100000001 7:
b1111 G:
b1111 O:
0g:
0o:
1I;
#127
0I;
#129
b000000000000000000000000111111 {(
b00101111 %)
1g2
b00000010000000100000001000000010 7:
1I;
#131
0I;
#133
1e!
1m!
1O"
b001 W"
1!#
b001 )#
1A#
1?&
1O&
b00001111 %)
1_2
b00000011000000110000001100000011 7:
1I;
#135
0I;
#137
b0001 3
b0111 ;
b0001 S
b0111 [
0e!
0m!
0O"
0g"
0o"
0!#
09#
0A#
0I#
0?&
0O&
b00010000000000010110001101000100 c(
b00010000000000010110001101000100 -)
b0101000001111001100010000000000010110001100000100 e)
b000000000000000000000000111111 )+
0_2
0g2
b001 k4
1-5
b001 55
b001 =5
1]5
b001 e5
b000000000000000000000001000001 A7
b00000100000001000000010000000100 7:
1I;
#139
0I;
#141
1+
1K
1?&
1O&
1o&
1!'
b001 )'
11'
19'
b001 A'
1I'
b00010000000000010110001100000100 q'
b0011 y'
b00001111 #(
b010 +(
b01 3(
b000000000000000000000000111111 ;(
b000000000000000000000001000000 {(
1g2
1c8
b00010000000000010110001100000100 s8
b0011 {8
b00001111 %9
b010 -9
b01 59
b00000101000001010000010100000101 7:
1I;
1i;
#143
0I;
#145
0+
b0000 3
b1000 ;
0K
b0000 S
b1000 [
1e!
1m!
1O"
b010 W"
1g"
1o"
1!#
b010 )#
19#
1A#
1I#
13$
b0001 ;$
1k$
1%%
15%
b0001 =%
1e%
1'&
0o&
0!'
01'
09'
0I'
b00100000010110110100000100101000 q'
b1101 y'
b10110001 #(
b111 +(
b11 3(
b101011100000111110000001100000 ;(
b00001111 =)
b000000000000000000000000111111 E)
b01 O2
1_2
1)3
b0001 34
b0101001001000101010100010010000000100000 [4
b001 {4
0-5
b000 55
b001 M5
0]5
b000 e5
0c8
b00100000010110110100000100101000 s8
b1101 {8
b10110001 %9
b111 -9
b11 59
b00000110000001100000011000000110 7:
b01 _:
1I;
0i;
b0101001001000101010100010010000000100000 +<
#147
0I;
