simWorkspace/BDMAs2m/test.vcd
$version Generated by VerilatedVcd $end
$date Tue Feb 15 02:05:26 2022
 $end
$timescale   1ns $end

 $scope module TOP $end
  $var wire  1 #z clk $end
  $var wire 32 #] dma_aw_payload_addr [31:0] $end
  $var wire  2 #a dma_aw_payload_burst [1:0] $end
  $var wire  4 #^ dma_aw_payload_id [3:0] $end
  $var wire  8 #_ dma_aw_payload_len [7:0] $end
  $var wire  3 #` dma_aw_payload_size [2:0] $end
  $var wire  1 #\ dma_aw_ready $end
  $var wire  1 #[ dma_aw_valid $end
  $var wire  4 #i dma_b_payload_id [3:0] $end
  $var wire  2 #j dma_b_payload_resp [1:0] $end
  $var wire  1 #h dma_b_ready $end
  $var wire  1 #g dma_b_valid $end
  $var wire 32 #d dma_w_payload_data [31:0] $end
  $var wire  1 #f dma_w_payload_last $end
  $var wire  4 #e dma_w_payload_strb [3:0] $end
  $var wire  1 #c dma_w_ready $end
  $var wire  1 #b dma_w_valid $end
  $var wire  1 #{ reset $end
  $var wire  2 #w s2m_cch_payload_desc_burst [1:0] $end
  $var wire  4 #x s2m_cch_payload_desc_id [3:0] $end
  $var wire 32 #u s2m_cch_payload_desc_start_addr [31:0] $end
  $var wire 30 #v s2m_cch_payload_desc_total_bytes [29:0] $end
  $var wire  1 #t s2m_cch_ready $end
  $var wire  1 #s s2m_cch_valid $end
  $var wire 32 #m s2m_data_stream_payload_data [31:0] $end
  $var wire  4 #n s2m_data_stream_payload_id [3:0] $end
  $var wire  4 #p s2m_data_stream_payload_keep_ [3:0] $end
  $var wire  1 #q s2m_data_stream_payload_last $end
  $var wire  4 #o s2m_data_stream_payload_strb [3:0] $end
  $var wire  1 #l s2m_data_stream_ready $end
  $var wire  1 #k s2m_data_stream_valid $end
  $var wire  1 #y s2m_intr $end
  $var wire  1 #r s2m_reset $end
  $scope module BDMAs2m $end
   $var wire 32 } aligned_address [31:0] $end
   $var wire  1 #9 b_ready $end
   $var wire  2 "& bytes_shift [1:0] $end
   $var wire 32 x cch_address [31:0] $end
   $var wire  2 y cch_burst_type [1:0] $end
   $var wire  4 z cch_id [3:0] $end
   $var wire  1 #2 cch_ready $end
   $var wire 30 #W cch_total_bytes [29:0] $end
   $var wire  1 #z clk $end
   $var wire  1 #5 cycle_finished $end
   $var wire  1 $! dma_aw_fire $end
   $var wire  1 $! dma_aw_fire_1 $end
   $var wire  1 D dma_aw_fire_2 $end
   $var wire 32 #] dma_aw_payload_addr [31:0] $end
   $var wire  2 #a dma_aw_payload_burst [1:0] $end
   $var wire  4 #^ dma_aw_payload_id [3:0] $end
   $var wire  8 #_ dma_aw_payload_len [7:0] $end
   $var wire  3 #` dma_aw_payload_size [2:0] $end
   $var wire  1 #\ dma_aw_ready $end
   $var wire  1 #[ dma_aw_valid $end
   $var wire  1 $& dma_b_fire $end
   $var wire  4 #i dma_b_payload_id [3:0] $end
   $var wire  2 #j dma_b_payload_resp [1:0] $end
   $var wire  1 #h dma_b_ready $end
   $var wire  1 #g dma_b_valid $end
   $var wire  1 $$ dma_w_fire $end
   $var wire 32 #d dma_w_payload_data [31:0] $end
   $var wire  1 #f dma_w_payload_last $end
   $var wire  4 #e dma_w_payload_strb [3:0] $end
   $var wire  1 #c dma_w_ready $end
   $var wire  1 #b dma_w_valid $end
   $var wire 32 "! fifo_push_w_data [31:0] $end
   $var wire  1 #6 fifo_push_w_last $end
   $var wire  4 "" fifo_push_w_strb [3:0] $end
   $var wire  1 #7 fifo_push_w_valid $end
   $var wire  1 #8 fifo_push_w_valve $end
   $var wire  4 & low_addr_fifo_io_availability [3:0] $end
   $var wire  4 % low_addr_fifo_io_occupancy [3:0] $end
   $var wire  2 s low_addr_fifo_io_pop_payload [1:0] $end
   $var wire  1 : low_addr_fifo_io_pop_valid $end
   $var wire  2 l low_addr_fifo_io_push_payload [1:0] $end
   $var wire  1 X low_addr_fifo_io_push_ready $end
   $var wire  4 ( low_bytes_fifo_io_availability [3:0] $end
   $var wire  4 ' low_bytes_fifo_io_occupancy [3:0] $end
   $var wire  2 t low_bytes_fifo_io_pop_payload [1:0] $end
   $var wire  1 ; low_bytes_fifo_io_pop_valid $end
   $var wire  2 m low_bytes_fifo_io_push_payload [1:0] $end
   $var wire  1 Y low_bytes_fifo_io_push_ready $end
   $var wire  1 #{ reset $end
   $var wire  4 $ s2m_aw_fifo_io_availability [3:0] $end
   $var wire  4 # s2m_aw_fifo_io_occupancy [3:0] $end
   $var wire 32 n s2m_aw_fifo_io_pop_payload_addr [31:0] $end
   $var wire  2 r s2m_aw_fifo_io_pop_payload_burst [1:0] $end
   $var wire  4 o s2m_aw_fifo_io_pop_payload_id [3:0] $end
   $var wire  8 p s2m_aw_fifo_io_pop_payload_len [7:0] $end
   $var wire  3 q s2m_aw_fifo_io_pop_payload_size [2:0] $end
   $var wire  1 #| s2m_aw_fifo_io_pop_ready $end
   $var wire  1 W s2m_aw_fifo_io_pop_valid $end
   $var wire  1 \ s2m_aw_fifo_io_push_fire $end
   $var wire  1 < s2m_aw_fifo_io_push_fire_1 $end
   $var wire  1 \ s2m_aw_fifo_io_push_fire_2 $end
   $var wire  1 < s2m_aw_fifo_io_push_fire_3 $end
   $var wire  1 V s2m_aw_fifo_io_push_ready $end
   $var wire  1 #4 s2m_aw_halt_exec $end
   $var wire  8 | s2m_aw_len [7:0] $end
   $var wire  1 #3 s2m_aw_valid $end
   $var wire  1 #0 s2m_aw_valve $end
   $var wire  8 #Y s2m_axis_len [7:0] $end
   $var wire  1 C s2m_cch_fire $end
   $var wire  2 #w s2m_cch_payload_desc_burst [1:0] $end
   $var wire  4 #x s2m_cch_payload_desc_id [3:0] $end
   $var wire 32 #u s2m_cch_payload_desc_start_addr [31:0] $end
   $var wire 30 #v s2m_cch_payload_desc_total_bytes [29:0] $end
   $var wire  1 #t s2m_cch_ready $end
   $var wire  2 #- s2m_cch_state [1:0] $end
   $var wire 72 + s2m_cch_state_string [71:0] $end
   $var wire  1 #s s2m_cch_valid $end
   $var wire  2 #. s2m_convert_state [1:0] $end
   $var wire 56 #; s2m_convert_state_string [55:0] $end
   $var wire  6 * s2m_data_fifo_io_availability [5:0] $end
   $var wire  6 ) s2m_data_fifo_io_occupancy [5:0] $end
   $var wire 32 u s2m_data_fifo_io_pop_payload_data [31:0] $end
   $var wire  1 w s2m_data_fifo_io_pop_payload_last $end
   $var wire  4 v s2m_data_fifo_io_pop_payload_strb [3:0] $end
   $var wire  1 #} s2m_data_fifo_io_pop_ready $end
   $var wire  1 [ s2m_data_fifo_io_pop_valid $end
   $var wire  4 #) s2m_data_fifo_io_push_payload_strb [3:0] $end
   $var wire  1 Z s2m_data_fifo_io_push_ready $end
   $var wire  1 #, s2m_data_fifo_io_push_valid $end
   $var wire  1 E s2m_data_stream_fire $end
   $var wire  1 $" s2m_data_stream_fire_1 $end
   $var wire 32 #m s2m_data_stream_payload_data [31:0] $end
   $var wire  4 #n s2m_data_stream_payload_id [3:0] $end
   $var wire  4 #p s2m_data_stream_payload_keep_ [3:0] $end
   $var wire  1 #q s2m_data_stream_payload_last $end
   $var wire  4 #o s2m_data_stream_payload_strb [3:0] $end
   $var wire  1 #l s2m_data_stream_ready $end
   $var wire  1 #k s2m_data_stream_valid $end
   $var wire  1 #y s2m_intr $end
   $var wire  1 #r s2m_reset $end
   $var wire  2 #/ s2m_w_state [1:0] $end
   $var wire 40 #= s2m_w_state_string [39:0] $end
   $var wire  1 #1 s2m_w_valve $end
   $var wire  4 $' strb_full [3:0] $end
   $var wire  4 "% strb_mask [3:0] $end
   $var wire 30 { trans_bytes_cnt [29:0] $end
   $var wire 32 "# w_residual_data [31:0] $end
   $var wire  4 "$ w_residual_strb [3:0] $end
   $var wire  1 #* when_BDMAs2m_l112 $end
   $var wire  1 #X when_BDMAs2m_l126 $end
   $var wire  1 #* when_BDMAs2m_l143 $end
   $var wire  1 #+ when_BDMAs2m_l147 $end
   $var wire  1 ~ when_BDMAs2m_l159 $end
   $var wire  1 #~ when_BDMAs2m_l171 $end
   $var wire  1 #Z when_BDMAs2m_l246 $end
   $var wire  1 = when_BDMAs2m_l249 $end
   $var wire  1 $# when_BDMAs2m_l274 $end
   $var wire  1 $% when_BDMAs2m_l304 $end
   $var wire  1 #: when_BDMAs2m_l323 $end
   $var wire  1 > when_BDMAs2m_l325 $end
   $var wire  1 #X when_BDMAs2m_l96 $end
   $scope module low_addr_fifo $end
    $var wire  1 #z clk $end
    $var wire  4 & io_availability [3:0] $end
    $var wire  1 $) io_flush $end
    $var wire  4 % io_occupancy [3:0] $end
    $var wire  2 s io_pop_payload [1:0] $end
    $var wire  1 $! io_pop_ready $end
    $var wire  1 : io_pop_valid $end
    $var wire  2 l io_push_payload [1:0] $end
    $var wire  1 X io_push_ready $end
    $var wire  1 #3 io_push_valid $end
    $var wire  1 1 logic_empty $end
    $var wire  1 c logic_full $end
    $var wire  3 #G logic_popPtr_value [2:0] $end
    $var wire  3 J logic_popPtr_valueNext [2:0] $end
    $var wire  1 $) logic_popPtr_willClear $end
    $var wire  1 I logic_popPtr_willIncrement $end
    $var wire  1 7 logic_popPtr_willOverflow $end
    $var wire  1 #H logic_popPtr_willOverflowIfInc $end
    $var wire  1 K logic_popping $end
    $var wire  3 #J logic_ptrDif [2:0] $end
    $var wire  1 0 logic_ptrMatch $end
    $var wire  3 #E logic_pushPtr_value [2:0] $end
    $var wire  3 a logic_pushPtr_valueNext [2:0] $end
    $var wire  1 $) logic_pushPtr_willClear $end
    $var wire  1 ` logic_pushPtr_willIncrement $end
    $var wire  1 @ logic_pushPtr_willOverflow $end
    $var wire  1 #F logic_pushPtr_willOverflowIfInc $end
    $var wire  1 b logic_pushing $end
    $var wire  2 "7 logic_ram(0) [1:0] $end
    $var wire  2 "8 logic_ram(1) [1:0] $end
    $var wire  2 "9 logic_ram(2) [1:0] $end
    $var wire  2 ": logic_ram(3) [1:0] $end
    $var wire  2 "; logic_ram(4) [1:0] $end
    $var wire  2 "< logic_ram(5) [1:0] $end
    $var wire  2 "= logic_ram(6) [1:0] $end
    $var wire  2 "> logic_ram(7) [1:0] $end
    $var wire  1 #I logic_risingOccupancy $end
    $var wire  1 #{ reset $end
    $var wire  1 S when_Stream_l933 $end
   $upscope $end
   $scope module low_bytes_fifo $end
    $var wire  1 #z clk $end
    $var wire  4 ( io_availability [3:0] $end
    $var wire  1 $) io_flush $end
    $var wire  4 ' io_occupancy [3:0] $end
    $var wire  2 t io_pop_payload [1:0] $end
    $var wire  1 $! io_pop_ready $end
    $var wire  1 ; io_pop_valid $end
    $var wire  2 m io_push_payload [1:0] $end
    $var wire  1 Y io_push_ready $end
    $var wire  1 #3 io_push_valid $end
    $var wire  1 3 logic_empty $end
    $var wire  1 g logic_full $end
    $var wire  3 #M logic_popPtr_value [2:0] $end
    $var wire  3 M logic_popPtr_valueNext [2:0] $end
    $var wire  1 $) logic_popPtr_willClear $end
    $var wire  1 L logic_popPtr_willIncrement $end
    $var wire  1 8 logic_popPtr_willOverflow $end
    $var wire  1 #N logic_popPtr_willOverflowIfInc $end
    $var wire  1 N logic_popping $end
    $var wire  3 #P logic_ptrDif [2:0] $end
    $var wire  1 2 logic_ptrMatch $end
    $var wire  3 #K logic_pushPtr_value [2:0] $end
    $var wire  3 e logic_pushPtr_valueNext [2:0] $end
    $var wire  1 $) logic_pushPtr_willClear $end
    $var wire  1 d logic_pushPtr_willIncrement $end
    $var wire  1 A logic_pushPtr_willOverflow $end
    $var wire  1 #L logic_pushPtr_willOverflowIfInc $end
    $var wire  1 f logic_pushing $end
    $var wire  2 "? logic_ram(0) [1:0] $end
    $var wire  2 "@ logic_ram(1) [1:0] $end
    $var wire  2 "A logic_ram(2) [1:0] $end
    $var wire  2 "B logic_ram(3) [1:0] $end
    $var wire  2 "C logic_ram(4) [1:0] $end
    $var wire  2 "D logic_ram(5) [1:0] $end
    $var wire  2 "E logic_ram(6) [1:0] $end
    $var wire  2 "F logic_ram(7) [1:0] $end
    $var wire  1 #O logic_risingOccupancy $end
    $var wire  1 #{ reset $end
    $var wire  1 T when_Stream_l933 $end
   $upscope $end
   $scope module s2m_aw_fifo $end
    $var wire  1 #z clk $end
    $var wire  4 $ io_availability [3:0] $end
    $var wire  1 $) io_flush $end
    $var wire  4 # io_occupancy [3:0] $end
    $var wire 32 n io_pop_payload_addr [31:0] $end
    $var wire  2 r io_pop_payload_burst [1:0] $end
    $var wire  4 o io_pop_payload_id [3:0] $end
    $var wire  8 p io_pop_payload_len [7:0] $end
    $var wire  3 q io_pop_payload_size [2:0] $end
    $var wire  1 #| io_pop_ready $end
    $var wire  1 W io_pop_valid $end
    $var wire 32 } io_push_payload_addr [31:0] $end
    $var wire  2 y io_push_payload_burst [1:0] $end
    $var wire  4 z io_push_payload_id [3:0] $end
    $var wire  8 | io_push_payload_len [7:0] $end
    $var wire  3 $( io_push_payload_size [2:0] $end
    $var wire  1 V io_push_ready $end
    $var wire  1 #3 io_push_valid $end
    $var wire  1 / logic_empty $end
    $var wire  1 _ logic_full $end
    $var wire  3 #A logic_popPtr_value [2:0] $end
    $var wire  3 G logic_popPtr_valueNext [2:0] $end
    $var wire  1 $) logic_popPtr_willClear $end
    $var wire  1 F logic_popPtr_willIncrement $end
    $var wire  1 6 logic_popPtr_willOverflow $end
    $var wire  1 #B logic_popPtr_willOverflowIfInc $end
    $var wire  1 H logic_popping $end
    $var wire  3 #D logic_ptrDif [2:0] $end
    $var wire  1 . logic_ptrMatch $end
    $var wire  3 #? logic_pushPtr_value [2:0] $end
    $var wire  3 ^ logic_pushPtr_valueNext [2:0] $end
    $var wire  1 $) logic_pushPtr_willClear $end
    $var wire  1 ] logic_pushPtr_willIncrement $end
    $var wire  1 ? logic_pushPtr_willOverflow $end
    $var wire  1 #@ logic_pushPtr_willOverflowIfInc $end
    $var wire  1 \ logic_pushing $end
    $var wire 49 "' logic_ram(0) [48:0] $end
    $var wire 49 ") logic_ram(1) [48:0] $end
    $var wire 49 "+ logic_ram(2) [48:0] $end
    $var wire 49 "- logic_ram(3) [48:0] $end
    $var wire 49 "/ logic_ram(4) [48:0] $end
    $var wire 49 "1 logic_ram(5) [48:0] $end
    $var wire 49 "3 logic_ram(6) [48:0] $end
    $var wire 49 "5 logic_ram(7) [48:0] $end
    $var wire  1 #C logic_risingOccupancy $end
    $var wire  1 #{ reset $end
    $var wire  1 R when_Stream_l933 $end
   $upscope $end
   $scope module s2m_data_fifo $end
    $var wire  1 #z clk $end
    $var wire  6 * io_availability [5:0] $end
    $var wire  1 $) io_flush $end
    $var wire  6 ) io_occupancy [5:0] $end
    $var wire 32 u io_pop_payload_data [31:0] $end
    $var wire  1 w io_pop_payload_last $end
    $var wire  4 v io_pop_payload_strb [3:0] $end
    $var wire  1 #} io_pop_ready $end
    $var wire  1 [ io_pop_valid $end
    $var wire 32 "! io_push_payload_data [31:0] $end
    $var wire  1 #6 io_push_payload_last $end
    $var wire  4 #) io_push_payload_strb [3:0] $end
    $var wire  1 Z io_push_ready $end
    $var wire  1 #, io_push_valid $end
    $var wire  1 5 logic_empty $end
    $var wire  1 k logic_full $end
    $var wire  5 #S logic_popPtr_value [4:0] $end
    $var wire  5 P logic_popPtr_valueNext [4:0] $end
    $var wire  1 $) logic_popPtr_willClear $end
    $var wire  1 O logic_popPtr_willIncrement $end
    $var wire  1 9 logic_popPtr_willOverflow $end
    $var wire  1 #T logic_popPtr_willOverflowIfInc $end
    $var wire  1 Q logic_popping $end
    $var wire  5 #V logic_ptrDif [4:0] $end
    $var wire  1 4 logic_ptrMatch $end
    $var wire  5 #Q logic_pushPtr_value [4:0] $end
    $var wire  5 i logic_pushPtr_valueNext [4:0] $end
    $var wire  1 $) logic_pushPtr_willClear $end
    $var wire  1 h logic_pushPtr_willIncrement $end
    $var wire  1 B logic_pushPtr_willOverflow $end
    $var wire  1 #R logic_pushPtr_willOverflowIfInc $end
    $var wire  1 j logic_pushing $end
    $var wire 37 "G logic_ram(0) [36:0] $end
    $var wire 37 "I logic_ram(1) [36:0] $end
    $var wire 37 "[ logic_ram(10) [36:0] $end
    $var wire 37 "] logic_ram(11) [36:0] $end
    $var wire 37 "_ logic_ram(12) [36:0] $end
    $var wire 37 "a logic_ram(13) [36:0] $end
    $var wire 37 "c logic_ram(14) [36:0] $end
    $var wire 37 "e logic_ram(15) [36:0] $end
    $var wire 37 "g logic_ram(16) [36:0] $end
    $var wire 37 "i logic_ram(17) [36:0] $end
    $var wire 37 "k logic_ram(18) [36:0] $end
    $var wire 37 "m logic_ram(19) [36:0] $end
    $var wire 37 "K logic_ram(2) [36:0] $end
    $var wire 37 "o logic_ram(20) [36:0] $end
    $var wire 37 "q logic_ram(21) [36:0] $end
    $var wire 37 "s logic_ram(22) [36:0] $end
    $var wire 37 "u logic_ram(23) [36:0] $end
    $var wire 37 "w logic_ram(24) [36:0] $end
    $var wire 37 "y logic_ram(25) [36:0] $end
    $var wire 37 "{ logic_ram(26) [36:0] $end
    $var wire 37 "} logic_ram(27) [36:0] $end
    $var wire 37 #! logic_ram(28) [36:0] $end
    $var wire 37 ## logic_ram(29) [36:0] $end
    $var wire 37 "M logic_ram(3) [36:0] $end
    $var wire 37 #% logic_ram(30) [36:0] $end
    $var wire 37 #' logic_ram(31) [36:0] $end
    $var wire 37 "O logic_ram(4) [36:0] $end
    $var wire 37 "Q logic_ram(5) [36:0] $end
    $var wire 37 "S logic_ram(6) [36:0] $end
    $var wire 37 "U logic_ram(7) [36:0] $end
    $var wire 37 "W logic_ram(8) [36:0] $end
    $var wire 37 "Y logic_ram(9) [36:0] $end
    $var wire  1 #U logic_risingOccupancy $end
    $var wire  1 #{ reset $end
    $var wire  1 U when_Stream_l933 $end
   $upscope $end
  $upscope $end
 $upscope $end
$enddefinitions $end


#0
b0000 #
b1000 $
b0000 %
b1000 &
b0000 '
b1000 (
b000000 )
b100000 *
b010010010100010001001100010001010010000000100000001000000010000000100000 +
1.
1/
10
11
12
13
14
15
06
07
08
09
0:
0;
0<
0=
0>
0?
0@
0A
0B
0C
0D
0E
0F
b000 G
0H
0I
b000 J
0K
0L
b000 M
0N
0O
b00000 P
0Q
0R
0S
0T
0U
1V
0W
1X
1Y
1Z
0[
0\
0]
b000 ^
0_
0`
b000 a
0b
0c
0d
b000 e
0f
0g
0h
b00000 i
0j
0k
b11 l
b11 m
b11110010011100011000111111010101 n
b0001 o
b10000100 p
b100 q
b00 r
b10 s
b01 t
b11011110011100010100101011010001 u
b0100 v
1w
b01100101101011100011101000001011 x
b01 y
b1100 z
b101010100001111110000000010010 {
b10011011 |
b01100101101011100011101000001000 }
0~
b10010001011100011000000001010101 "!
b0001 ""
b01111110010001001000000010100001 "#
b1111 "$
b0110 "%
b11 "&
b1100010001011000111111001110110010010001101111101 "'
b0110100110011110101000010011000010111100011111110 ")
b0111010010000001110100000001000010111110000001110 "+
b1101100100110111110100010011010000111101001011011 "-
b0100101110100111001000010000111101100000101000001 "/
b1101000001010111001001000011001100101011101111001 "1
b1100101101110001000001001111001100101111111101110 "3
b0101111011010001001001001101111001001011110110000 "5
b00 "7
b01 "8
b11 "9
b11 ":
b00 ";
b11 "<
b10 "=
b00 ">
b01 "?
b11 "@
b00 "A
b00 "B
b01 "C
b00 "D
b10 "E
b01 "F
b0001001000111010100100010011100110111 "G
b0010000111100101100001011110110000111 "I
b1001001100001011001111110111001011110 "K
b1010100000001110100001011001010001011 "M
b1101001010000110101100010110110101001 "O
b0100111010001101101111001101011000001 "Q
b1011001111000011100000010000100001101 "S
b1000010111010110100111111001011011000 "U
b1011110011011100000010011100010000001 "W
b0110000000001011010010110100110011110 "Y
b0000011100110111010001101011000111100 "[
b0111011000011100000010100001001000101 "]
b0010001110011010010111001010011111011 "_
b1110010000110101001001011111010100000 "a
b0101000111010110001010001011000111000 "c
b0111001011000010000001001000101100110 "e
b0100110100000000100100101100001110011 "g
b0110010111101011111010101100001101110 "i
b0101111111010001101001001010101101101 "k
b1000101101100011001010001111011110001 "m
b0110100011110001111001010100001101000 "o
b0101111011110011011001110011111001011 "q
b1110110110011011101111111110001101000 "s
b1011101011010010100010011111110111010 "u
b1101101000011111111110000001001110100 "w
b0100111001011001100101101011110011101 "y
b1100011110100010001110010111111010100 "{
b0001001001000001111010010011010110101 "}
b1100100110010110111001000010001010100 #!
b1011101010111000000110001010011100110 ##
b1010011110101111010101001100010000000 #%
b1000111101010101111111010110011110111 #'
b0001 #)
0#*
1#+
0#,
b00 #-
b00 #.
b00 #/
0#0
0#1
0#2
0#3
0#4
0#5
0#6
0#7
0#8
0#9
1#:
b01001001010001000100110001000101001000000010000000100000 #;
b0100100101000100010011000100010100100000 #=
b000 #?
0#@
b000 #A
0#B
0#C
b000 #D
b000 #E
0#F
b000 #G
0#H
0#I
b000 #J
b000 #K
0#L
b000 #M
0#N
0#O
b000 #P
b00000 #Q
0#R
b00000 #S
0#T
0#U
b00000 #V
b001011001001111001100101001011 #W
0#X
b00101001 #Y
0#Z
0#[
1#\
b11110010011100011000111111010101 #]
b0001 #^
b10000100 #_
b100 #`
b00 #a
0#b
1#c
b11011110011100010100101011010001 #d
b0100 #e
1#f
1#g
0#h
b0111 #i
b00 #j
0#k
0#l
b11110111110111011010000001111011 #m
b0010 #n
b0010 #o
b1111 #p
0#q
0#r
0#s
0#t
b01100001010101010111011101101000 #u
b001100000010101010010000000000 #v
b10 #w
b1001 #x
0#y
0#z
1#{
0#|
0#}
0#~
0$!
0$"
0$#
0$$
0$%
0$&
b1111 $'
b010 $(
0$)
#80
0#{
#85
b11111001110110010010001101111101 n
b10001011 p
b000 q
b11 r
b00 s
b01000111010100100010011100110111 u
b0010 v
0w
1#0
1#2
b11111001110110010010001101111101 #]
b10001011 #_
b000 #`
b11 #a
b01000111010100100010011100110111 #d
b0010 #e
0#f
1#t
1#z
1#|
#87
0#z
#89
1#z
#91
0#z
#93
1#z
#95
0#z
#97
1#z
#99
0#z
#101
1#z
#103
0#z
#105
1#z
#107
0#z
#109
1#z
#111
0#z
#113
1#z
#115
0#z
#117
1#z
#119
0#z
#121
1C
1#s
b00001000111111110001111011110001 #u
b000000000000000000001000100110 #v
b01 #w
b0011 #x
1#z
#123
0#z
#125
b010010010100111001000011010100100101111101010010010001010101000100100000 +
0C
b01 l
b01 m
b00001000111111110001111011110001 x
b0011 z
b00001000111111110001111011110000 }
b10 #-
0#2
0#:
b000000000000000000001000100110 #W
1#k
b00000000000000000000000000000000 #m
b0111 #o
0#s
0#t
1#z
#127
0#z
#129
b00 m
b000000000000000000000000111111 {
b00000100 |
1#4
b00000000000000000000000000000001 #m
1#z
#131
0#z
#133
1<
1R
1S
1T
1\
1]
b001 ^
1`
b001 a
1b
1d
b001 e
1f
b00001111 |
1#3
b00000000000000000000000000000010 #m
1#z
#135
0#z
#137
b0001 #
b0111 $
b0001 %
b0111 &
b0001 '
b0111 (
0.
0/
00
01
02
03
0<
0R
0S
0T
0\
0]
0`
0b
0d
0f
b00 l
b01 m
b00001000111111110001111100110000 x
b00001000111111110001111100110000 }
b0101000001111001100001000111111110001111011110000 "'
b01 "7
b00 "?
0#3
0#4
b001 #?
1#C
b001 #D
b001 #E
1#I
b001 #J
b001 #K
1#O
b001 #P
b000000000000000000000111100111 #W
b00000000000000000000000000000011 #m
1#z
#139
0#z
#141
1:
1;
1D
1F
b001 G
1H
1I
b001 J
1K
1L
b001 M
1N
1R
1S
1T
1W
b00 m
b00001000111111110001111011110000 n
b0011 o
b00001111 p
b010 q
b01 r
b01 s
b00 t
b000000000000000000000001000000 {
1#4
1#[
b00001000111111110001111011110000 #]
b0011 #^
b00001111 #_
b010 #`
b01 #a
b00000000000000000000000000000100 #m
1#z
1$!
#143
0#z
#145
b0000 #
b1000 $
b0000 %
b1000 &
b0000 '
b1000 (
1.
1/
10
11
12
13
0:
0;
1<
0D
1E
0F
0H
0I
0K
0L
0N
0W
1\
1]
b010 ^
1`
b010 a
1b
1d
b010 e
1f
b01000010011000010111100011111110 n
b1101 o
b00110011 p
b101 q
b11 t
b0000 "$
b1111 "%
b01 "&
b01 #.
0#0
1#3
1#8
b01000011010011110100111001010110010001010101001001010100 #;
b001 #A
0#C
b000 #D
b001 #G
0#I
b000 #J
b001 #M
0#O
b000 #P
b00001111 #Y
0#[
b01000010011000010111100011111110 #]
b1101 #^
b00110011 #_
b101 #`
1#l
b00000000000000000000000000000101 #m
1#z
0#|
0$!
1$"
#147
0#z
#149
b0001 #
b0111 $
b0001 %
b0111 &
b0001 '
b0111 (
0.
0/
00
01
02
03
0<
0R
0S
0T
1U
0\
0]
0`
0b
0d
0f
1h
b00001 i
1j
b00001000111111110001111101110000 x
b00001000111111110001111101110000 }
b10000000000000000000000000000010 "!
b0111 ""
b00000000000000000000000000000101 "#
b1111 "$
b0101000001111001100001000111111110001111100110000 ")
b00 "8
b00 "@
b0111 #)
1#,
0#3
0#4
1#7
b010 #?
1#C
b001 #D
b010 #E
1#I
b001 #J
b010 #K
1#O
b001 #P
b000000000000000000000110100111 #W
b00001110 #Y
b00000000000000000000000000000110 #m
1#z
#151
0#z
#153
b000001 )
b011111 *
04
05
1:
1;
1W
b00010 i
b00001000111111110001111100110000 n
b0011 o
b00001111 p
b010 q
b00 s
b00 t
b10000000000000000000000000000011 "!
b1111 ""
b00000000000000000000000000000110 "#
b0011110000000000000000000000000000010 "G
b1111 #)
1#4
b00001 #Q
1#U
b00001 #V
b00001101 #Y
b00001000111111110001111100110000 #]
b0011 #^
b00001111 #_
b010 #`
b00000000000000000000000000000111 #m
1#z
#155
0#z
#157
b000010 )
b011110 *
1<
1R
1S
1T
1[
1\
1]
b011 ^
1`
b011 a
1b
1d
b011 e
1f
b00011 i
b10000000000000000000000000000010 u
b0111 v
b00000000000000000000000000000011 "!
b00000000000000000000000000000111 "#
b0111110000000000000000000000000000011 "I
1#3
b00010 #Q
b00010 #V
b00001100 #Y
b10000000000000000000000000000010 #d
b0111 #e
b00000000000000000000000000001000 #m
1#z
#159
0#z
#161
b0010 #
b0110 $
b0010 %
b0110 &
b0010 '
b0110 (
b000011 )
b011101 *
0<
1O
b00001 P
1Q
0R
0S
0T
0U
0\
0]
0`
0b
0d
0f
b00100 i
b00001000111111110001111110110000 x
b00001000111111110001111110110000 }
b10000000000000000000000000000100 "!
b00000000000000000000000000001000 "#
b0101000001111001100001000111111110001111101110000 "+
b00 "9
b0111100000000000000000000000000000011 "K
b01 #/
1#1
0#3
0#4
b0100001001010101010100100101001101010100 #=
b011 #?
b010 #D
b011 #E
b010 #J
b011 #K
b010 #P
b00011 #Q
b00011 #V
b000000000000000000000101100111 #W
b00001011 #Y
1#b
b00000000000000000000000000001001 #m
1#z
1#}
1$$
#163
0#z
#165
b00010 P
b00101 i
b10000000000000000000000000000011 u
b1111 v
b00000000000000000000000000000100 "!
b00000000000000000000000000001001 "#
b0111110000000000000000000000000000100 "M
1#4
b00100 #Q
b00001 #S
b00001010 #Y
b10000000000000000000000000000011 #d
b1111 #e
b00000000000000000000000000001010 #m
1#z
#167
0#z
#169
1<
b00011 P
1R
1S
1T
1\
1]
b100 ^
1`
b100 a
1b
1d
b100 e
1f
b00110 i
b00000000000000000000000000000011 u
b10000000000000000000000000000101 "!
b00000000000000000000000000001010 "#
b0111100000000000000000000000000000100 "O
1#3
b00101 #Q
b00010 #S
b00001001 #Y
b00000000000000000000000000000011 #d
b00000000000000000000000000001011 #m
1#z
#171
0#z
#173
b0011 #
b0101 $
b0011 %
b0101 &
b0011 '
b0101 (
0<
b00100 P
0R
0S
0T
0\
0]
0`
0b
0d
0f
b00111 i
b10000000000000000000000000000100 u
b00001000111111110001111111110000 x
b00001000111111110001111111110000 }
1~
b00000000000000000000000000000101 "!
b00000000000000000000000000001011 "#
b0101000001111001100001000111111110001111110110000 "-
b00 ":
b0111110000000000000000000000000000101 "Q
0#3
0#4
b100 #?
b011 #D
b100 #E
b011 #J
b100 #K
b011 #P
b00110 #Q
b00011 #S
b000000000000000000000100100111 #W
b00001000 #Y
b10000000000000000000000000000100 #d
b00000000000000000000000000001100 #m
1#z
#175
0#z
#177
b00101 P
b01000 i
b00000000000000000000000000000100 u
b000000000000000000000000010000 {
b10000000000000000000000000000110 "!
b00000000000000000000000000001100 "#
b0111100000000000000000000000000000101 "S
1#4
b00111 #Q
b00100 #S
b00000111 #Y
b00000000000000000000000000000100 #d
b00000000000000000000000000001101 #m
1#z
#179
0#z
#181
1<
b00110 P
1R
1S
1T
1\
1]
b101 ^
1`
b101 a
1b
1d
b101 e
1f
b01001 i
b10000000000000000000000000000101 u
b00000011 |
b00000000000000000000000000000110 "!
b00000000000000000000000000001101 "#
b0111110000000000000000000000000000110 "U
1#3
b01000 #Q
b00101 #S
b00000110 #Y
b10000000000000000000000000000101 #d
b00000000000000000000000000001110 #m
1#z
#183
0#z
#185
b0100 #
b0100 $
b0100 %
b0100 &
b0100 '
b0100 (
0<
b00111 P
0R
0S
0T
0\
0]
0`
0b
0d
0f
b01010 i
b00000000000000000000000000000101 u
b00001000111111110010000000000000 x
b00001000111111110010000000000000 }
0~
b10000000000000000000000000000111 "!
b00000000000000000000000000001110 "#
b0101000000011001100001000111111110001111111110000 "/
b00 "C
b0111100000000000000000000000000000110 "W
0#+
0#3
0#4
b101 #?
b100 #D
b101 #E
b100 #J
b101 #K
b100 #P
b01001 #Q
b00110 #S
b000000000000000000000100010111 #W
b00000101 #Y
b00000000000000000000000000000101 #d
b00000000000000000000000000001111 #m
1#z
#187
0#z
