simWorkspace/AxiLite4Modulator/test.vcd
$version Generated by VerilatedVcd $end
$date Fri Oct 29 15:38:39 2021
 $end
$timescale   1ns $end

 $scope module TOP $end
  $var wire  8 7* axil4Ctrl_araddr [7:0] $end
  $var wire  3 ?* axil4Ctrl_arprot [2:0] $end
  $var wire  1 /* axil4Ctrl_arready $end
  $var wire  1 '* axil4Ctrl_arvalid $end
  $var wire  8 =) axil4Ctrl_awaddr [7:0] $end
  $var wire  3 E) axil4Ctrl_awprot [2:0] $end
  $var wire  1 5) axil4Ctrl_awready $end
  $var wire  1 -) axil4Ctrl_awvalid $end
  $var wire  1 u) axil4Ctrl_bready $end
  $var wire  2 }) axil4Ctrl_bresp [1:0] $end
  $var wire  1 m) axil4Ctrl_bvalid $end
  $var wire 32 W* axil4Ctrl_rdata [31:0] $end
  $var wire  1 O* axil4Ctrl_rready $end
  $var wire  2 _* axil4Ctrl_rresp [1:0] $end
  $var wire  1 G* axil4Ctrl_rvalid $end
  $var wire 32 ]) axil4Ctrl_wdata [31:0] $end
  $var wire  1 U) axil4Ctrl_wready $end
  $var wire  4 e) axil4Ctrl_wstrb [3:0] $end
  $var wire  1 M) axil4Ctrl_wvalid $end
  $var wire 24 %) base_data_payload [23:0] $end
  $var wire  1 {( base_data_ready $end
  $var wire  1 s( base_data_valid $end
  $var wire  1 1+ clk $end
  $var wire 16 o* mod_iq_payload_cha_i [15:0] $end
  $var wire 16 w* mod_iq_payload_cha_q [15:0] $end
  $var wire  1 g* mod_iq_valid $end
  $var wire  1 9+ reset $end
  $var wire  1 !+ rf_clk $end
  $var wire  1 )+ rf_resetn $end
  $scope module AxiLite4Modulator $end
   $var wire  8 e! axil4Ctrl_ar_rData_addr [7:0] $end
   $var wire  3 m! axil4Ctrl_ar_rData_prot [2:0] $end
   $var wire  1 }! axil4Ctrl_ar_rValid $end
   $var wire  8 e! axil4Ctrl_ar_readDataStage_payload_addr [7:0] $end
   $var wire  3 m! axil4Ctrl_ar_readDataStage_payload_prot [2:0] $end
   $var wire  1 O* axil4Ctrl_ar_readDataStage_ready $end
   $var wire  1 }! axil4Ctrl_ar_readDataStage_valid $end
   $var wire  8 7* axil4Ctrl_araddr [7:0] $end
   $var wire  3 ?* axil4Ctrl_arprot [2:0] $end
   $var wire  1 /* axil4Ctrl_arready $end
   $var wire  1 '* axil4Ctrl_arvalid $end
   $var wire  8 =) axil4Ctrl_awaddr [7:0] $end
   $var wire  3 E) axil4Ctrl_awprot [2:0] $end
   $var wire  1 5) axil4Ctrl_awready $end
   $var wire  1 -) axil4Ctrl_awvalid $end
   $var wire  1 u) axil4Ctrl_bready $end
   $var wire  2 }) axil4Ctrl_bresp [1:0] $end
   $var wire  1 m) axil4Ctrl_bvalid $end
   $var wire 32 W* axil4Ctrl_rdata [31:0] $end
   $var wire  1 O* axil4Ctrl_rready $end
   $var wire  2 _* axil4Ctrl_rresp [1:0] $end
   $var wire  1 G* axil4Ctrl_rvalid $end
   $var wire 32 ]) axil4Ctrl_wdata [31:0] $end
   $var wire  1 U) axil4Ctrl_wready $end
   $var wire  4 e) axil4Ctrl_wstrb [3:0] $end
   $var wire  1 M) axil4Ctrl_wvalid $end
   $var wire 24 %) base_data_payload [23:0] $end
   $var wire  1 {( base_data_ready $end
   $var wire  1 s( base_data_valid $end
   $var wire  1 1+ clk $end
   $var wire  3 _" clkCrossing_10_dataOut [2:0] $end
   $var wire  1 g" clkCrossing_11_dataOut $end
   $var wire 11 o" clkCrossing_12_dataOut [10:0] $end
   $var wire 32 w" clkCrossing_13_dataOut [31:0] $end
   $var wire  1 G" clkCrossing_7_dataOut $end
   $var wire  5 O" clkCrossing_8_dataOut [4:0] $end
   $var wire  5 W" clkCrossing_9_dataOut [4:0] $end
   $var wire  5 K( mod_data_bridge_cnt_limit [4:0] $end
   $var wire  5 K( mod_data_bridge_cnt_limit_driver [4:0] $end
   $var wire  5 C( mod_data_bridge_cnt_step [4:0] $end
   $var wire  5 C( mod_data_bridge_cnt_step_driver [4:0] $end
   $var wire  1 ;( mod_data_bridge_enable $end
   $var wire  1 ;( mod_data_bridge_enable_driver $end
   $var wire 16 o* mod_iq_payload_cha_i [15:0] $end
   $var wire 16 w* mod_iq_payload_cha_q [15:0] $end
   $var wire  1 g* mod_iq_valid $end
   $var wire  3 S( mod_rtl_bridge_select [2:0] $end
   $var wire  3 S( mod_rtl_bridge_select_driver [2:0] $end
   $var wire 11 c( mod_rtl_bridge_w_addr [10:0] $end
   $var wire 32 k( mod_rtl_bridge_w_data [31:0] $end
   $var wire  1 [( mod_rtl_bridge_w_en $end
   $var wire  1 I+ readHaltRequest $end
   $var wire  1 A+ readOccur $end
   $var wire 32 ]! readRsp_data [31:0] $end
   $var wire  2 Q+ readRsp_resp [1:0] $end
   $var wire  1 9+ reset $end
   $var wire  1 # rfClockArea_mod_data_div_base_data_ready $end
   $var wire 24 ?" rfClockArea_mod_data_div_unit_data_payload [23:0] $end
   $var wire  1 7" rfClockArea_mod_data_div_unit_data_valid $end
   $var wire 16 3 rfClockArea_mod_rtl_data_flow_mod_iq_payload_cha_i [15:0] $end
   $var wire 16 ; rfClockArea_mod_rtl_data_flow_mod_iq_payload_cha_q [15:0] $end
   $var wire  1 + rfClockArea_mod_rtl_data_flow_mod_iq_valid $end
   $var wire  8 /" rfClockArea_mod_rtl_data_flow_unit_data_payload [7:0] $end
   $var wire  1 !+ rf_clk $end
   $var wire  1 )+ rf_resetn $end
   $var wire  1 u! when_Stream_l342 $end
   $var wire  1 '" when_Stream_l342_1 $end
   $var wire  1 I+ writeHaltRequest $end
   $var wire  1 M! writeJoinEvent_fire $end
   $var wire  1 E! writeJoinEvent_ready $end
   $var wire  2 Q+ writeJoinEvent_translated_payload_resp [1:0] $end
   $var wire  1 E! writeJoinEvent_translated_ready $end
   $var wire  1 =! writeJoinEvent_translated_valid $end
   $var wire  1 =! writeJoinEvent_valid $end
   $var wire  1 M! writeOccur $end
   $var wire  2 Q+ writeRsp_resp [1:0] $end
   $scope module clkCrossing_10 $end
    $var wire  3 y' area_clkI_reg [2:0] $end
    $var wire  3 A' area_clkO_buf0 [2:0] $end
    $var wire  3 _" area_clkO_buf1 [2:0] $end
    $var wire  1 1+ clk $end
    $var wire  3 S( dataIn [2:0] $end
    $var wire  3 _" dataOut [2:0] $end
    $var wire  1 9+ reset $end
    $var wire  1 !+ rf_clk $end
    $var wire  1 )+ rf_resetn $end
   $upscope $end
   $scope module clkCrossing_11 $end
    $var wire  1 #( area_clkI_reg $end
    $var wire  1 I' area_clkO_buf0 $end
    $var wire  1 g" area_clkO_buf1 $end
    $var wire  1 1+ clk $end
    $var wire  1 [( dataIn $end
    $var wire  1 g" dataOut $end
    $var wire  1 9+ reset $end
    $var wire  1 !+ rf_clk $end
    $var wire  1 )+ rf_resetn $end
   $upscope $end
   $scope module clkCrossing_12 $end
    $var wire 11 +( area_clkI_reg [10:0] $end
    $var wire 11 Q' area_clkO_buf0 [10:0] $end
    $var wire 11 o" area_clkO_buf1 [10:0] $end
    $var wire  1 1+ clk $end
    $var wire 11 c( dataIn [10:0] $end
    $var wire 11 o" dataOut [10:0] $end
    $var wire  1 9+ reset $end
    $var wire  1 !+ rf_clk $end
    $var wire  1 )+ rf_resetn $end
   $upscope $end
   $scope module clkCrossing_13 $end
    $var wire 32 3( area_clkI_reg [31:0] $end
    $var wire 32 Y' area_clkO_buf0 [31:0] $end
    $var wire 32 w" area_clkO_buf1 [31:0] $end
    $var wire  1 1+ clk $end
    $var wire 32 k( dataIn [31:0] $end
    $var wire 32 w" dataOut [31:0] $end
    $var wire  1 9+ reset $end
    $var wire  1 !+ rf_clk $end
    $var wire  1 )+ rf_resetn $end
   $upscope $end
   $scope module clkCrossing_7 $end
    $var wire  1 a' area_clkI_reg $end
    $var wire  1 )' area_clkO_buf0 $end
    $var wire  1 G" area_clkO_buf1 $end
    $var wire  1 1+ clk $end
    $var wire  1 ;( dataIn $end
    $var wire  1 G" dataOut $end
    $var wire  1 9+ reset $end
    $var wire  1 !+ rf_clk $end
    $var wire  1 )+ rf_resetn $end
   $upscope $end
   $scope module clkCrossing_8 $end
    $var wire  5 i' area_clkI_reg [4:0] $end
    $var wire  5 1' area_clkO_buf0 [4:0] $end
    $var wire  5 O" area_clkO_buf1 [4:0] $end
    $var wire  1 1+ clk $end
    $var wire  5 C( dataIn [4:0] $end
    $var wire  5 O" dataOut [4:0] $end
    $var wire  1 9+ reset $end
    $var wire  1 !+ rf_clk $end
    $var wire  1 )+ rf_resetn $end
   $upscope $end
   $scope module clkCrossing_9 $end
    $var wire  5 q' area_clkI_reg [4:0] $end
    $var wire  5 9' area_clkO_buf0 [4:0] $end
    $var wire  5 W" area_clkO_buf1 [4:0] $end
    $var wire  1 1+ clk $end
    $var wire  5 K( dataIn [4:0] $end
    $var wire  5 W" dataOut [4:0] $end
    $var wire  1 9+ reset $end
    $var wire  1 !+ rf_clk $end
    $var wire  1 )+ rf_resetn $end
   $upscope $end
   $scope module rfClockArea_mod_data_div $end
    $var wire 24 ?" base_buffer [23:0] $end
    $var wire  5 !# base_cnt [4:0] $end
    $var wire  1 U! base_data_fire $end
    $var wire 24 %) base_data_payload [23:0] $end
    $var wire  1 # base_data_ready $end
    $var wire  1 s( base_data_valid $end
    $var wire  1 # base_ready $end
    $var wire  5 W" cnt_limit [4:0] $end
    $var wire  5 O" cnt_step [4:0] $end
    $var wire  1 G" enable $end
    $var wire  1 !+ rf_clk $end
    $var wire  1 )+ rf_resetn $end
    $var wire 24 ?" unit_data_payload [23:0] $end
    $var wire  1 7" unit_data_valid $end
    $var wire  1 7" unit_valid $end
    $var wire  1 )# when_dataDivDynamic_l40 $end
    $var wire  1 C when_dataDivDynamic_l47 $end
   $upscope $end
   $scope module rfClockArea_mod_rtl $end
    $var wire 16 S$ bpsk_mod_mod_iq_payload_cha_i [15:0] $end
    $var wire 16 [$ bpsk_mod_mod_iq_payload_cha_q [15:0] $end
    $var wire  1 K$ bpsk_mod_mod_iq_valid $end
    $var wire  1 1# bpsk_mod_unit_data_payload [0:0] $end
    $var wire 16 3 data_flow_mod_iq_payload_cha_i [15:0] $end
    $var wire 16 ; data_flow_mod_iq_payload_cha_q [15:0] $end
    $var wire  1 + data_flow_mod_iq_valid $end
    $var wire  8 /" data_flow_unit_data_payload [7:0] $end
    $var wire  1 7" data_flow_unit_data_valid $end
    $var wire  8 a# flowDeMux_1_outputs_0_payload [7:0] $end
    $var wire  1 Y# flowDeMux_1_outputs_0_valid $end
    $var wire  8 q# flowDeMux_1_outputs_1_payload [7:0] $end
    $var wire  1 i# flowDeMux_1_outputs_1_valid $end
    $var wire  8 #$ flowDeMux_1_outputs_2_payload [7:0] $end
    $var wire  1 y# flowDeMux_1_outputs_2_valid $end
    $var wire  8 3$ flowDeMux_1_outputs_3_payload [7:0] $end
    $var wire  1 +$ flowDeMux_1_outputs_3_valid $end
    $var wire  8 C$ flowDeMux_1_outputs_4_payload [7:0] $end
    $var wire  1 ;$ flowDeMux_1_outputs_4_valid $end
    $var wire 16 3 flowMux_1_output_payload_cha_i [15:0] $end
    $var wire 16 ; flowMux_1_output_payload_cha_q [15:0] $end
    $var wire  1 + flowMux_1_output_valid $end
    $var wire 16 s lookup_mod_data_flow_mod_iq_payload_cha_i [15:0] $end
    $var wire 16 { lookup_mod_data_flow_mod_iq_payload_cha_q [15:0] $end
    $var wire  1 k lookup_mod_data_flow_mod_iq_valid $end
    $var wire 11 Q# lookup_mod_data_flow_unit_data_payload [10:0] $end
    $var wire 16 s$ qam16_mod_mod_iq_payload_cha_i [15:0] $end
    $var wire 16 {$ qam16_mod_mod_iq_payload_cha_q [15:0] $end
    $var wire  1 k$ qam16_mod_mod_iq_valid $end
    $var wire  4 A# qam16_mod_unit_data_payload [3:0] $end
    $var wire 16 [ qam64_mod_mod_iq_payload_cha_i [15:0] $end
    $var wire 16 c qam64_mod_mod_iq_payload_cha_q [15:0] $end
    $var wire  1 %% qam64_mod_mod_iq_valid $end
    $var wire  6 I# qam64_mod_unit_data_payload [5:0] $end
    $var wire 16 K qpsk_mod_mod_iq_payload_cha_i [15:0] $end
    $var wire 16 S qpsk_mod_mod_iq_payload_cha_q [15:0] $end
    $var wire  1 c$ qpsk_mod_mod_iq_valid $end
    $var wire  2 9# qpsk_mod_unit_data_payload [1:0] $end
    $var wire  1 !+ rf_clk $end
    $var wire  1 )+ rf_resetn $end
    $var wire  3 _" select_1 [2:0] $end
    $var wire 11 o" w_addr [10:0] $end
    $var wire 32 w" w_data [31:0] $end
    $var wire  1 g" w_en $end
    $scope module bpsk_mod $end
     $var wire 32 Y+ codeTable_0 [31:0] $end
     $var wire 32 a+ codeTable_1 [31:0] $end
     $var wire 16 e% mod_iq_0 [15:0] $end
     $var wire 16 m% mod_iq_1 [15:0] $end
     $var wire 16 S$ mod_iq_payload_cha_i [15:0] $end
     $var wire 16 [$ mod_iq_payload_cha_q [15:0] $end
     $var wire  1 K$ mod_iq_valid $end
     $var wire  1 !+ rf_clk $end
     $var wire  1 )+ rf_resetn $end
     $var wire  1 U% unit_data [0:0] $end
     $var wire  1 1# unit_data_payload [0:0] $end
     $var wire  1 Y# unit_data_valid $end
     $var wire  1 ]% unit_valid $end
    $upscope $end
    $scope module flowDeMux_1 $end
     $var wire  8 /" input_payload [7:0] $end
     $var wire  1 7" input_valid $end
     $var wire  8 a# outputs_0_payload [7:0] $end
     $var wire  1 Y# outputs_0_valid $end
     $var wire  8 q# outputs_1_payload [7:0] $end
     $var wire  1 i# outputs_1_valid $end
     $var wire  8 #$ outputs_2_payload [7:0] $end
     $var wire  1 y# outputs_2_valid $end
     $var wire  8 3$ outputs_3_payload [7:0] $end
     $var wire  1 +$ outputs_3_valid $end
     $var wire  8 C$ outputs_4_payload [7:0] $end
     $var wire  1 ;$ outputs_4_valid $end
     $var wire  3 _" select_1 [2:0] $end
     $var wire  1 -% when_FlowDeMux_l15 $end
     $var wire  1 5% when_FlowDeMux_l15_1 $end
     $var wire  1 =% when_FlowDeMux_l15_2 $end
     $var wire  1 E% when_FlowDeMux_l15_3 $end
     $var wire  1 M% when_FlowDeMux_l15_4 $end
    $upscope $end
    $scope module flowMux_1 $end
     $var wire 16 S$ inputs_0_payload_cha_i [15:0] $end
     $var wire 16 [$ inputs_0_payload_cha_q [15:0] $end
     $var wire  1 K$ inputs_0_valid $end
     $var wire 16 K inputs_1_payload_cha_i [15:0] $end
     $var wire 16 S inputs_1_payload_cha_q [15:0] $end
     $var wire  1 c$ inputs_1_valid $end
     $var wire 16 s$ inputs_2_payload_cha_i [15:0] $end
     $var wire 16 {$ inputs_2_payload_cha_q [15:0] $end
     $var wire  1 k$ inputs_2_valid $end
     $var wire 16 [ inputs_3_payload_cha_i [15:0] $end
     $var wire 16 c inputs_3_payload_cha_q [15:0] $end
     $var wire  1 %% inputs_3_valid $end
     $var wire 16 s inputs_4_payload_cha_i [15:0] $end
     $var wire 16 { inputs_4_payload_cha_q [15:0] $end
     $var wire  1 k inputs_4_valid $end
     $var wire 16 3 output_payload_cha_i [15:0] $end
     $var wire 16 ; output_payload_cha_q [15:0] $end
     $var wire  1 + output_valid $end
     $var wire  3 _" select_1 [2:0] $end
    $upscope $end
    $scope module lookup_mod $end
     $var wire 16 s data_flow_mod_iq_payload_cha_i [15:0] $end
     $var wire 16 { data_flow_mod_iq_payload_cha_q [15:0] $end
     $var wire  1 k data_flow_mod_iq_valid $end
     $var wire 11 Q# data_flow_unit_data_payload [10:0] $end
     $var wire  1 ;$ data_flow_unit_data_valid $end
     $var wire 16 w& iq_mod_div_0 [15:0] $end
     $var wire 16 !' iq_mod_div_1 [15:0] $end
     $var wire  1 !+ rf_clk $end
     $var wire  1 )+ rf_resetn $end
     $var wire 11 g& unit_data [10:0] $end
     $var wire  1 o& unit_valid $end
     $var wire 11 o" w_addr [10:0] $end
     $var wire 32 w" w_data [31:0] $end
     $var wire  1 g" w_en $end
     $var wire  1 5! when_lookUpMod_l56 $end
    $upscope $end
    $scope module qam16_mod $end
     $var wire 16 +, codeTableI_0 [15:0] $end
     $var wire 16 3, codeTableI_1 [15:0] $end
     $var wire 16 ;, codeTableI_2 [15:0] $end
     $var wire 16 C, codeTableI_3 [15:0] $end
     $var wire 16 +, codeTableQ_0 [15:0] $end
     $var wire 16 3, codeTableQ_1 [15:0] $end
     $var wire 16 ;, codeTableQ_2 [15:0] $end
     $var wire 16 C, codeTableQ_3 [15:0] $end
     $var wire  2 7& data_div_0 [1:0] $end
     $var wire  2 ?& data_div_1 [1:0] $end
     $var wire 16 s$ mod_iq_payload_cha_i [15:0] $end
     $var wire 16 {$ mod_iq_payload_cha_q [15:0] $end
     $var wire  1 k$ mod_iq_valid $end
     $var wire  1 !+ rf_clk $end
     $var wire  1 )+ rf_resetn $end
     $var wire  4 '& unit_data [3:0] $end
     $var wire  4 A# unit_data_payload [3:0] $end
     $var wire  1 y# unit_data_valid $end
     $var wire  1 /& unit_valid $end
    $upscope $end
    $scope module qam64_mod $end
     $var wire 16 K, codeTableI_0 [15:0] $end
     $var wire 16 S, codeTableI_1 [15:0] $end
     $var wire 16 [, codeTableI_2 [15:0] $end
     $var wire 16 c, codeTableI_3 [15:0] $end
     $var wire 16 k, codeTableI_4 [15:0] $end
     $var wire 16 s, codeTableI_5 [15:0] $end
     $var wire 16 K, codeTableQ_0 [15:0] $end
     $var wire 16 S, codeTableQ_1 [15:0] $end
     $var wire 16 [, codeTableQ_2 [15:0] $end
     $var wire 16 c, codeTableQ_3 [15:0] $end
     $var wire 16 k, codeTableQ_4 [15:0] $end
     $var wire 16 s, codeTableQ_5 [15:0] $end
     $var wire  3 W& data_div_0 [2:0] $end
     $var wire  3 _& data_div_1 [2:0] $end
     $var wire 16 [ mod_iq_payload_cha_i [15:0] $end
     $var wire 16 c mod_iq_payload_cha_q [15:0] $end
     $var wire  1 %% mod_iq_valid $end
     $var wire  1 !+ rf_clk $end
     $var wire  1 )+ rf_resetn $end
     $var wire  6 G& unit_data [5:0] $end
     $var wire  6 I# unit_data_payload [5:0] $end
     $var wire  1 +$ unit_data_valid $end
     $var wire  1 O& unit_valid $end
    $upscope $end
    $scope module qpsk_mod $end
     $var wire 32 i+ codeTable_0 [31:0] $end
     $var wire 32 q+ codeTable_1 [31:0] $end
     $var wire 32 y+ codeTable_2 [31:0] $end
     $var wire 32 #, codeTable_3 [31:0] $end
     $var wire 16 %! mod_iq_0 [15:0] $end
     $var wire 16 -! mod_iq_1 [15:0] $end
     $var wire 16 K mod_iq_payload_cha_i [15:0] $end
     $var wire 16 S mod_iq_payload_cha_q [15:0] $end
     $var wire  1 c$ mod_iq_valid $end
     $var wire  1 !+ rf_clk $end
     $var wire  1 )+ rf_resetn $end
     $var wire  2 u% unit_data [1:0] $end
     $var wire  2 9# unit_data_payload [1:0] $end
     $var wire  1 i# unit_data_valid $end
     $var wire  1 }% unit_valid $end
    $upscope $end
   $upscope $end
  $upscope $end
 $upscope $end
$enddefinitions $end


#0
0#
1+
b1000000000000001 3
b0000000000000000 ;
0C
b0000000000000000 K
b0000000000000000 S
b0011000101100000 [
b1011101011100001 c
0k
b0000000000000000 s
b0000000000000000 {
b0101101010000010 %!
b1010010101111110 -!
05!
1=!
1E!
1M!
0U!
b00000000000000000000000000000000 ]!
b11011010 e!
b000 m!
1u!
0}!
1'"
b11101100 /"
07"
b001111110101010111101100 ?"
1G"
b11001 O"
b01101 W"
b000 _"
1g"
b01011101100 o"
b10001100100001110110110110011110 w"
b11010 !#
0)#
01#
b00 9#
b0000 A#
b000000 I#
b00000000000 Q#
0Y#
b11101100 a#
0i#
b00000000 q#
0y#
b00000000 #$
0+$
b00000000 3$
0;$
b00000000 C$
1K$
b1000000000000001 S$
b0000000000000000 [$
0c$
0k$
b0000000000000000 s$
b0000000000000000 {$
1%%
0-%
15%
1=%
1E%
1M%
0U%
1]%
b0000000000000000 e%
b1000000000000001 m%
b01 u%
0}%
b1111 '&
0/&
b11 7&
b11 ?&
b111000 G&
1O&
b000 W&
b111 _&
b10100100000 g&
0o&
b1000100100110001 w&
b0101001100110001 !'
0)'
b10100 1'
b00100 9'
b100 A'
1I'
b11101101011 Q'
b00110110001011011010000101001001 Y'
1a'
b01010 i'
b11000 q'
b010 y'
1#(
b11011111101 +(
b11101011000101000010000000100000 3(
0;(
b00000 C(
b00000 K(
b000 S(
0[(
b00000000000 c(
b00000000000000000000000000000000 k(
0s(
0{(
b011100000001111111010011 %)
1-)
15)
b00000000 =)
b110 E)
1M)
1U)
b00000000000000000000000000000000 ])
b1111 e)
0m)
1u)
b10 })
0'*
1/*
b11011110 7*
b100 ?*
0G*
1O*
b00000000000000000000000000000000 W*
b00 _*
1g*
b1000000000000001 o*
b0000000000000000 w*
1!+
0)+
01+
19+
0A+
0I+
b00 Q+
b10000000000000010000000000000000 Y+
b01111111111111110000000000000000 a+
b10100101011111101010010101111110 i+
b10100101011111100101101010000010 q+
b01011010100000101010010101111110 y+
b01011010100000100101101010000010 #,
b1100001101001001 +,
b1110101111000011 3,
b0011110010110110 ;,
b0001010000111100 C,
b1011101011100001 K,
b1100111010100000 S,
b1111011000100000 [,
b1110001001100000 c,
b0100010100011111 k,
b0011000101100000 s,
#80
09+
#85
b11011110 e!
b100 m!
0u!
0a'
b00000 i'
b00000 q'
b000 y'
0#(
b00000000000 +(
b00000000000000000000000000000000 3(
b00000100 =)
b00000000000000000000000000000010 ])
1m)
b00 })
11+
#87
01+
#89
b00010 C(
b00001000 =)
b00000000000000000000000000100010 ])
11+
#91
01+
#93
b00010 i'
b00010 K(
b00010000 =)
b00000000000000000000000000000100 ])
11+
#95
01+
#97
b00010 q'
b100 S(
b00010100 =)
b00000000000000000000000000000001 ])
11+
#99
01+
#101
b100 y'
1[(
b00011000 =)
b00000000000000000000000000000000 ])
11+
#103
01+
#105
1#(
b00011100 =)
b00000000000000000000010000000000 ])
11+
#107
01+
#109
b00000000000000000000010000000000 k(
b00011000 =)
b00000000000000000000000000000001 ])
11+
#111
01+
#113
b00000000000000000000010000000000 3(
b00000000001 c(
b00011100 =)
b00000000000000000000010000011111 ])
11+
#115
01+
#117
b00000000001 +(
b00000000000000000000010000011111 k(
b00011000 =)
b00000000000000000000000000000010 ])
11+
#119
01+
#121
b00000000000000000000010000011111 3(
b00000000010 c(
b00011100 =)
b00000000000000000000010000111110 ])
11+
#123
01+
#125
b00000000010 +(
b00000000000000000000010000111110 k(
b00011000 =)
b00000000000000000000000000000011 ])
11+
#127
01+
#129
b00000000000000000000010000111110 3(
b00000000011 c(
b00011100 =)
b00000000000000000000010001011110 ])
11+
#131
01+
#133
b00000000011 +(
b00000000000000000000010001011110 k(
b00011000 =)
b00000000000000000000000000000100 ])
11+
#135
01+
#137
b00000000000000000000010001011110 3(
b00000000100 c(
b00011100 =)
b00000000000000000000010001111101 ])
11+
#139
01+
#141
b00000000100 +(
b00000000000000000000010001111101 k(
b00011000 =)
b00000000000000000000000000000101 ])
11+
#143
01+
#145
b00000000000000000000010001111101 3(
b00000000101 c(
b00011100 =)
b00000000000000000000010010011100 ])
11+
#147
01+
#149
b00000000101 +(
b00000000000000000000010010011100 k(
b00011000 =)
b00000000000000000000000000000110 ])
11+
#151
01+
#153
b00000000000000000000010010011100 3(
b00000000110 c(
b00011100 =)
b00000000000000000000010010111011 ])
11+
#155
01+
#157
b00000000110 +(
b00000000000000000000010010111011 k(
b00011000 =)
b00000000000000000000000000000111 ])
11+
#159
01+
#161
b00000000000000000000010010111011 3(
b00000000111 c(
b00011100 =)
b00000000000000000000010011011010 ])
11+
#163
01+
#165
b00000000111 +(
b00000000000000000000010011011010 k(
b00011000 =)
b00000000000000000000000000001000 ])
11+
#167
01+
#169
b00000000000000000000010011011010 3(
b00000001000 c(
b00011100 =)
b00000000000000000000010011111000 ])
11+
#171
01+
#173
b00000001000 +(
b00000000000000000000010011111000 k(
b00011000 =)
b00000000000000000000000000001001 ])
11+
#175
01+
#177
b00000000000000000000010011111000 3(
b00000001001 c(
b00011100 =)
b00000000000000000000010100010111 ])
11+
#179
01+
#181
b00000001001 +(
b00000000000000000000010100010111 k(
b00011000 =)
b00000000000000000000000000001010 ])
11+
#183
01+
#185
b00000000000000000000010100010111 3(
b00000001010 c(
b00011100 =)
b00000000000000000000010100110101 ])
11+
#187
01+
#189
b00000001010 +(
b00000000000000000000010100110101 k(
b00011000 =)
b00000000000000000000000000001011 ])
11+
#191
01+
#193
b00000000000000000000010100110101 3(
b00000001011 c(
b00011100 =)
b00000000000000000000010101010011 ])
11+
#195
01+
#197
b00000001011 +(
b00000000000000000000010101010011 k(
b00011000 =)
b00000000000000000000000000001100 ])
11+
#199
01+
#201
b00000000000000000000010101010011 3(
b00000001100 c(
b00011100 =)
b00000000000000000000010101110000 ])
11+
#203
01+
#205
b00000001100 +(
b00000000000000000000010101110000 k(
b00011000 =)
b00000000000000000000000000001101 ])
11+
#207
01+
#209
b00000000000000000000010101110000 3(
b00000001101 c(
b00011100 =)
b00000000000000000000010110001101 ])
11+
#211
01+
#213
b00000001101 +(
b00000000000000000000010110001101 k(
b00011000 =)
b00000000000000000000000000001110 ])
11+
#215
01+
#217
b00000000000000000000010110001101 3(
b00000001110 c(
b00011100 =)
b00000000000000000000010110101010 ])
11+
#219
01+
#221
b00000001110 +(
b00000000000000000000010110101010 k(
b00011000 =)
b00000000000000000000000000001111 ])
11+
#223
01+
#225
b00000000000000000000010110101010 3(
b00000001111 c(
b00011100 =)
b00000000000000000000010111000110 ])
11+
#227
01+
#229
b00000001111 +(
b00000000000000000000010111000110 k(
b00011000 =)
b00000000000000000000000000010000 ])
11+
#231
01+
#233
b00000000000000000000010111000110 3(
b00000010000 c(
b00011100 =)
b00000000000000000000010111100010 ])
11+
#235
01+
#237
b00000010000 +(
b00000000000000000000010111100010 k(
b00011000 =)
b00000000000000000000000000010001 ])
11+
#239
01+
#241
b00000000000000000000010111100010 3(
b00000010001 c(
b00011100 =)
b00000000000000000000010111111110 ])
11+
#243
01+
#245
b00000010001 +(
b00000000000000000000010111111110 k(
b00011000 =)
b00000000000000000000000000010010 ])
11+
#247
01+
#249
b00000000000000000000010111111110 3(
b00000010010 c(
b00011100 =)
b00000000000000000000011000011001 ])
11+
#251
01+
#253
b00000010010 +(
b00000000000000000000011000011001 k(
b00011000 =)
b00000000000000000000000000010011 ])
11+
#255
01+
#257
b00000000000000000000011000011001 3(
b00000010011 c(
b00011100 =)
b00000000000000000000011000110011 ])
11+
#259
01+
#261
b00000010011 +(
b00000000000000000000011000110011 k(
b00011000 =)
b00000000000000000000000000010100 ])
11+
#263
01+
#265
b00000000000000000000011000110011 3(
b00000010100 c(
b00011100 =)
b00000000000000000000011001001101 ])
11+
#267
01+
#269
b00000010100 +(
b00000000000000000000011001001101 k(
b00011000 =)
b00000000000000000000000000010101 ])
11+
#271
01+
#273
b00000000000000000000011001001101 3(
b00000010101 c(
b00011100 =)
b00000000000000000000011001100111 ])
11+
#275
01+
#277
b00000010101 +(
b00000000000000000000011001100111 k(
b00011000 =)
b00000000000000000000000000010110 ])
11+
#279
01+
#281
b00000000000000000000011001100111 3(
b00000010110 c(
b00011100 =)
b00000000000000000000011001111111 ])
11+
#283
01+
#285
b00000010110 +(
b00000000000000000000011001111111 k(
b00011000 =)
b00000000000000000000000000010111 ])
11+
#287
01+
#289
b00000000000000000000011001111111 3(
b00000010111 c(
b00011100 =)
b00000000000000000000011010011000 ])
11+
#291
01+
#293
b00000010111 +(
b00000000000000000000011010011000 k(
b00011000 =)
b00000000000000000000000000011000 ])
11+
#295
01+
#297
b00000000000000000000011010011000 3(
b00000011000 c(
b00011100 =)
b00000000000000000000011010101111 ])
11+
#299
01+
#301
b00000011000 +(
b00000000000000000000011010101111 k(
b00011000 =)
b00000000000000000000000000011001 ])
11+
#303
01+
#305
b00000000000000000000011010101111 3(
b00000011001 c(
b00011100 =)
b00000000000000000000011011000110 ])
11+
#307
01+
#309
b00000011001 +(
b00000000000000000000011011000110 k(
b00011000 =)
b00000000000000000000000000011010 ])
11+
#311
01+
#313
b00000000000000000000011011000110 3(
b00000011010 c(
b00011100 =)
b00000000000000000000011011011100 ])
11+
#315
01+
#317
b00000011010 +(
b00000000000000000000011011011100 k(
b00011000 =)
b00000000000000000000000000011011 ])
11+
#319
01+
#321
b00000000000000000000011011011100 3(
b00000011011 c(
b00011100 =)
b00000000000000000000011011110010 ])
11+
#323
01+
#325
b00000011011 +(
b00000000000000000000011011110010 k(
b00011000 =)
b00000000000000000000000000011100 ])
11+
#327
01+
#329
b00000000000000000000011011110010 3(
b00000011100 c(
b00011100 =)
b00000000000000000000011100000111 ])
11+
#331
01+
#333
b00000011100 +(
b00000000000000000000011100000111 k(
b00011000 =)
b00000000000000000000000000011101 ])
11+
#335
01+
#337
b00000000000000000000011100000111 3(
b00000011101 c(
b00011100 =)
b00000000000000000000011100011011 ])
11+
#339
01+
#341
b00000011101 +(
b00000000000000000000011100011011 k(
b00011000 =)
b00000000000000000000000000011110 ])
11+
#343
01+
#345
b00000000000000000000011100011011 3(
b00000011110 c(
b00011100 =)
b00000000000000000000011100101110 ])
11+
#347
01+
#349
b00000011110 +(
b00000000000000000000011100101110 k(
b00011000 =)
b00000000000000000000000000011111 ])
11+
#351
01+
#353
b00000000000000000000011100101110 3(
b00000011111 c(
b00011100 =)
b00000000000000000000011101000001 ])
11+
#355
01+
#357
b00000011111 +(
b00000000000000000000011101000001 k(
b00011000 =)
b00000000000000000000000000100000 ])
11+
#359
01+
#361
b00000000000000000000011101000001 3(
b00000100000 c(
b00011100 =)
b00000000000000000000011101010011 ])
11+
#363
01+
