simWorkspace/AxiLite4Modulator/test.vcd
$version Generated by VerilatedVcd $end
$date Tue Dec  7 23:34:49 2021
 $end
$timescale   1ns $end

 $scope module TOP $end
  $var wire  8 =) axil4Ctrl_araddr [7:0] $end
  $var wire  3 E) axil4Ctrl_arprot [2:0] $end
  $var wire  1 5) axil4Ctrl_arready $end
  $var wire  1 -) axil4Ctrl_arvalid $end
  $var wire  8 C( axil4Ctrl_awaddr [7:0] $end
  $var wire  3 K( axil4Ctrl_awprot [2:0] $end
  $var wire  1 ;( axil4Ctrl_awready $end
  $var wire  1 3( axil4Ctrl_awvalid $end
  $var wire  1 {( axil4Ctrl_bready $end
  $var wire  2 %) axil4Ctrl_bresp [1:0] $end
  $var wire  1 s( axil4Ctrl_bvalid $end
  $var wire 32 ]) axil4Ctrl_rdata [31:0] $end
  $var wire  1 U) axil4Ctrl_rready $end
  $var wire  2 e) axil4Ctrl_rresp [1:0] $end
  $var wire  1 M) axil4Ctrl_rvalid $end
  $var wire 32 c( axil4Ctrl_wdata [31:0] $end
  $var wire  1 [( axil4Ctrl_wready $end
  $var wire  4 k( axil4Ctrl_wstrb [3:0] $end
  $var wire  1 S( axil4Ctrl_wvalid $end
  $var wire 24 +( base_data_payload [23:0] $end
  $var wire  1 #( base_data_ready $end
  $var wire  1 y' base_data_valid $end
  $var wire  1 7* clk $end
  $var wire 12 u) mod_iq_payload_cha_i [11:0] $end
  $var wire 12 }) mod_iq_payload_cha_q [11:0] $end
  $var wire  1 m) mod_iq_valid $end
  $var wire  1 ?* reset $end
  $var wire  1 '* rf_clk $end
  $var wire  1 /* rf_resetn $end
  $scope module AxiLite4Modulator $end
   $var wire  8 U! axil4Ctrl_ar_rData_addr [7:0] $end
   $var wire  3 ]! axil4Ctrl_ar_rData_prot [2:0] $end
   $var wire  1 m! axil4Ctrl_ar_rValid $end
   $var wire  8 U! axil4Ctrl_ar_readDataStage_payload_addr [7:0] $end
   $var wire  3 ]! axil4Ctrl_ar_readDataStage_payload_prot [2:0] $end
   $var wire  1 U) axil4Ctrl_ar_readDataStage_ready $end
   $var wire  1 m! axil4Ctrl_ar_readDataStage_valid $end
   $var wire  8 =) axil4Ctrl_araddr [7:0] $end
   $var wire  3 E) axil4Ctrl_arprot [2:0] $end
   $var wire  1 5) axil4Ctrl_arready $end
   $var wire  1 -) axil4Ctrl_arvalid $end
   $var wire  8 C( axil4Ctrl_awaddr [7:0] $end
   $var wire  3 K( axil4Ctrl_awprot [2:0] $end
   $var wire  1 ;( axil4Ctrl_awready $end
   $var wire  1 3( axil4Ctrl_awvalid $end
   $var wire  1 {( axil4Ctrl_bready $end
   $var wire  2 %) axil4Ctrl_bresp [1:0] $end
   $var wire  1 s( axil4Ctrl_bvalid $end
   $var wire 32 ]) axil4Ctrl_rdata [31:0] $end
   $var wire  1 U) axil4Ctrl_rready $end
   $var wire  2 e) axil4Ctrl_rresp [1:0] $end
   $var wire  1 M) axil4Ctrl_rvalid $end
   $var wire 32 c( axil4Ctrl_wdata [31:0] $end
   $var wire  1 [( axil4Ctrl_wready $end
   $var wire  4 k( axil4Ctrl_wstrb [3:0] $end
   $var wire  1 S( axil4Ctrl_wvalid $end
   $var wire 24 +( base_data_payload [23:0] $end
   $var wire  1 #( base_data_ready $end
   $var wire  1 y' base_data_valid $end
   $var wire  1 7* clk $end
   $var wire  1 O" clkCrossing_10_dataOut [0:0] $end
   $var wire 32 W" clkCrossing_11_dataOut [31:0] $end
   $var wire 32 _" clkCrossing_12_dataOut [31:0] $end
   $var wire  2 g" clkCrossing_13_dataOut [1:0] $end
   $var wire  1 7" clkCrossing_7_dataOut $end
   $var wire  5 ?" clkCrossing_8_dataOut [4:0] $end
   $var wire  5 G" clkCrossing_9_dataOut [4:0] $end
   $var wire  5 Q' mod_data_bridge_cnt_limit [4:0] $end
   $var wire  5 Q' mod_data_bridge_cnt_limit_driver [4:0] $end
   $var wire  5 I' mod_data_bridge_cnt_step [4:0] $end
   $var wire  5 I' mod_data_bridge_cnt_step_driver [4:0] $end
   $var wire  1 A' mod_data_bridge_enable $end
   $var wire  1 A' mod_data_bridge_enable_driver $end
   $var wire 12 u) mod_iq_payload_cha_i [11:0] $end
   $var wire 12 }) mod_iq_payload_cha_q [11:0] $end
   $var wire  1 m) mod_iq_valid $end
   $var wire  2 Y' mod_rtl_bridge_select [1:0] $end
   $var wire  2 Y' mod_rtl_bridge_select_driver [1:0] $end
   $var wire  1 O* readHaltRequest $end
   $var wire  1 G* readOccur $end
   $var wire 32 M! readRsp_data [31:0] $end
   $var wire  2 W* readRsp_resp [1:0] $end
   $var wire  1 ?* reset $end
   $var wire  1 # rfClockArea_mod_data_div_base_data_ready $end
   $var wire 24 /" rfClockArea_mod_data_div_unit_data_payload [23:0] $end
   $var wire  1 '" rfClockArea_mod_data_div_unit_data_valid $end
   $var wire 12 3 rfClockArea_mod_rtl_data_flow_mod_iq_payload_cha_i [11:0] $end
   $var wire 12 ; rfClockArea_mod_rtl_data_flow_mod_iq_payload_cha_q [11:0] $end
   $var wire  1 + rfClockArea_mod_rtl_data_flow_mod_iq_valid $end
   $var wire  4 }! rfClockArea_mod_rtl_data_flow_unit_data_payload [3:0] $end
   $var wire  1 '* rf_clk $end
   $var wire  1 /* rf_resetn $end
   $var wire  1 e! when_Stream_l342 $end
   $var wire  1 u! when_Stream_l342_1 $end
   $var wire  1 O* writeHaltRequest $end
   $var wire  1 =! writeJoinEvent_fire $end
   $var wire  1 5! writeJoinEvent_ready $end
   $var wire  2 W* writeJoinEvent_translated_payload_resp [1:0] $end
   $var wire  1 5! writeJoinEvent_translated_ready $end
   $var wire  1 -! writeJoinEvent_translated_valid $end
   $var wire  1 -! writeJoinEvent_valid $end
   $var wire  1 =! writeOccur $end
   $var wire  2 W* writeRsp_resp [1:0] $end
   $scope module clkCrossing_10 $end
    $var wire  1 !' area_clkI_reg [0:0] $end
    $var wire  1 G& area_clkO_buf0 [0:0] $end
    $var wire  1 O" area_clkO_buf1 [0:0] $end
    $var wire  1 7* clk $end
    $var wire  1 a' dataIn [0:0] $end
    $var wire  1 O" dataOut [0:0] $end
    $var wire  1 ?* reset $end
    $var wire  1 '* rf_clk $end
    $var wire  1 /* rf_resetn $end
   $upscope $end
   $scope module clkCrossing_11 $end
    $var wire 32 )' area_clkI_reg [31:0] $end
    $var wire 32 O& area_clkO_buf0 [31:0] $end
    $var wire 32 W" area_clkO_buf1 [31:0] $end
    $var wire  1 7* clk $end
    $var wire 32 i' dataIn [31:0] $end
    $var wire 32 W" dataOut [31:0] $end
    $var wire  1 ?* reset $end
    $var wire  1 '* rf_clk $end
    $var wire  1 /* rf_resetn $end
   $upscope $end
   $scope module clkCrossing_12 $end
    $var wire 32 1' area_clkI_reg [31:0] $end
    $var wire 32 W& area_clkO_buf0 [31:0] $end
    $var wire 32 _" area_clkO_buf1 [31:0] $end
    $var wire  1 7* clk $end
    $var wire 32 q' dataIn [31:0] $end
    $var wire 32 _" dataOut [31:0] $end
    $var wire  1 ?* reset $end
    $var wire  1 '* rf_clk $end
    $var wire  1 /* rf_resetn $end
   $upscope $end
   $scope module clkCrossing_13 $end
    $var wire  2 9' area_clkI_reg [1:0] $end
    $var wire  2 _& area_clkO_buf0 [1:0] $end
    $var wire  2 g" area_clkO_buf1 [1:0] $end
    $var wire  1 7* clk $end
    $var wire  2 Y' dataIn [1:0] $end
    $var wire  2 g" dataOut [1:0] $end
    $var wire  1 ?* reset $end
    $var wire  1 '* rf_clk $end
    $var wire  1 /* rf_resetn $end
   $upscope $end
   $scope module clkCrossing_7 $end
    $var wire  1 g& area_clkI_reg $end
    $var wire  1 /& area_clkO_buf0 $end
    $var wire  1 7" area_clkO_buf1 $end
    $var wire  1 7* clk $end
    $var wire  1 A' dataIn $end
    $var wire  1 7" dataOut $end
    $var wire  1 ?* reset $end
    $var wire  1 '* rf_clk $end
    $var wire  1 /* rf_resetn $end
   $upscope $end
   $scope module clkCrossing_8 $end
    $var wire  5 o& area_clkI_reg [4:0] $end
    $var wire  5 7& area_clkO_buf0 [4:0] $end
    $var wire  5 ?" area_clkO_buf1 [4:0] $end
    $var wire  1 7* clk $end
    $var wire  5 I' dataIn [4:0] $end
    $var wire  5 ?" dataOut [4:0] $end
    $var wire  1 ?* reset $end
    $var wire  1 '* rf_clk $end
    $var wire  1 /* rf_resetn $end
   $upscope $end
   $scope module clkCrossing_9 $end
    $var wire  5 w& area_clkI_reg [4:0] $end
    $var wire  5 ?& area_clkO_buf0 [4:0] $end
    $var wire  5 G" area_clkO_buf1 [4:0] $end
    $var wire  1 7* clk $end
    $var wire  5 Q' dataIn [4:0] $end
    $var wire  5 G" dataOut [4:0] $end
    $var wire  1 ?* reset $end
    $var wire  1 '* rf_clk $end
    $var wire  1 /* rf_resetn $end
   $upscope $end
   $scope module rfClockArea_mod_data_div $end
    $var wire 24 /" base_buffer [23:0] $end
    $var wire  5 o" base_cnt [4:0] $end
    $var wire  1 E! base_data_fire $end
    $var wire 24 +( base_data_payload [23:0] $end
    $var wire  1 # base_data_ready $end
    $var wire  1 y' base_data_valid $end
    $var wire  1 # base_ready $end
    $var wire  5 G" cnt_limit [4:0] $end
    $var wire  5 ?" cnt_step [4:0] $end
    $var wire  1 7" enable $end
    $var wire  1 '* rf_clk $end
    $var wire  1 /* rf_resetn $end
    $var wire 24 /" unit_data_payload [23:0] $end
    $var wire  1 '" unit_data_valid $end
    $var wire  1 '" unit_valid $end
    $var wire  1 w" when_dataDivDynamic_l40 $end
    $var wire  1 C when_dataDivDynamic_l47 $end
   $upscope $end
   $scope module rfClockArea_mod_rtl $end
    $var wire 12 3 data_flow_mod_iq_payload_cha_i [11:0] $end
    $var wire 12 ; data_flow_mod_iq_payload_cha_q [11:0] $end
    $var wire  1 + data_flow_mod_iq_valid $end
    $var wire  4 }! data_flow_unit_data_payload [3:0] $end
    $var wire  1 '" data_flow_unit_data_valid $end
    $var wire  4 Y# flowDeMux_1_outputs_0_payload [3:0] $end
    $var wire  1 Q# flowDeMux_1_outputs_0_valid $end
    $var wire  4 i# flowDeMux_1_outputs_1_payload [3:0] $end
    $var wire  1 a# flowDeMux_1_outputs_1_valid $end
    $var wire  4 y# flowDeMux_1_outputs_2_payload [3:0] $end
    $var wire  1 q# flowDeMux_1_outputs_2_valid $end
    $var wire  4 +$ flowDeMux_1_outputs_3_payload [3:0] $end
    $var wire  1 #$ flowDeMux_1_outputs_3_valid $end
    $var wire 12 3 flowMux_1_output_payload_cha_i [11:0] $end
    $var wire 12 ; flowMux_1_output_payload_cha_q [11:0] $end
    $var wire  1 + flowMux_1_output_valid $end
    $var wire 12 K mPSK_Modulator_Extension_mod_1_mod_iq_payload_cha_i [11:0] $end
    $var wire 12 S mPSK_Modulator_Extension_mod_1_mod_iq_payload_cha_q [11:0] $end
    $var wire  1 K$ mPSK_Modulator_Extension_mod_1_mod_iq_valid $end
    $var wire  2 )# mPSK_Modulator_Extension_mod_1_unit_data_payload [1:0] $end
    $var wire 12 ;$ mPSK_Modulator_Extension_mod_mod_iq_payload_cha_i [11:0] $end
    $var wire 12 C$ mPSK_Modulator_Extension_mod_mod_iq_payload_cha_q [11:0] $end
    $var wire  1 3$ mPSK_Modulator_Extension_mod_mod_iq_valid $end
    $var wire  1 !# mPSK_Modulator_Extension_mod_unit_data_payload [0:0] $end
    $var wire 12 [$ mQAM_Modulator_Extension_mod_mod_iq_payload_cha_i [11:0] $end
    $var wire 12 c$ mQAM_Modulator_Extension_mod_mod_iq_payload_cha_q [11:0] $end
    $var wire  1 S$ mQAM_Modulator_Extension_mod_mod_iq_valid $end
    $var wire 12 c mod_1_data_flow_mod_iq_payload_cha_i [11:0] $end
    $var wire 12 k mod_1_data_flow_mod_iq_payload_cha_q [11:0] $end
    $var wire  1 [ mod_1_data_flow_mod_iq_valid $end
    $var wire  8 I# mod_1_data_flow_unit_data_payload [7:0] $end
    $var wire  8 9# mod_1_w_addr [7:0] $end
    $var wire 24 A# mod_1_w_data [23:0] $end
    $var wire  1 1# mod_1_w_en $end
    $var wire  1 '* rf_clk $end
    $var wire  1 /* rf_resetn $end
    $var wire  2 g" select_1 [1:0] $end
    $var wire 32 W" w_addr [31:0] $end
    $var wire 32 _" w_data [31:0] $end
    $var wire  1 O" w_en [0:0] $end
    $scope module flowDeMux_1 $end
     $var wire  4 }! input_payload [3:0] $end
     $var wire  1 '" input_valid $end
     $var wire  4 Y# outputs_0_payload [3:0] $end
     $var wire  1 Q# outputs_0_valid $end
     $var wire  4 i# outputs_1_payload [3:0] $end
     $var wire  1 a# outputs_1_valid $end
     $var wire  4 y# outputs_2_payload [3:0] $end
     $var wire  1 q# outputs_2_valid $end
     $var wire  4 +$ outputs_3_payload [3:0] $end
     $var wire  1 #$ outputs_3_valid $end
     $var wire  2 g" select_1 [1:0] $end
     $var wire  1 k$ when_FlowDeMux_l15 $end
     $var wire  1 s$ when_FlowDeMux_l15_1 $end
     $var wire  1 {$ when_FlowDeMux_l15_2 $end
     $var wire  1 %% when_FlowDeMux_l15_3 $end
    $upscope $end
    $scope module flowMux_1 $end
     $var wire 12 ;$ inputs_0_payload_cha_i [11:0] $end
     $var wire 12 C$ inputs_0_payload_cha_q [11:0] $end
     $var wire  1 3$ inputs_0_valid $end
     $var wire 12 K inputs_1_payload_cha_i [11:0] $end
     $var wire 12 S inputs_1_payload_cha_q [11:0] $end
     $var wire  1 K$ inputs_1_valid $end
     $var wire 12 [$ inputs_2_payload_cha_i [11:0] $end
     $var wire 12 c$ inputs_2_payload_cha_q [11:0] $end
     $var wire  1 S$ inputs_2_valid $end
     $var wire 12 c inputs_3_payload_cha_i [11:0] $end
     $var wire 12 k inputs_3_payload_cha_q [11:0] $end
     $var wire  1 [ inputs_3_valid $end
     $var wire 12 3 output_payload_cha_i [11:0] $end
     $var wire 12 ; output_payload_cha_q [11:0] $end
     $var wire  1 + output_valid $end
     $var wire  2 g" select_1 [1:0] $end
    $upscope $end
    $scope module mPSK_Modulator_Extension_mod $end
     $var wire 24 _* codeTable_0 [23:0] $end
     $var wire 24 g* codeTable_1 [23:0] $end
     $var wire 12 =% mod_iq_0 [11:0] $end
     $var wire 12 E% mod_iq_1 [11:0] $end
     $var wire 12 ;$ mod_iq_payload_cha_i [11:0] $end
     $var wire 12 C$ mod_iq_payload_cha_q [11:0] $end
     $var wire  1 3$ mod_iq_valid $end
     $var wire  1 '* rf_clk $end
     $var wire  1 /* rf_resetn $end
     $var wire  1 -% unit_data [0:0] $end
     $var wire  1 !# unit_data_payload [0:0] $end
     $var wire  1 Q# unit_data_valid $end
     $var wire  1 5% unit_valid $end
    $upscope $end
    $scope module mPSK_Modulator_Extension_mod_1 $end
     $var wire 24 o* codeTable_0 [23:0] $end
     $var wire 24 w* codeTable_1 [23:0] $end
     $var wire 24 !+ codeTable_2 [23:0] $end
     $var wire 24 )+ codeTable_3 [23:0] $end
     $var wire 12 s mod_iq_0 [11:0] $end
     $var wire 12 { mod_iq_1 [11:0] $end
     $var wire 12 K mod_iq_payload_cha_i [11:0] $end
     $var wire 12 S mod_iq_payload_cha_q [11:0] $end
     $var wire  1 K$ mod_iq_valid $end
     $var wire  1 '* rf_clk $end
     $var wire  1 /* rf_resetn $end
     $var wire  2 M% unit_data [1:0] $end
     $var wire  2 )# unit_data_payload [1:0] $end
     $var wire  1 a# unit_data_valid $end
     $var wire  1 U% unit_valid $end
    $upscope $end
    $scope module mQAM_Modulator_Extension_mod $end
     $var wire 12 1+ codeTableI_0 [11:0] $end
     $var wire 12 9+ codeTableI_1 [11:0] $end
     $var wire 12 A+ codeTableI_2 [11:0] $end
     $var wire 12 I+ codeTableI_3 [11:0] $end
     $var wire 12 1+ codeTableQ_0 [11:0] $end
     $var wire 12 9+ codeTableQ_1 [11:0] $end
     $var wire 12 A+ codeTableQ_2 [11:0] $end
     $var wire 12 I+ codeTableQ_3 [11:0] $end
     $var wire  2 m% data_div_0 [1:0] $end
     $var wire  2 u% data_div_1 [1:0] $end
     $var wire 12 [$ mod_iq_payload_cha_i [11:0] $end
     $var wire 12 c$ mod_iq_payload_cha_q [11:0] $end
     $var wire  1 S$ mod_iq_valid $end
     $var wire  1 '* rf_clk $end
     $var wire  1 /* rf_resetn $end
     $var wire  4 ]% unit_data [3:0] $end
     $var wire  4 y# unit_data_payload [3:0] $end
     $var wire  1 q# unit_data_valid $end
     $var wire  1 e% unit_valid $end
    $upscope $end
    $scope module mod_1 $end
     $var wire 12 c data_flow_mod_iq_payload_cha_i [11:0] $end
     $var wire 12 k data_flow_mod_iq_payload_cha_q [11:0] $end
     $var wire  1 [ data_flow_mod_iq_valid $end
     $var wire  8 I# data_flow_unit_data_payload [7:0] $end
     $var wire  1 #$ data_flow_unit_data_valid $end
     $var wire  1 '* rf_clk $end
     $var wire  1 /* rf_resetn $end
     $var wire  8 }% unit_data [7:0] $end
     $var wire  1 '& unit_valid $end
     $var wire  8 9# w_addr [7:0] $end
     $var wire 24 A# w_data [23:0] $end
     $var wire  1 1# w_en $end
     $var wire  1 %! when_lookUpMod_l84 $end
    $upscope $end
   $upscope $end
  $upscope $end
 $upscope $end
$enddefinitions $end


#0
0#
0+
b000000000000 3
b000000000000 ;
0C
b000000000000 K
b000000000000 S
0[
b000000000000 c
b000000000000 k
b101001011001 s
b101001011001 {
0%!
1-!
15!
1=!
0E!
b00000000000000000000000000000000 M!
b11011110 U!
b111 ]!
1e!
0m!
1u!
b0000 }!
0'"
b000000000000000000000000 /"
07"
b10100 ?"
b11111 G"
1O"
b01000100011001001100100110101100 W"
b01010101101100010011010011010000 _"
b01 g"
b00000 o"
1w"
0!#
b00 )#
01#
b10101100 9#
b101100010011010011010000 A#
b00000000 I#
0Q#
b0000 Y#
0a#
b0000 i#
0q#
b0000 y#
0#$
b0000 +$
03$
b000000000000 ;$
b000000000000 C$
0K$
0S$
b000000000000 [$
b000000000000 c$
1k$
0s$
1{$
1%%
0-%
05%
b000000000000 =%
b100000000001 E%
b00 M%
0U%
b0000 ]%
0e%
b00 m%
b00 u%
b00000000 }%
0'&
1/&
b00100 7&
b10111 ?&
1G&
b10110010100101100011101110111101 O&
b01001100010111100001000000100100 W&
b01 _&
1g&
b00100 o&
b10111 w&
1!'
b10110010100101100011101110111101 )'
b01001100010111100001000000100100 1'
b01 9'
0A'
b00000 I'
b00000 Q'
b00 Y'
1a'
b00000000000000000000000000000000 i'
b00000000000000000000000000000000 q'
0y'
0#(
b100110111010011101100100 +(
13(
1;(
b00000000 C(
b110 K(
1S(
1[(
b00000000000000000000000000000000 c(
b1111 k(
0s(
1{(
b00 %)
0-)
15)
b01000001 =)
b101 E)
0M)
1U)
b00000000000000000000000000000000 ])
b00 e)
0m)
b000000000000 u)
b000000000000 })
1'*
0/*
07*
1?*
0G*
0O*
b00 W*
b100000000001000000000000 _*
b011111111111000000000000 g*
b101001011001101001011001 o*
b101001011001010110100111 w*
b010110100111101001011001 !+
b010110100111010110100111 )+
b110000110101 1+
b111010111100 9+
b001111001010 A+
b000101000011 I+
#1
0'*
#2
17"
b00100 ?"
b10111 G"
b10110010100101100011101110111101 W"
b01001100010111100001000000100100 _"
0w"
b10111101 9#
b010111100001000000100100 A#
1'*
#3
0'*
#4
1'*
#5
0'*
#6
1'*
#7
0'*
#8
1'*
#9
0'*
#10
1'*
#11
0'*
#12
1'*
#13
0'*
#14
1'*
#15
0'*
#16
1'*
#17
0'*
#18
1'*
#19
0'*
#20
1'*
#21
0'*
#22
1'*
#23
0'*
#24
1'*
#25
0'*
#26
1'*
#27
0'*
#28
1'*
#29
0'*
#30
1'*
#31
0'*
#32
1'"
b00100 o"
1a#
1'*
1/*
#33
0'*
#34
1+
b101001011001 3
b101001011001 ;
b101001011001 K
b101001011001 S
b01000 o"
1K$
1U%
1m)
b101001011001 u)
b101001011001 })
1'*
#35
0'*
#36
b01100 o"
1'*
#37
0'*
#38
b10000 o"
1'*
#39
0'*
#40
b10100 o"
1'*
#41
0'*
#42
b11000 o"
1'*
#43
0'*
#44
b11100 o"
1'*
#45
0'*
#46
b00000 o"
1'*
#47
0'*
#48
b00100 o"
1'*
#49
0'*
#50
b01000 o"
1'*
#51
0'*
#52
b01100 o"
1'*
#53
0'*
#54
b10000 o"
1'*
#55
0'*
#56
b10100 o"
1'*
#57
0'*
#58
b11000 o"
1'*
#59
0'*
#60
b11100 o"
1'*
#61
0'*
#62
b00000 o"
1'*
#63
0'*
#64
b00100 o"
1'*
#65
0'*
#66
b01000 o"
1'*
#67
0'*
#68
b01100 o"
1'*
#69
0'*
#70
b10000 o"
1'*
#71
0'*
#72
b10100 o"
1'*
#73
0'*
#74
b11000 o"
1'*
#75
0'*
#76
b11100 o"
1'*
#77
0'*
#78
b00000 o"
1'*
#79
0'*
#80
b00100 o"
1'*
0?*
#81
0'*
#82
b01000 o"
1'*
#83
0'*
#84
b01100 o"
1'*
#85
b01000001 U!
b101 ]!
0e!
0g&
b00000 o&
b00000 w&
b00000000000000000000000000000000 )'
b00000000000000000000000000000000 1'
b00 9'
b00000100 C(
b00000000000000000000000000000010 c(
1s(
0'*
17*
#86
b10000 o"
0/&
b00000 7&
b00000 ?&
b00000000000000000000000000000000 O&
b00000000000000000000000000000000 W&
b00 _&
1'*
#87
0'*
07*
#88
0+
b000000000000 3
b000000000000 ;
07"
b00000 ?"
b00000 G"
b00000000000000000000000000000000 W"
b00000000000000000000000000000000 _"
b00 g"
b10100 o"
1w"
b00000000 9#
b000000000000000000000000 A#
1Q#
0a#
0k$
1s$
0m)
b000000000000 u)
b000000000000 })
1'*
#89
b00010 I'
b00001000 C(
b00000000000000000000000000100010 c(
0'*
17*
#90
1+
b100000000001 3
1C
b000000000000 K
b000000000000 S
0'"
b00000 o"
0Q#
13$
b100000000001 ;$
0K$
15%
0U%
1m)
b100000000001 u)
1'*
#91
0'*
07*
#92
0+
b000000000000 3
03$
b000000000000 ;$
05%
0m)
b000000000000 u)
1'*
#93
b00010 o&
b00010 Q'
b00010000 C(
b00000000000000000000000000000001 c(
0'*
17*
#94
b00010 7&
1'*
#95
0'*
07*
#96
b00010 ?"
1'*
#97
b00010 w&
b01 Y'
b00010100 C(
0'*
17*
#98
b00010 ?&
1'*
#99
0'*
07*
#100
0C
b00010 G"
1'*
#101
b01 9'
b00011000 C(
b00000000000000000000000000000000 c(
0'*
17*
#102
1C
b00010 o"
b01 _&
1'*
#103
0'*
07*
#104
b01 g"
1k$
0s$
1'*
#105
b00011100 C(
b00000000000000000000010000000000 c(
0'*
17*
#106
1'*
#107
0'*
07*
#108
1'*
#109
b00000000000000000000010000000000 q'
b00011000 C(
b00000000000000000000000000000001 c(
0'*
17*
#110
1'*
#111
0'*
07*
#112
1'*
#113
b00000000000000000000010000000000 1'
b00000000000000000000000000000001 i'
b00011100 C(
b00000000000000000000010000011111 c(
0'*
17*
#114
b00000000000000000000010000000000 W&
1'*
#115
0'*
07*
#116
b00000000000000000000010000000000 _"
b000000000000010000000000 A#
1'*
#117
b00000000000000000000000000000001 )'
b00000000000000000000010000011111 q'
b00011000 C(
b00000000000000000000000000000010 c(
0'*
17*
#118
b00000000000000000000000000000001 O&
1'*
#119
0'*
07*
#120
b00000000000000000000000000000001 W"
b00000001 9#
1'*
#121
b00000000000000000000010000011111 1'
b00000000000000000000000000000010 i'
b00011100 C(
b00000000000000000000010000111110 c(
0'*
17*
#122
b00000000000000000000010000011111 W&
1'*
#123
0'*
07*
#124
b00000000000000000000010000011111 _"
b000000000000010000011111 A#
1'*
#125
b00000000000000000000000000000010 )'
b00000000000000000000010000111110 q'
b00011000 C(
b00000000000000000000000000000011 c(
0'*
17*
#126
b00000000000000000000000000000010 O&
1'*
#127
0'*
07*
#128
b00000000000000000000000000000010 W"
b00000010 9#
1'*
#129
b00000000000000000000010000111110 1'
b00000000000000000000000000000011 i'
b00011100 C(
b00000000000000000000010001011110 c(
0'*
17*
#130
b00000000000000000000010000111110 W&
1'*
#131
0'*
07*
#132
b00000000000000000000010000111110 _"
b000000000000010000111110 A#
1'*
#133
b00000000000000000000000000000011 )'
b00000000000000000000010001011110 q'
b00011000 C(
b00000000000000000000000000000100 c(
0'*
17*
#134
b00000000000000000000000000000011 O&
1'*
#135
0'*
07*
#136
b00000000000000000000000000000011 W"
b00000011 9#
1'*
#137
b00000000000000000000010001011110 1'
b00000000000000000000000000000100 i'
b00011100 C(
b00000000000000000000010001111101 c(
0'*
17*
#138
b00000000000000000000010001011110 W&
1'*
#139
0'*
07*
#140
b00000000000000000000010001011110 _"
b000000000000010001011110 A#
1'*
#141
b00000000000000000000000000000100 )'
b00000000000000000000010001111101 q'
b00011000 C(
b00000000000000000000000000000101 c(
0'*
17*
#142
b00000000000000000000000000000100 O&
1'*
#143
0'*
07*
#144
b00000000000000000000000000000100 W"
b00000100 9#
1'*
#145
b00000000000000000000010001111101 1'
b00000000000000000000000000000101 i'
b00011100 C(
b00000000000000000000010010011100 c(
0'*
17*
#146
b00000000000000000000010001111101 W&
1'*
#147
0'*
07*
#148
b00000000000000000000010001111101 _"
b000000000000010001111101 A#
1'*
#149
b00000000000000000000000000000101 )'
b00000000000000000000010010011100 q'
b00011000 C(
b00000000000000000000000000000110 c(
0'*
17*
#150
b00000000000000000000000000000101 O&
1'*
#151
0'*
07*
#152
b00000000000000000000000000000101 W"
b00000101 9#
1'*
#153
b00000000000000000000010010011100 1'
b00000000000000000000000000000110 i'
b00011100 C(
b00000000000000000000010010111011 c(
0'*
17*
#154
b00000000000000000000010010011100 W&
1'*
#155
0'*
07*
#156
b00000000000000000000010010011100 _"
b000000000000010010011100 A#
1'*
#157
b00000000000000000000000000000110 )'
b00000000000000000000010010111011 q'
b00011000 C(
b00000000000000000000000000000111 c(
0'*
17*
#158
b00000000000000000000000000000110 O&
1'*
#159
0'*
07*
#160
b00000000000000000000000000000110 W"
b00000110 9#
1'*
#161
b00000000000000000000010010111011 1'
b00000000000000000000000000000111 i'
b00011100 C(
b00000000000000000000010011011010 c(
0'*
17*
#162
b00000000000000000000010010111011 W&
1'*
#163
0'*
07*
#164
b00000000000000000000010010111011 _"
b000000000000010010111011 A#
1'*
#165
b00000000000000000000000000000111 )'
b00000000000000000000010011011010 q'
b00011000 C(
b00000000000000000000000000001000 c(
0'*
17*
#166
b00000000000000000000000000000111 O&
1'*
#167
0'*
07*
#168
b00000000000000000000000000000111 W"
b00000111 9#
1'*
#169
b00000000000000000000010011011010 1'
b00000000000000000000000000001000 i'
b00011100 C(
b00000000000000000000010011111000 c(
0'*
17*
#170
b00000000000000000000010011011010 W&
1'*
#171
0'*
07*
#172
b00000000000000000000010011011010 _"
b000000000000010011011010 A#
1'*
#173
b00000000000000000000000000001000 )'
b00000000000000000000010011111000 q'
b00011000 C(
b00000000000000000000000000001001 c(
0'*
17*
#174
b00000000000000000000000000001000 O&
1'*
#175
0'*
07*
#176
b00000000000000000000000000001000 W"
b00001000 9#
1'*
#177
b00000000000000000000010011111000 1'
b00000000000000000000000000001001 i'
b00011100 C(
b00000000000000000000010100010111 c(
0'*
17*
#178
b00000000000000000000010011111000 W&
1'*
#179
0'*
07*
#180
b00000000000000000000010011111000 _"
b000000000000010011111000 A#
1'*
#181
b00000000000000000000000000001001 )'
b00000000000000000000010100010111 q'
b00011000 C(
b00000000000000000000000000001010 c(
0'*
17*
#182
b00000000000000000000000000001001 O&
1'*
#183
0'*
07*
#184
b00000000000000000000000000001001 W"
b00001001 9#
1'*
#185
b00000000000000000000010100010111 1'
b00000000000000000000000000001010 i'
b00011100 C(
b00000000000000000000010100110101 c(
0'*
17*
#186
b00000000000000000000010100010111 W&
1'*
#187
0'*
07*
#188
b00000000000000000000010100010111 _"
b000000000000010100010111 A#
1'*
#189
b00000000000000000000000000001010 )'
b00000000000000000000010100110101 q'
b00011000 C(
b00000000000000000000000000001011 c(
0'*
17*
#190
b00000000000000000000000000001010 O&
1'*
#191
0'*
07*
#192
b00000000000000000000000000001010 W"
b00001010 9#
1'*
#193
b00000000000000000000010100110101 1'
b00000000000000000000000000001011 i'
b00011100 C(
b00000000000000000000010101010011 c(
0'*
17*
#194
b00000000000000000000010100110101 W&
1'*
#195
0'*
07*
#196
b00000000000000000000010100110101 _"
b000000000000010100110101 A#
1'*
#197
b00000000000000000000000000001011 )'
b00000000000000000000010101010011 q'
b00011000 C(
b00000000000000000000000000001100 c(
0'*
17*
#198
b00000000000000000000000000001011 O&
1'*
#199
0'*
07*
#200
b00000000000000000000000000001011 W"
b00001011 9#
1'*
#201
b00000000000000000000010101010011 1'
b00000000000000000000000000001100 i'
b00011100 C(
b00000000000000000000010101110000 c(
0'*
17*
#202
b00000000000000000000010101010011 W&
1'*
#203
0'*
07*
#204
b00000000000000000000010101010011 _"
b000000000000010101010011 A#
1'*
#205
b00000000000000000000000000001100 )'
b00000000000000000000010101110000 q'
b00011000 C(
b00000000000000000000000000001101 c(
0'*
17*
#206
b00000000000000000000000000001100 O&
1'*
#207
0'*
07*
#208
b00000000000000000000000000001100 W"
b00001100 9#
1'*
#209
b00000000000000000000010101110000 1'
b00000000000000000000000000001101 i'
b00011100 C(
b00000000000000000000010110001101 c(
0'*
17*
#210
b00000000000000000000010101110000 W&
1'*
#211
0'*
07*
#212
b00000000000000000000010101110000 _"
b000000000000010101110000 A#
1'*
#213
b00000000000000000000000000001101 )'
b00000000000000000000010110001101 q'
b00011000 C(
b00000000000000000000000000001110 c(
0'*
17*
#214
b00000000000000000000000000001101 O&
1'*
#215
0'*
07*
#216
b00000000000000000000000000001101 W"
b00001101 9#
1'*
#217
b00000000000000000000010110001101 1'
b00000000000000000000000000001110 i'
b00011100 C(
b00000000000000000000010110101010 c(
0'*
17*
#218
b00000000000000000000010110001101 W&
1'*
