simWorkspace/ConvEncoder/test.vcd
$version Generated by VerilatedVcd $end
$date Thu Nov 18 14:04:19 2021
 $end
$timescale   1ns $end

 $scope module TOP $end
  $var wire  1 }! clk $end
  $var wire 14 u! coded_data_payload_fragment [13:0] $end
  $var wire  1 m! coded_data_payload_last $end
  $var wire  1 e! coded_data_valid $end
  $var wire  7 ]! raw_data_payload_fragment [6:0] $end
  $var wire  1 U! raw_data_payload_last $end
  $var wire  1 M! raw_data_ready $end
  $var wire  1 E! raw_data_valid $end
  $var wire  1 '" reset $end
  $var wire  3 =! tail_bits_payload [2:0] $end
  $var wire  1 5! tail_bits_valid $end
  $scope module ConvEncoder $end
   $var wire  1 }! clk $end
   $var wire  7 [ code_vec_0 [6:0] $end
   $var wire  7 c code_vec_1 [6:0] $end
   $var wire 14 %! coded_data [13:0] $end
   $var wire 14 u! coded_data_payload_fragment [13:0] $end
   $var wire  1 m! coded_data_payload_last $end
   $var wire  1 e! coded_data_valid $end
   $var wire  1 s coded_data_valid_1 $end
   $var wire  3 # r_enc_0 [2:0] $end
   $var wire  3 + r_enc_1 [2:0] $end
   $var wire  3 3 r_enc_2 [2:0] $end
   $var wire  3 ; r_enc_3 [2:0] $end
   $var wire  3 C r_enc_4 [2:0] $end
   $var wire  3 K r_enc_5 [2:0] $end
   $var wire  3 S r_enc_6 [2:0] $end
   $var wire  3 -! r_enc_buf [2:0] $end
   $var wire  1 k raw_data_fire $end
   $var wire  7 ]! raw_data_payload_fragment [6:0] $end
   $var wire  1 U! raw_data_payload_last $end
   $var wire  1 { raw_data_payload_last_regNext $end
   $var wire  1 M! raw_data_ready $end
   $var wire  1 E! raw_data_valid $end
   $var wire  1 '" reset $end
   $var wire  3 =! tail_bits_payload [2:0] $end
   $var wire  1 5! tail_bits_valid $end
  $upscope $end
 $upscope $end
$enddefinitions $end


#0
b100 #
b110 +
b011 3
b001 ;
b000 C
b000 K
b100 S
b1001001 [
b1001111 c
0k
0s
0{
b11001101011000 %!
b001 -!
05!
b000 =!
0E!
1M!
0U!
b1000011 ]!
0e!
0m!
b11001101011000 u!
0}!
1'"
#80
0'"
#85
1}!
#87
0}!
#89
1}!
#91
0}!
#93
1}!
#95
0}!
#97
1}!
#99
0}!
#101
1}!
#103
0}!
#105
1}!
#107
0}!
#109
1}!
#111
0}!
#113
1}!
#115
0}!
#117
1}!
#119
0}!
#121
15!
0M!
1}!
#123
0}!
#125
b000 -!
1}!
#127
0}!
#129
1}!
#131
0}!
#133
1}!
#135
0}!
#137
1}!
#139
0}!
#141
05!
1M!
1}!
#143
0}!
#145
b010 +
b001 3
b000 ;
b100 C
b110 K
b011 S
b0010111 [
b1110101 c
1k
1E!
b0110001 ]!
1}!
#147
0}!
#149
b001 #
b100 +
b010 3
b001 ;
b111 S
b1011111 [
b0111011 c
1s
b00101111110101 %!
b011 -!
b1110010 ]!
1e!
b00101111110101 u!
1}!
#151
0}!
#153
b011 #
b001 +
b000 3
b000 ;
b000 C
b100 K
b110 S
b0100010 [
b1100011 c
b10111110111011 %!
b111 -!
b1100000 ]!
b10111110111011 u!
1}!
#155
0}!
#157
b101 +
b010 3
b101 ;
b010 C
b001 K
b100 S
b1110100 [
b1100001 c
b01000101100011 %!
b110 -!
b1001010 ]!
b01000101100011 u!
1}!
#159
0}!
#161
b110 #
b111 +
b011 3
b001 ;
b100 C
b010 K
b101 S
b0111010 [
b0011101 c
b11101001100001 %!
b100 -!
b1010011 ]!
b11101001100001 u!
1}!
#163
0}!
#165
b011 +
b101 3
b010 ;
b001 C
b000 K
b100 S
b1011000 [
b1010011 c
b01110100011101 %!
b101 -!
b1000101 ]!
b01110100011101 u!
1}!
#167
0}!
#169
b001 3
b000 ;
b000 C
b100 K
b010 S
b1100100 [
b0100111 c
b10110001010011 %!
b100 -!
b0100001 ]!
b10110001010011 u!
1}!
#171
0}!
#173
b101 #
b110 +
b111 3
b111 ;
b011 C
b101 K
b1001100 [
b0010010 c
b11001000100111 %!
b010 -!
b0101111 ]!
b11001000100111 u!
1}!
#175
0}!
#177
b011 ;
b101 C
b010 K
b101 S
b0100100 [
b0001010 c
b10011000010010 %!
b1010111 ]!
b10011000010010 u!
1}!
#179
0}!
#181
b110 #
b011 +
b101 3
b010 ;
b001 C
b000 K
b000 S
b0011000 [
b0010011 c
b01001000001010 %!
b101 -!
b0000101 ]!
b01001000001010 u!
1}!
#183
0}!
#185
b100 #
b110 +
b111 3
b011 ;
b101 C
b110 K
b111 S
b1000101 [
b0101011 c
b00110000010011 %!
b000 -!
b1110111 ]!
b00110000010011 u!
1}!
#187
0}!
#189
b011 #
b001 +
b100 3
b010 ;
b010 K
b001 S
b1101110 [
b1000111 c
b10001010101011 %!
b111 -!
b0010100 ]!
b10001010101011 u!
1}!
#191
0}!
#193
b100 #
b110 +
b011 3
b001 ;
b000 C
b000 K
b100 S
b1001001 [
b1001111 c
b11011101000111 %!
b001 -!
b1000011 ]!
b11011101000111 u!
1}!
#195
0}!
#197
b010 #
b001 +
b000 3
b000 ;
b100 K
b110 S
b0100011 [
b1100010 c
b10010011001111 %!
b100 -!
b1100000 ]!
b10010011001111 u!
1}!
#199
0}!
#201
b111 #
b111 +
b011 3
b101 ;
b110 C
b111 K
b011 S
b1010100 c
b01000111100010 %!
b110 -!
b0111011 ]!
b01000111100010 u!
1}!
#203
0}!
#205
b001 #
b100 +
b110 3
b011 ;
b001 C
b000 K
b100 S
b1010011 [
b1011111 c
b01000111010100 %!
b011 -!
b1000110 ]!
b01000111010100 u!
1}!
#207
0}!
#209
b110 #
b111 +
b011 3
b001 ;
b000 C
b100 K
b110 S
b0101010 [
b1101101 c
b10100111011111 %!
b100 -!
b1100011 ]!
b10100111011111 u!
1}!
#211
0}!
#213
b011 #
b001 +
b100 3
b010 ;
b001 C
b0111110 [
b1110111 c
b01010101101101 %!
b110 -!
b1100100 ]!
b01010101101101 u!
1}!
#215
0}!
#217
b000 3
b100 ;
b010 C
b001 K
b100 S
b1111010 [
b1101011 c
b01111101110111 %!
b1001000 ]!
b01111101110111 u!
1}!
#219
0}!
#221
b010 #
b110 C
b111 K
b011 S
b0101011 [
b1011010 c
b11110101101011 %!
b100 -!
b0111000 ]!
b11110101101011 u!
1}!
#223
0}!
#225
b101 #
b010 +
b101 3
b010 ;
b001 C
b000 K
b100 S
b1011010 [
b1010000 c
b01010111011010 %!
b011 -!
b1000101 ]!
b01010111011010 u!
1}!
#227
0}!
#229
b110 #
b111 +
b111 3
b011 ;
b000 S
b0010110 [
b0011001 c
b10110101010000 %!
b100 -!
b0000111 ]!
b10110101010000 u!
1}!
#231
0}!
#233
b000 #
b100 +
b010 3
b001 ;
b000 C
b0001110 [
b0001010 c
b00101100011001 %!
b000 -!
b0000010 ]!
b00101100011001 u!
1}!
#235
0}!
#237
b100 #
b110 +
b111 3
b111 ;
b111 C
b111 K
b111 S
b1111101 [
b0000011 c
b00011100001010 %!
b1111111 ]!
b00011100001010 u!
1}!
#239
0}!
#241
b111 #
b011 +
b101 3
b110 ;
b011 S
b0110001 [
b1001010 c
b11111010000011 %!
b111 -!
b0111101 ]!
b11111010000011 u!
1}!
#243
0}!
#245
b101 #
b110 +
b111 3
b111 ;
b011 K
b001 S
b1011100 [
b1100010 c
b01100011001010 %!
b011 -!
b0011111 ]!
b01100011001010 u!
1}!
#247
0}!
#249
b000 #
b000 +
b100 3
b110 ;
b011 C
b001 K
b100 S
b1100100 [
b1111100 c
b10111001100010 %!
b001 -!
b1001100 ]!
b10111001100010 u!
1}!
#251
0}!
#253
b010 #
b101 +
b110 3
b011 ;
b101 C
b010 K
b101 S
b0100001 [
b0001100 c
b11001001111100 %!
b100 -!
b1010110 ]!
b11001001111100 u!
1}!
#255
0}!
#257
b010 3
b001 ;
b000 C
b100 K
b110 S
b0101101 [
b1101000 c
b01000010001100 %!
b101 -!
b1100010 ]!
b01000010001100 u!
1}!
#259
0}!
#261
b011 #
b101 ;
b010 C
b101 K
b0010100 [
b1000001 c
b01011011101000 %!
b110 -!
b1101010 ]!
b01011011101000 u!
1}!
#263
0}!
#265
b001 +
b000 3
b000 ;
b100 C
b010 K
b001 S
b1110010 [
b1010011 c
b00101001000001 %!
b0010000 ]!
b00101001000001 u!
1}!
#267
0}!
#269
b100 #
b110 +
b011 3
b101 ;
b110 C
b011 K
b1000001 [
b1110111 c
b11100101010011 %!
b001 -!
b0011011 ]!
b11100101010011 u!
1}!
#271
0}!
#273
b111 3
b111 ;
b011 C
b001 K
b000 S
b0101101 [
b0110011 c
b10000011110111 %!
b0001111 ]!
b10000011110111 u!
1}!
#275
0}!
#277
b000 #
b000 +
b000 3
b100 ;
b010 C
b0111000 [
b0101000 c
b01011010110011 %!
b000 -!
b0001000 ]!
b01011010110011 u!
1}!
#279
0}!
#281
b100 3
b110 ;
b111 C
b111 K
b011 S
b0110100 [
b1001100 c
b01110000101000 %!
b0111100 ]!
b01110000101000 u!
1}!
#283
0}!
#285
b001 #
b000 3
b000 ;
b100 C
b010 K
b101 S
b0110001 [
b0010001 c
b01101001001100 %!
b011 -!
b1010000 ]!
b01101001001100 u!
1}!
#287
0}!
#289
b110 #
b111 +
b011 3
b001 ;
b000 C
b100 K
b110 S
b0101010 [
b1101101 c
b01100010010001 %!
b101 -!
b1100011 ]!
b01100010010001 u!
1}!
#291
0}!
#293
b111 #
b101 ;
b110 C
b111 K
b111 S
b1100011 [
b0010100 c
b01010101101101 %!
b110 -!
b1111011 ]!
b01010101101101 u!
1}!
#295
0}!
#297
b111 3
b111 ;
b111 C
b011 S
b0111111 [
b1000000 c
b11000110010100 %!
b111 -!
b0111111 ]!
b11000110010100 u!
1}!
#299
0}!
#301
b101 #
b110 +
b011 3
b101 ;
b110 C
b011 K
b001 S
b1000000 [
b1110110 c
b01111111000000 %!
b011 -!
b0011011 ]!
b01111111000000 u!
1}!
#303
0}!
#305
b100 #
b010 +
b001 3
b000 ;
b000 C
b000 K
b100 S
b1000111 [
b1000101 c
b10000001110110 %!
b001 -!
b1000001 ]!
b10000001110110 u!
1}!
#307
0}!
#309
b010 #
b101 +
b110 3
b111 ;
b011 C
b101 K
b010 S
b1001001 [
b0010100 c
b10001111000101 %!
b100 -!
b0101110 ]!
b10001111000101 u!
1}!
#311
0}!
#313
b001 #
b000 +
b000 3
b000 ;
b100 C
b010 K
b001 S
b1110001 [
b1010001 c
b10010010010100 %!
b010 -!
b0010000 ]!
b10010010010100 u!
1}!
#315
0}!
#317
b000 #
b100 +
b110 3
b011 ;
b001 C
b000 K
b100 S
b1010010 [
b1011110 c
b11100011010001 %!
b001 -!
b1000110 ]!
b11100011010001 u!
1}!
#319
0}!
#321
b110 #
b011 +
b001 3
b000 ;
b100 C
b010 K
b101 S
b0110100 [
b0010111 c
b10100101011110 %!
b100 -!
b1010001 ]!
b10100101011110 u!
1}!
#323
0}!
#325
b111 +
b011 3
b101 ;
b010 C
b101 K
b110 S
b0010010 [
b1000101 c
b01101000010111 %!
b101 -!
b1101011 ]!
b01101000010111 u!
1}!
#327
0}!
#329
b011 #
b001 +
b000 3
b100 ;
b010 S
b1011010 [
b0001011 c
b00100101000101 %!
b110 -!
b0101000 ]!
b00100101000101 u!
1}!
#331
0}!
#333
b001 #
b000 +
b000 ;
b000 C
b000 K
b100 S
b1000001 [
b1000001 c
b10110100001011 %!
b010 -!
b1000000 ]!
b10110100001011 u!
1}!
#335
0}!
#337
b110 #
b011 +
b101 3
b110 ;
b111 C
b111 K
b111 S
b1110000 [
b0001011 c
b10000011000001 %!
b100 -!
b1111101 ]!
b10000011000001 u!
1}!
#339
0}!
#341
b111 #
b111 +
b011 3
b001 ;
b000 C
b100 K
b110 S
b0101011 [
b1101100 c
b11100000001011 %!
b111 -!
b1100011 ]!
b11100000001011 u!
1}!
#343
0}!
#345
b011 #
b101 +
b010 3
b000 K
b000 S
b0001100 [
b0001001 c
b01010111101100 %!
b110 -!
b0000010 ]!
b01010111101100 u!
1}!
#347
0}!
#349
b100 #
b010 +
b001 3
b100 ;
b110 C
b011 K
b001 S
b1001111 [
b1111101 c
b00011000001001 %!
b000 -!
b0011001 ]!
b00011000001001 u!
1}!
#351
0}!
#353
b101 3
b010 ;
b101 C
b110 K
b111 S
b1001011 [
b0100001 c
b10011111111101 %!
b001 -!
b1110101 ]!
b10011111111101 u!
1}!
#355
0}!
#357
b111 #
b111 +
b011 3
b101 ;
b010 C
b101 K
b010 S
b1010011 [
b0000100 c
b10010110100001 %!
b111 -!
b0101011 ]!
b10010110100001 u!
1}!
#359
0}!
#361
b001 #
b100 +
b010 3
b001 ;
b000 C
b100 K
b1101111 [
b0101011 c
b10100110000100 %!
b010 -!
b0100010 ]!
b10100110000100 u!
1}!
#363
0}!
#365
b101 ;
b010 C
b001 K
b000 S
b0110111 [
b0100011 c
b11011110101011 %!
b0001010 ]!
b11011110101011 u!
1}!
#367
0}!
#369
b100 #
b110 +
b011 3
b101 K
b010 S
b1010001 [
b0000111 c
b01101110100011 %!
b000 -!
b0101011 ]!
b01101110100011 u!
1}!
#371
0}!
#373
b101 #
b010 +
b001 3
b100 ;
b110 C
b111 K
b011 S
b0101110 [
b1011100 c
b10100010000111 %!
b010 -!
b0111001 ]!
b10100010000111 u!
1}!
#375
0}!
#377
b110 +
b011 3
b101 ;
b010 C
b001 K
b000 S
b0110000 [
b0100110 c
b01011101011100 %!
b011 -!
b0001011 ]!
b01011101011100 u!
1}!
#379
0}!
#381
b100 #
b101 K
b110 S
b0010001 [
b1000111 c
b01100000100110 %!
b000 -!
b1101011 ]!
b01100000100110 u!
1}!
#383
0}!
#385
b011 #
b001 +
b000 3
b100 ;
b110 C
b011 K
b101 S
b0001010 [
b0111011 c
b00100011000111 %!
b110 -!
b1011000 ]!
b00100011000111 u!
1}!
#387
0}!
#389
b110 #
b111 +
b011 3
b101 ;
b010 C
b101 K
b110 S
b0010010 [
b1000101 c
b00010100111011 %!
b101 -!
b1101011 ]!
b00010100111011 u!
1}!
#391
0}!
#393
b011 #
b001 +
b000 3
b100 ;
b001 K
b100 S
b1111010 [
b1101011 c
b00100101000101 %!
b110 -!
b1001000 ]!
b00100101000101 u!
1}!
#395
0}!
#397
b110 #
b111 +
b011 3
b101 ;
b110 C
b111 K
b011 S
b0100010 [
b1010101 c
b11110101101011 %!
b100 -!
b0111011 ]!
b11110101101011 u!
1}!
#399
0}!
#401
b101 #
b010 +
b101 3
b010 ;
b101 C
b110 K
b111 S
b1001010 [
b0100000 c
b01000101010101 %!
b011 -!
b1110101 ]!
b01000101010101 u!
1}!
#403
0}!
#405
b011 #
b001 +
b000 3
b000 ;
b000 C
b000 K
b000 S
b0000010 [
b0000011 c
b10010100100000 %!
b111 -!
b0000000 ]!
b10010100100000 u!
1}!
#407
0}!
#409
b000 #
b000 +
b100 3
b010 ;
b001 C
b100 K
b110 S
b0111100 [
b1110100 c
b00000100000011 %!
b000 -!
b1100100 ]!
b00000100000011 u!
1}!
#411
0}!
#413
b111 #
b011 +
b101 3
b110 ;
b111 C
b011 K
b001 S
b1010001 [
b1101010 c
b01111001110100 %!
b110 -!
b0011101 ]!
b01111001110100 u!
1}!
#415
0}!
#417
b100 #
b110 +
b011 3
b001 ;
b000 C
b000 K
b100 S
b1001001 [
b1001111 c
b10100011101010 %!
b001 -!
b1000011 ]!
b10100011101010 u!
1}!
#419
0}!
#421
b010 #
b001 +
b100 3
b110 ;
b111 C
b011 K
b001 S
b1010111 [
b1101110 c
b10010011001111 %!
b100 -!
b0011100 ]!
b10010011001111 u!
1}!
#423
0}!
#425
b000 #
b100 +
b010 3
b001 ;
b100 C
b110 K
b111 S
b1011110 [
b0111010 c
b10101111101110 %!
b001 -!
b1110010 ]!
b10101111101110 u!
1}!
#427
0}!
#429
b111 #
b011 +
b101 3
b010 ;
b101 C
b010 K
b101 S
b0101001 [
b0000010 c
b10111100111010 %!
b111 -!
b1010101 ]!
b10111100111010 u!
1}!
#431
0}!
#433
b010 #
b001 +
b100 3
b001 C
b000 K
b100 S
b1011111 [
b1010110 c
b01010010000010 %!
b101 -!
b1000100 ]!
b01010010000010 u!
1}!
#435
0}!
#437
b110 #
b011 +
b001 3
b100 ;
b010 C
b001 K
b1111100 [
b1101111 c
b10111111010110 %!
b100 -!
b1001001 ]!
b10111111010110 u!
1}!
#439
0}!
#441
b101 3
b010 ;
b001 C
b000 K
b000 S
b0011000 [
b0010011 c
b11111001101111 %!
b0000101 ]!
b11111001101111 u!
1}!
#443
0}!
#445
b000 #
b100 +
b110 3
b111 ;
b011 C
b001 K
b100 S
b1101010 [
b1110110 c
b00110000010011 %!
b000 -!
b1001110 ]!
b00110000010011 u!
1}!
#447
0}!
#449
b110 #
b111 +
b111 3
b111 C
b111 K
b011 S
b0111110 [
b1000001 c
b11010101110110 %!
b100 -!
b0111111 ]!
b11010101110110 u!
1}!
#451
0}!
#453
b101 #
b010 +
b001 3
b000 ;
b100 C
b110 K
b111 S
b1010110 [
b0110100 c
b01111101000001 %!
b011 -!
b1110001 ]!
b01111101000001 u!
1}!
#455
0}!
#457
b111 #
b011 +
b100 ;
b110 C
b111 K
b011 S
b0101101 [
b1011110 c
b10101100110100 %!
b111 -!
b0111001 ]!
b10101100110100 u!
1}!
#459
0}!
#461
b101 #
b110 +
b111 3
b011 ;
b101 C
b010 K
b001 S
b1100100 [
b1001010 c
b01011011011110 %!
b011 -!
b0010111 ]!
b01011011011110 u!
1}!
#463
0}!
#465
b000 #
b000 +
b000 3
b000 ;
b000 C
b000 K
b100 S
b1000000 [
b1000000 c
b11001001001010 %!
b001 -!
b1000000 ]!
b11001001001010 u!
1}!
#467
0}!
#469
b110 #
b011 +
b101 3
b010 ;
b001 C
b100 K
b110 S
b0111000 [
b1110011 c
b10000001000000 %!
b100 -!
b1100101 ]!
b10000001000000 u!
1}!
#471
0}!
#473
b111 #
b001 3
b100 ;
b010 C
b101 K
b010 S
b1011101 [
b0001110 c
b01110001110011 %!
b110 -!
b0101001 ]!
b01110001110011 u!
1}!
#475
0}!
#477
b101 #
b010 +
b000 ;
b000 C
b100 K
b110 S
b0100110 [
b1100100 c
b10111010001110 %!
b010 -!
b1100001 ]!
b10111010001110 u!
1}!
#479
0}!
#481
b111 #
b011 +
b101 3
b010 ;
b101 C
b010 K
b001 S
b1101001 [
b1000010 c
b01001101100100 %!
b110 -!
b0010101 ]!
b01001101100100 u!
1}!
#483
0}!
#485
b100 #
b010 +
b001 3
b100 ;
b110 C
b011 K
b101 S
b0001111 [
b0111101 c
b11010011000010 %!
b001 -!
b1011001 ]!
b11010011000010 u!
1}!
#487
0}!
#489
b010 #
b101 +
b110 3
b011 ;
b101 C
b110 K
b111 S
b1000001 [
b0101100 c
b00011110111101 %!
b101 -!
b1110110 ]!
b00011110111101 u!
1}!
#491
0}!
#493
b111 #
b111 +
b011 3
b001 ;
b000 C
b000 K
b000 S
b0001011 [
b0001100 c
b10000010101100 %!
b111 -!
b0000011 ]!
b10000010101100 u!
1}!
#495
0}!
#497
b000 #
b100 +
b010 3
b100 C
b010 K
b101 S
b0111110 [
b0011010 c
b00010110001100 %!
b000 -!
b1010010 ]!
b00010110001100 u!
1}!
#499
0}!
#501
b110 #
b011 +
b101 3
b010 ;
b001 C
b100 K
b110 S
b0111000 [
b1110011 c
b01111100011010 %!
b101 -!
b1100101 ]!
b01111100011010 u!
1}!
#503
0}!
#505
b111 #
b111 +
b111 3
b011 ;
b000 K
b100 S
b1010111 [
b1011000 c
b01110001110011 %!
b110 -!
b1000111 ]!
b01110001110011 u!
1}!
#507
0}!
#509
b110 #
b101 C
b110 K
b111 S
b1000110 [
b0101001 c
b10101111011000 %!
b100 -!
b1110111 ]!
b10101111011000 u!
1}!
#511
0}!
#513
b011 #
b101 +
b110 3
b111 ;
b011 C
b001 K
b100 S
b1101000 [
b1110101 c
b10001100101001 %!
b111 -!
b1001110 ]!
b10001100101001 u!
1}!
#515
0}!
#517
b110 #
b011 +
b101 3
b010 ;
b001 C
b000 K
b000 S
b0011000 [
b0010011 c
b11010001110101 %!
b100 -!
b0000101 ]!
b11010001110101 u!
1}!
#519
0}!
#521
b100 #
b110 +
b011 3
b001 ;
b000 C
b100 S
b1001001 [
b1001111 c
b00110000010011 %!
b000 -!
b1000011 ]!
b00110000010011 u!
1}!
#523
0}!
#525
b010 #
b101 +
b010 3
b101 ;
b110 C
b011 K
b101 S
b0000101 [
b0110000 c
b10010011001111 %!
b100 -!
b1011010 ]!
b10010011001111 u!
1}!
#527
0}!
#529
b001 +
b100 3
b010 ;
b001 C
b100 K
b010 S
b1111111 [
b0110110 c
b00001010110000 %!
b101 -!
b0100100 ]!
b00001010110000 u!
1}!
#531
0}!
#533
b001 #
b100 +
b010 3
b101 ;
b110 C
b011 K
b001 S
b1000111 [
b1110011 c
b11111110110110 %!
b010 -!
b0011010 ]!
b11111110110110 u!
1}!
#535
0}!
#537
b000 #
b000 +
b000 3
b100 ;
b1001000 [
b1111000 c
b10001111110011 %!
b001 -!
b0011000 ]!
b10001111110011 u!
1}!
#539
0}!
#541
b100 #
b110 +
b111 3
b111 ;
b011 C
b101 K
b110 S
b0001101 [
b1010011 c
b10010001111000 %!
b1101111 ]!
b10010001111000 u!
1}!
#543
0}!
#545
b111 #
b111 +
b011 3
b001 ;
b100 C
b110 K
b011 S
b0011011 [
b1111100 c
b00011011010011 %!
b110 -!
b0110011 ]!
b00011011010011 u!
1}!
#547
0}!
#549
b001 #
b000 +
b000 3
b100 ;
b010 C
b101 K
b110 S
b0011001 [
b1001001 c
b00110111111100 %!
b011 -!
b1101000 ]!
b00110111111100 u!
1}!
#551
0}!
#553
b011 #
b001 +
b110 C
b111 K
b111 S
b1101010 [
b0011011 c
b00110011001001 %!
b110 -!
b1111000 ]!
b00110011001001 u!
1}!
#555
0}!
#557
b111 #
b011 +
b101 3
b110 ;
b111 C
b011 K
b001 S
b1010001 [
b1101010 c
b11010100011011 %!
b111 -!
b0011101 ]!
b11010100011011 u!
1}!
#559
0}!
#561
b100 #
b110 +
b111 3
b111 ;
b1011101 [
b1100011 c
b10100011101010 %!
b001 -!
b0011111 ]!
b10100011101010 u!
1}!
#563
0}!
#565
b000 #
b100 +
b110 3
b011 ;
b101 C
b010 K
b1100010 [
b1001110 c
b10111011100011 %!
b0010110 ]!
b10111011100011 u!
1}!
#567
0}!
#569
b100 #
b110 +
b111 3
b1100101 [
b1001011 c
b11000101001110 %!
b0010111 ]!
b11000101001110 u!
1}!
#571
0}!
#573
b010 +
b101 3
b110 ;
b011 C
b101 K
b110 S
b0000011 [
b1011001 c
b11001011001011 %!
b1101101 ]!
b11001011001011 u!
1}!
#575
0}!
#577
b111 #
b011 +
b001 K
b100 S
b1100001 [
b1111010 c
b00000111011001 %!
b110 -!
b1001101 ]!
b00000111011001 u!
1}!
#579
0}!
#581
b110 #
b001 3
b000 ;
b100 C
b110 K
b011 S
b0010100 [
b1110111 c
b11000011111010 %!
b100 -!
b0110001 ]!
b11000011111010 u!
1}!
#583
0}!
#585
b001 #
b100 +
b110 3
b111 ;
b011 C
b101 K
b010 S
b1001011 [
b0010111 c
b00101001110111 %!
b011 -!
b0101110 ]!
b00101001110111 u!
1}!
#587
0}!
#589
b101 #
b010 +
b101 3
b110 ;
b001 K
b000 S
b0100010 [
b0111000 c
b10010110010111 %!
b010 -!
b0001101 ]!
b10010110010111 u!
1}!
#591
0}!
#593
b100 #
b110 +
b011 3
b101 ;
b010 C
b101 K
b110 S
b0010001 [
b1000111 c
b01000100111000 %!
b000 -!
b1101011 ]!
b01000100111000 u!
1}!
#595
0}!
#597
b011 #
b001 +
b000 3
b100 ;
b010 S
b1011010 [
b0001011 c
b00100011000111 %!
b110 -!
b0101000 ]!
b00100011000111 u!
1}!
#599
0}!
#601
b101 #
b110 +
b011 3
b101 ;
b110 C
b111 K
b111 S
b1100000 [
b0010110 c
b10110100001011 %!
b010 -!
b1111011 ]!
b10110100001011 u!
1}!
#603
0}!
#605
b111 #
b111 +
b111 3
b111 ;
b011 C
b001 K
b100 S
b1101111 [
b1110000 c
b11000000010110 %!
b111 -!
b1001111 ]!
b11000000010110 u!
1}!
#607
0}!
#609
b110 #
b011 +
b101 3
b010 ;
b001 C
b100 K
b110 S
b0111000 [
b1110011 c
b11011111110000 %!
b100 -!
b1100101 ]!
b11011111110000 u!
1}!
#611
0}!
#613
b111 #
b001 3
b000 ;
b100 C
b010 K
b101 S
b0110101 [
b0010110 c
b01110001110011 %!
b110 -!
b1010001 ]!
b01110001110011 u!
1}!
#615
0}!
#617
b110 #
b111 +
b111 3
b111 ;
b111 C
b111 K
b011 S
b0111110 [
b1000001 c
b01101010010110 %!
b101 -!
b0111111 ]!
b01101010010110 u!
1}!
#619
0}!
#621
b001 #
b100 +
b010 3
b101 ;
b010 C
b101 K
b010 S
b1010111 [
b0000011 c
b01111101000001 %!
b011 -!
b0101010 ]!
b01111101000001 u!
1}!
#623
0}!
#625
b101 #
b010 +
b001 3
b000 ;
b100 C
b110 K
b111 S
b1010110 [
b0110100 c
b10101110000011 %!
b010 -!
b1110001 ]!
b10101110000011 u!
1}!
#627
0}!
#629
b111 #
b111 +
b011 3
b001 ;
b000 C
b100 K
b110 S
b0101011 [
b1101100 c
b10101100110100 %!
b111 -!
b1100011 ]!
b10101100110100 u!
1}!
#631
0}!
#633
b011 #
b101 +
b110 3
b111 ;
b111 C
b111 K
b011 S
b0111000 [
b1000101 c
b01010111101100 %!
b110 -!
b0111110 ]!
b01010111101100 u!
1}!
#635
0}!
#637
b001 #
b000 +
b000 3
b100 ;
b110 C
b0101001 [
b1011001 c
b01110001000101 %!
b011 -!
b0111000 ]!
b01110001000101 u!
1}!
#639
0}!
#641
b101 #
b010 +
b101 3
b010 ;
b001 C
b000 K
b000 S
b0011010 [
b0010000 c
b01010011011001 %!
b0000101 ]!
b01010011011001 u!
1}!
#643
0}!
#645
b000 #
b100 +
b010 3
b101 ;
b110 C
b111 K
b111 S
b1100110 [
b0010010 c
b00110100010000 %!
b000 -!
b1111010 ]!
b00110100010000 u!
1}!
#647
0}!
#649
b111 #
b111 +
b011 3
b001 ;
b000 C
b000 K
b100 S
b1001011 [
b1001100 c
b11001100010010 %!
b111 -!
b1000011 ]!
b11001100010010 u!
1}!
#651
0}!
#653
b110 #
b111 3
b011 ;
b101 C
b110 K
b011 S
b0000110 [
b1101001 c
b10010111001100 %!
b100 -!
b0110111 ]!
b10010111001100 u!
1}!
#655
0}!
#657
b101 #
b110 +
b011 3
b101 ;
b110 C
b011 K
b101 S
b0000000 [
b0110110 c
b00001101101001 %!
b011 -!
b1011011 ]!
b00001101101001 u!
1}!
#659
0}!
#661
b110 #
b111 +
b111 3
b011 ;
b101 C
b010 K
b001 S
b1100110 [
b1001001 c
b00000000110110 %!
b101 -!
b0010111 ]!
b00000000110110 u!
1}!
#663
0}!
#665
b100 #
b010 +
b001 3
b100 ;
b110 C
b011 K
b1001111 [
b1111101 c
b11001101001001 %!
b001 -!
b0011001 ]!
b11001101001001 u!
1}!
#667
0}!
#669
b000 #
b000 +
b000 3
b010 C
b001 K
b000 S
b0111000 [
b0101000 c
b10011111111101 %!
b0001000 ]!
b10011111111101 u!
1}!
#671
0}!
#673
b100 3
b010 ;
b101 C
b110 K
b111 S
b1001100 [
b0100100 c
b01110000101000 %!
b000 -!
b1110100 ]!
b01110000101000 u!
1}!
#675
0}!
#677
b111 #
b011 +
b101 3
b110 ;
b111 C
b011 K
b001 S
b1010001 [
b1101010 c
b10011000100100 %!
b111 -!
b0011101 ]!
b10011000100100 u!
1}!
#679
0}!
#681
b100 #
b110 +
b011 3
b001 ;
b100 C
b010 K
b1111001 [
b1011111 c
b10100011101010 %!
b001 -!
b0010011 ]!
b10100011101010 u!
1}!
#683
0}!
#685
b110 K
b011 S
b0011001 [
b1111111 c
b11110011011111 %!
b0110011 ]!
b11110011011111 u!
1}!
#687
0}!
#689
b001 #
b100 +
b010 3
b010 K
b001 S
b1111111 [
b1011011 c
b00110011111111 %!
b011 -!
b0010010 ]!
b00110011111111 u!
1}!
#691
0}!
#693
b100 #
b010 +
b101 3
b010 ;
b101 C
b101 S
b0101011 [
b0000001 c
b11111111011011 %!
b001 -!
b1010101 ]!
b11111111011011 u!
1}!
#695
0}!
#697
b110 #
b011 +
b001 C
b000 K
b000 S
b0011000 [
b0010011 c
b01010110000001 %!
b101 -!
b0000101 ]!
b01010110000001 u!
1}!
#699
0}!
#701
b100 #
b010 +
b001 3
b000 ;
b000 C
b100 K
b110 S
b0100111 [
b1100101 c
b00110000010011 %!
b000 -!
b1100001 ]!
b00110000010011 u!
1}!
#703
0}!
#705
b011 #
b001 +
b100 3
b110 ;
b111 C
b111 K
b011 S
b0110110 [
b1001111 c
b01001111100101 %!
b110 -!
b0111100 ]!
b01001111100101 u!
1}!
#707
0}!
#709
b101 #
b110 +
b011 3
b101 ;
b010 C
b101 K
b110 S
b0010000 [
b1000110 c
b01101101001111 %!
b011 -!
b1101011 ]!
b01101101001111 u!
1}!
#711
0}!
#713
b011 #
b001 +
b000 3
b100 ;
b001 K
b100 S
b1111010 [
b1101011 c
b00100001000110 %!
b110 -!
b1001000 ]!
b00100001000110 u!
1}!
#715
0}!
#717
b010 #
b000 ;
b000 C
b100 K
b110 S
b0100011 [
b1100010 c
b11110101101011 %!
b100 -!
b1100000 ]!
b11110101101011 u!
1}!
#719
0}!
#721
b011 #
b101 +
b110 3
b111 ;
b111 C
b111 K
b011 S
b0111000 [
b1000101 c
b01000111100010 %!
b110 -!
b0111110 ]!
b01000111100010 u!
1}!
#723
0}!
#725
b001 #
b100 +
b011 C
b101 K
b110 S
b0001011 [
b1010111 c
b01110001000101 %!
b011 -!
b1101110 ]!
b01110001000101 u!
1}!
