simWorkspace/BitonicSort/test.vcd
$version Generated by VerilatedVcd $end
$date Mon Dec  6 16:20:34 2021
 $end
$timescale   1ns $end

 $scope module TOP $end
  $var wire  1 #( clk $end
  $var wire 16 A' raw_data_payload_data [15:0] $end
  $var wire  4 I' raw_data_payload_idx [3:0] $end
  $var wire  1 9' raw_data_ready $end
  $var wire  1 1' raw_data_valid $end
  $var wire  1 +( reset $end
  $var wire 16 Y' sorted_data_0_payload_data [15:0] $end
  $var wire  4 a' sorted_data_0_payload_idx [3:0] $end
  $var wire  1 Q' sorted_data_0_valid $end
  $var wire 16 q' sorted_data_1_payload_data [15:0] $end
  $var wire  4 y' sorted_data_1_payload_idx [3:0] $end
  $var wire  1 i' sorted_data_1_valid $end
  $scope module BitonicSort $end
   $var wire  1 #( clk $end
   $var wire 16 # cmpSwitch_3_out1_data [15:0] $end
   $var wire  4 + cmpSwitch_3_out1_idx [3:0] $end
   $var wire 16 E! cmpSwitch_3_out2_data [15:0] $end
   $var wire  4 M! cmpSwitch_3_out2_idx [3:0] $end
   $var wire  1 o& cmpSwitch_3_sel $end
   $var wire 16 3 cmpSwitch_4_out1_data [15:0] $end
   $var wire  4 ; cmpSwitch_4_out1_idx [3:0] $end
   $var wire 16 e! cmpSwitch_4_out2_data [15:0] $end
   $var wire  4 m! cmpSwitch_4_out2_idx [3:0] $end
   $var wire  1 w& cmpSwitch_4_sel $end
   $var wire 16 C cmpSwitch_5_out1_data [15:0] $end
   $var wire  4 K cmpSwitch_5_out1_idx [3:0] $end
   $var wire 16 '" cmpSwitch_5_out2_data [15:0] $end
   $var wire  4 /" cmpSwitch_5_out2_idx [3:0] $end
   $var wire  1 !' cmpSwitch_5_sel $end
   $var wire 16 5! cmpUnit_4_out1_data [15:0] $end
   $var wire  4 =! cmpUnit_4_out1_idx [3:0] $end
   $var wire 16 3( cmpUnit_4_out2_data [15:0] $end
   $var wire  4 ;( cmpUnit_4_out2_idx [3:0] $end
   $var wire 16 U! cmpUnit_5_out1_data [15:0] $end
   $var wire  4 ]! cmpUnit_5_out1_idx [3:0] $end
   $var wire 16 S cmpUnit_5_out2_data [15:0] $end
   $var wire  4 [ cmpUnit_5_out2_idx [3:0] $end
   $var wire 16 u! cmpUnit_6_out1_data [15:0] $end
   $var wire  4 }! cmpUnit_6_out1_idx [3:0] $end
   $var wire 16 c cmpUnit_6_out2_data [15:0] $end
   $var wire  4 k cmpUnit_6_out2_idx [3:0] $end
   $var wire 16 s cmpUnit_7_out1_data [15:0] $end
   $var wire  4 { cmpUnit_7_out1_idx [3:0] $end
   $var wire 16 y# cmpUnit_7_out1_regNext_data [15:0] $end
   $var wire  4 #$ cmpUnit_7_out1_regNext_idx [3:0] $end
   $var wire 16 %! cmpUnit_7_out2_data [15:0] $end
   $var wire  4 -! cmpUnit_7_out2_idx [3:0] $end
   $var wire 16 +$ cmpUnit_7_out2_regNext_data [15:0] $end
   $var wire  4 3$ cmpUnit_7_out2_regNext_idx [3:0] $end
   $var wire  5 )' cnt [4:0] $end
   $var wire 16 A' out0_buf_0_data [15:0] $end
   $var wire  4 I' out0_buf_0_idx [3:0] $end
   $var wire 16 # out0_buf_1_data [15:0] $end
   $var wire  4 + out0_buf_1_idx [3:0] $end
   $var wire 16 3 out0_buf_2_data [15:0] $end
   $var wire  4 ; out0_buf_2_idx [3:0] $end
   $var wire 16 C out0_buf_3_data [15:0] $end
   $var wire  4 K out0_buf_3_idx [3:0] $end
   $var wire 16 A' out1_buf_0_data [15:0] $end
   $var wire  4 I' out1_buf_0_idx [3:0] $end
   $var wire 16 E! out1_buf_1_data [15:0] $end
   $var wire  4 M! out1_buf_1_idx [3:0] $end
   $var wire 16 e! out1_buf_2_data [15:0] $end
   $var wire  4 m! out1_buf_2_idx [3:0] $end
   $var wire 16 '" out1_buf_3_data [15:0] $end
   $var wire  4 /" out1_buf_3_idx [3:0] $end
   $var wire  1 C( raw_data_fire $end
   $var wire  1 C( raw_data_fire_1 $end
   $var wire  1 7" raw_data_free_run $end
   $var wire 16 A' raw_data_payload_data [15:0] $end
   $var wire  4 I' raw_data_payload_idx [3:0] $end
   $var wire  1 9' raw_data_ready $end
   $var wire  1 1' raw_data_valid $end
   $var wire  1 +( reset $end
   $var wire 16 9# shiftRegister_10_output_data [15:0] $end
   $var wire  4 A# shiftRegister_10_output_idx [3:0] $end
   $var wire 16 I# shiftRegister_11_output_data [15:0] $end
   $var wire  4 Q# shiftRegister_11_output_idx [3:0] $end
   $var wire 16 Y# shiftRegister_12_output_data [15:0] $end
   $var wire  4 a# shiftRegister_12_output_idx [3:0] $end
   $var wire 16 i# shiftRegister_13_output_data [15:0] $end
   $var wire  4 q# shiftRegister_13_output_idx [3:0] $end
   $var wire 16 g" shiftRegister_7_output_data [15:0] $end
   $var wire  4 o" shiftRegister_7_output_idx [3:0] $end
   $var wire 16 w" shiftRegister_8_output_data [15:0] $end
   $var wire  4 !# shiftRegister_8_output_idx [3:0] $end
   $var wire 16 )# shiftRegister_9_output_data [15:0] $end
   $var wire  4 1# shiftRegister_9_output_idx [3:0] $end
   $var wire 16 Y' sorted_data_0_payload_data [15:0] $end
   $var wire  4 a' sorted_data_0_payload_idx [3:0] $end
   $var wire  1 Q' sorted_data_0_valid $end
   $var wire 16 q' sorted_data_1_payload_data [15:0] $end
   $var wire  4 y' sorted_data_1_payload_idx [3:0] $end
   $var wire  1 i' sorted_data_1_valid $end
   $var wire  1 K( when_BitonicSort_l23 $end
   $scope module cmpSwitch_3 $end
    $var wire 16 5! in1_data [15:0] $end
    $var wire  4 =! in1_idx [3:0] $end
    $var wire 16 w" in2_data [15:0] $end
    $var wire  4 !# in2_idx [3:0] $end
    $var wire 16 # out1_data [15:0] $end
    $var wire  4 + out1_idx [3:0] $end
    $var wire 16 E! out2_data [15:0] $end
    $var wire  4 M! out2_idx [3:0] $end
    $var wire  1 o& sel $end
   $upscope $end
   $scope module cmpSwitch_4 $end
    $var wire 16 U! in1_data [15:0] $end
    $var wire  4 ]! in1_idx [3:0] $end
    $var wire 16 9# in2_data [15:0] $end
    $var wire  4 A# in2_idx [3:0] $end
    $var wire 16 3 out1_data [15:0] $end
    $var wire  4 ; out1_idx [3:0] $end
    $var wire 16 e! out2_data [15:0] $end
    $var wire  4 m! out2_idx [3:0] $end
    $var wire  1 w& sel $end
   $upscope $end
   $scope module cmpSwitch_5 $end
    $var wire 16 u! in1_data [15:0] $end
    $var wire  4 }! in1_idx [3:0] $end
    $var wire 16 Y# in2_data [15:0] $end
    $var wire  4 a# in2_idx [3:0] $end
    $var wire 16 C out1_data [15:0] $end
    $var wire  4 K out1_idx [3:0] $end
    $var wire 16 '" out2_data [15:0] $end
    $var wire  4 /" out2_idx [3:0] $end
    $var wire  1 !' sel $end
   $upscope $end
   $scope module cmpUnit_4 $end
    $var wire  1 ?" cmp_less_result $end
    $var wire  1 ?" cmp_sel $end
    $var wire 16 g" in1_data [15:0] $end
    $var wire  4 o" in1_idx [3:0] $end
    $var wire 16 A' in2_data [15:0] $end
    $var wire  4 I' in2_idx [3:0] $end
    $var wire  1 S( less $end
    $var wire 16 5! out1_data [15:0] $end
    $var wire  4 =! out1_idx [3:0] $end
    $var wire 16 3( out2_data [15:0] $end
    $var wire  4 ;( out2_idx [3:0] $end
   $upscope $end
   $scope module cmpUnit_5 $end
    $var wire  1 G" cmp_less_result $end
    $var wire  1 G" cmp_sel $end
    $var wire 16 )# in1_data [15:0] $end
    $var wire  4 1# in1_idx [3:0] $end
    $var wire 16 E! in2_data [15:0] $end
    $var wire  4 M! in2_idx [3:0] $end
    $var wire  1 S( less $end
    $var wire 16 U! out1_data [15:0] $end
    $var wire  4 ]! out1_idx [3:0] $end
    $var wire 16 S out2_data [15:0] $end
    $var wire  4 [ out2_idx [3:0] $end
   $upscope $end
   $scope module cmpUnit_6 $end
    $var wire  1 O" cmp_less_result $end
    $var wire  1 O" cmp_sel $end
    $var wire 16 I# in1_data [15:0] $end
    $var wire  4 Q# in1_idx [3:0] $end
    $var wire 16 e! in2_data [15:0] $end
    $var wire  4 m! in2_idx [3:0] $end
    $var wire  1 S( less $end
    $var wire 16 u! out1_data [15:0] $end
    $var wire  4 }! out1_idx [3:0] $end
    $var wire 16 c out2_data [15:0] $end
    $var wire  4 k out2_idx [3:0] $end
   $upscope $end
   $scope module cmpUnit_7 $end
    $var wire  1 W" cmp_less_result $end
    $var wire  1 _" cmp_sel $end
    $var wire 16 i# in1_data [15:0] $end
    $var wire  4 q# in1_idx [3:0] $end
    $var wire 16 '" in2_data [15:0] $end
    $var wire  4 /" in2_idx [3:0] $end
    $var wire  1 7" less $end
    $var wire 16 s out1_data [15:0] $end
    $var wire  4 { out1_idx [3:0] $end
    $var wire 16 %! out2_data [15:0] $end
    $var wire  4 -! out2_idx [3:0] $end
   $upscope $end
   $scope module shiftRegister_10 $end
    $var wire  1 #( clk $end
    $var wire  1 7" enable $end
    $var wire 16 S input_data [15:0] $end
    $var wire  4 [ input_idx [3:0] $end
    $var wire 16 9# output_data [15:0] $end
    $var wire  4 A# output_idx [3:0] $end
    $var wire  1 +( reset $end
    $var wire 16 O& shift_reg_0_data [15:0] $end
    $var wire  4 W& shift_reg_0_idx [3:0] $end
    $var wire 16 9# shift_reg_1_data [15:0] $end
    $var wire  4 A# shift_reg_1_idx [3:0] $end
   $upscope $end
   $scope module shiftRegister_11 $end
    $var wire  1 #( clk $end
    $var wire  1 7" enable $end
    $var wire 16 3 input_data [15:0] $end
    $var wire  4 ; input_idx [3:0] $end
    $var wire 16 I# output_data [15:0] $end
    $var wire  4 Q# output_idx [3:0] $end
    $var wire  1 +( reset $end
    $var wire 16 _& shift_reg_0_data [15:0] $end
    $var wire  4 g& shift_reg_0_idx [3:0] $end
    $var wire 16 I# shift_reg_1_data [15:0] $end
    $var wire  4 Q# shift_reg_1_idx [3:0] $end
   $upscope $end
   $scope module shiftRegister_12 $end
    $var wire  1 #( clk $end
    $var wire  1 7" enable $end
    $var wire 16 c input_data [15:0] $end
    $var wire  4 k input_idx [3:0] $end
    $var wire 16 Y# output_data [15:0] $end
    $var wire  4 a# output_idx [3:0] $end
    $var wire  1 +( reset $end
    $var wire 16 Y# shift_reg_0_data [15:0] $end
    $var wire  4 a# shift_reg_0_idx [3:0] $end
   $upscope $end
   $scope module shiftRegister_13 $end
    $var wire  1 #( clk $end
    $var wire  1 S( enable $end
    $var wire 16 C input_data [15:0] $end
    $var wire  4 K input_idx [3:0] $end
    $var wire 16 i# output_data [15:0] $end
    $var wire  4 q# output_idx [3:0] $end
    $var wire  1 +( reset $end
    $var wire 16 i# shift_reg_0_data [15:0] $end
    $var wire  4 q# shift_reg_0_idx [3:0] $end
   $upscope $end
   $scope module shiftRegister_7 $end
    $var wire  1 #( clk $end
    $var wire  1 7" enable $end
    $var wire 16 A' input_data [15:0] $end
    $var wire  4 I' input_idx [3:0] $end
    $var wire 16 g" output_data [15:0] $end
    $var wire  4 o" output_idx [3:0] $end
    $var wire  1 +( reset $end
    $var wire 16 ;$ shift_reg_0_data [15:0] $end
    $var wire  4 C$ shift_reg_0_idx [3:0] $end
    $var wire 16 K$ shift_reg_1_data [15:0] $end
    $var wire  4 S$ shift_reg_1_idx [3:0] $end
    $var wire 16 [$ shift_reg_2_data [15:0] $end
    $var wire  4 c$ shift_reg_2_idx [3:0] $end
    $var wire 16 k$ shift_reg_3_data [15:0] $end
    $var wire  4 s$ shift_reg_3_idx [3:0] $end
    $var wire 16 {$ shift_reg_4_data [15:0] $end
    $var wire  4 %% shift_reg_4_idx [3:0] $end
    $var wire 16 -% shift_reg_5_data [15:0] $end
    $var wire  4 5% shift_reg_5_idx [3:0] $end
    $var wire 16 =% shift_reg_6_data [15:0] $end
    $var wire  4 E% shift_reg_6_idx [3:0] $end
    $var wire 16 g" shift_reg_7_data [15:0] $end
    $var wire  4 o" shift_reg_7_idx [3:0] $end
   $upscope $end
   $scope module shiftRegister_8 $end
    $var wire  1 #( clk $end
    $var wire  1 7" enable $end
    $var wire 16 3( input_data [15:0] $end
    $var wire  4 ;( input_idx [3:0] $end
    $var wire 16 w" output_data [15:0] $end
    $var wire  4 !# output_idx [3:0] $end
    $var wire  1 +( reset $end
    $var wire 16 M% shift_reg_0_data [15:0] $end
    $var wire  4 U% shift_reg_0_idx [3:0] $end
    $var wire 16 ]% shift_reg_1_data [15:0] $end
    $var wire  4 e% shift_reg_1_idx [3:0] $end
    $var wire 16 m% shift_reg_2_data [15:0] $end
    $var wire  4 u% shift_reg_2_idx [3:0] $end
    $var wire 16 w" shift_reg_3_data [15:0] $end
    $var wire  4 !# shift_reg_3_idx [3:0] $end
   $upscope $end
   $scope module shiftRegister_9 $end
    $var wire  1 #( clk $end
    $var wire  1 7" enable $end
    $var wire 16 # input_data [15:0] $end
    $var wire  4 + input_idx [3:0] $end
    $var wire 16 )# output_data [15:0] $end
    $var wire  4 1# output_idx [3:0] $end
    $var wire  1 +( reset $end
    $var wire 16 }% shift_reg_0_data [15:0] $end
    $var wire  4 '& shift_reg_0_idx [3:0] $end
    $var wire 16 /& shift_reg_1_data [15:0] $end
    $var wire  4 7& shift_reg_1_idx [3:0] $end
    $var wire 16 ?& shift_reg_2_data [15:0] $end
    $var wire  4 G& shift_reg_2_idx [3:0] $end
    $var wire 16 )# shift_reg_3_data [15:0] $end
    $var wire  4 1# shift_reg_3_idx [3:0] $end
   $upscope $end
  $upscope $end
 $upscope $end
$enddefinitions $end


#0
b0000000000000000 #
b0000 +
b0100101100101011 3
b0000 ;
b0011100000111111 C
b1001 K
b1101110110000110 S
b0100 [
b0110011010101111 c
b0010 k
b1111101101111011 s
b0100 {
b1111000101010111 %!
b0110 -!
b0000000000000000 5!
b0000 =!
b0100101100101011 E!
b0000 M!
b0100101100101011 U!
b0000 ]!
b0011100000111111 e!
b1001 m!
b0011100000111111 u!
b1001 }!
b1111101101111011 '"
b0100 /"
07"
0?"
0G"
0O"
1W"
0_"
b0101011111001001 g"
b0011 o"
b0100101100101011 w"
b0000 !#
b1101110110000110 )#
b0100 1#
b0011100000111111 9#
b1001 A#
b0110011010101111 I#
b0010 Q#
b1111101101111011 Y#
b0100 a#
b1111000101010111 i#
b0110 q#
b1111110111110101 y#
b0010 #$
b1100001110000001 +$
b1011 3$
b0011000110011010 ;$
b1101 C$
b0010110110100110 K$
b0010 S$
b0001101100011010 [$
b0100 c$
b1001000000001010 k$
b0101 s$
b0110101111000110 {$
b0000 %%
b1011101100011011 -%
b1000 5%
b1100101001000110 =%
b0101 E%
b0011110101000110 M%
b0111 U%
b1100101101100111 ]%
b0111 e%
b0110111110000011 m%
b1010 u%
b0001101110011101 }%
b1101 '&
b0010100111110001 /&
b0100 7&
b1111100100111001 ?&
b1011 G&
b0011100111010111 O&
b1010 W&
b1101010101110011 _&
b0011 g&
0o&
0w&
0!'
b00000 )'
01'
19'
b0000000000000000 A'
b0000 I'
0Q'
b1111110111110101 Y'
b0010 a'
0i'
b1100001110000001 q'
b1011 y'
0#(
1+(
b0101011111001001 3(
b0011 ;(
0C(
0K(
1S(
#80
0+(
#85
b0011100000111111 %!
b1001 -!
b0011100000111111 i#
b1001 q#
b1111101101111011 y#
b0100 #$
b1111000101010111 +$
b0110 3$
b1111101101111011 Y'
b0100 a'
b1111000101010111 q'
b0110 y'
1#(
#87
0#(
#89
b0011100000111111 +$
b1001 3$
b0011100000111111 q'
b1001 y'
1#(
#91
0#(
#93
1#(
#95
0#(
#97
1#(
#99
0#(
#101
1#(
#103
0#(
#105
1#(
#107
0#(
#109
1#(
#111
0#(
#113
1#(
#115
0#(
#117
1#(
#119
0#(
#121
b0000000000000011 #
b0011100000111111 s
b1001 {
b1111101101111011 %!
b0100 -!
b0000000000000011 5!
17"
1_"
11'
b0000000000000011 A'
1#(
1C(
1K(
#123
0#(
#125
b0000000000000101 #
b0001 +
b0110111110000011 3
b1010 ;
b0110011010101111 C
b0010 K
b1111100100111001 S
b1011 [
b1101010101110011 c
b0011 k
b0011100111010111 %!
b1010 -!
b0000000000000101 5!
b0001 =!
b0110111110000011 E!
b1010 M!
b0110111110000011 U!
b1010 ]!
b0011100111010111 e!
b1010 m!
b0011100111010111 u!
b1010 }!
b0011100111010111 '"
b1010 /"
b1100101001000110 g"
b0101 o"
b0110111110000011 w"
b1010 !#
b1111100100111001 )#
b1011 1#
b0011100111010111 9#
b1010 A#
b1101010101110011 I#
b0011 Q#
b0110011010101111 Y#
b0010 a#
b0011100000111111 y#
b1001 #$
b1111101101111011 +$
b0100 3$
b0000000000000011 ;$
b0000 C$
b0011000110011010 K$
b1101 S$
b0010110110100110 [$
b0010 c$
b0001101100011010 k$
b0100 s$
b1001000000001010 {$
b0101 %%
b0110101111000110 -%
b0000 5%
b1011101100011011 =%
b1000 E%
b0101011111001001 M%
b0011 U%
b0011110101000110 ]%
b1100101101100111 m%
b0111 u%
b0000000000000011 }%
b0000 '&
b0001101110011101 /&
b1101 7&
b0010100111110001 ?&
b0100 G&
b1101110110000110 O&
b0100 W&
b0100101100101011 _&
b0000 g&
1!'
b00001 )'
b0000000000000101 A'
b0001 I'
b0011100000111111 Y'
b1001 a'
b1111101101111011 q'
b0100 y'
1#(
b1100101001000110 3(
b0101 ;(
#127
0#(
#129
b0000000000001000 #
b0010 +
b1101110110000110 3
b0100 ;
b0010100111110001 C
b0100 K
b1100101101100111 S
b0111 [
b0100101100101011 c
b0000 k
b0110011010101111 s
b0010 {
b1101010101110011 %!
b0011 -!
b0000000000001000 5!
b0010 =!
b1100101101100111 E!
b0111 M!
b0010100111110001 U!
b0100 ]!
b0010100111110001 e!
b0100 m!
b0010100111110001 u!
b0100 }!
b1101010101110011 '"
b0011 /"
1G"
b1011101100011011 g"
b1000 o"
b1100101101100111 w"
b0111 !#
b0010100111110001 )#
b0100 1#
b1101110110000110 9#
b0100 A#
b0100101100101011 I#
b0000 Q#
b1101010101110011 Y#
b0011 a#
b0110011010101111 i#
b0010 q#
b0011100111010111 +$
b1010 3$
b0000000000000101 ;$
b0001 C$
b0000000000000011 K$
b0000 S$
b0011000110011010 [$
b1101 c$
b0010110110100110 k$
b0010 s$
b0001101100011010 {$
b0100 %%
b1001000000001010 -%
b0101 5%
b0110101111000110 =%
b0000 E%
b1100101001000110 M%
b0101 U%
b0101011111001001 ]%
b0011 e%
b0011110101000110 m%
b0000000000000101 }%
b0001 '&
b0000000000000011 /&
b0000 7&
b0001101110011101 ?&
b1101 G&
b1111100100111001 O&
b1011 W&
b0110111110000011 _&
b1010 g&
1w&
0!'
b00010 )'
b0000000000001000 A'
b0010 I'
b0011100111010111 q'
b1010 y'
1#(
b1011101100011011 3(
b1000 ;(
#131
0#(
#133
b0000000000001001 #
b0011 +
b1111100100111001 3
b1011 ;
b0100101100101011 C
b0000 K
b0011110101000110 S
b0110111110000011 c
b1010 k
b0001101110011101 s
b1101 {
b0010100111110001 %!
b0100 -!
b0000000000001001 5!
b0011 =!
b0011110101000110 E!
b0001101110011101 U!
b1101 ]!
b0001101110011101 e!
b1101 m!
b0001101110011101 u!
b1101 }!
b0001101110011101 '"
b1101 /"
0W"
0_"
b0110101111000110 g"
b0000 o"
b0011110101000110 w"
b0001101110011101 )#
b1101 1#
b1111100100111001 9#
b1011 A#
b0110111110000011 I#
b1010 Q#
b0100101100101011 Y#
b0000 a#
b0010100111110001 i#
b0100 q#
b0110011010101111 y#
b0010 #$
b1101010101110011 +$
b0011 3$
b0000000000001000 ;$
b0010 C$
b0000000000000101 K$
b0001 S$
b0000000000000011 [$
b0000 c$
b0011000110011010 k$
b1101 s$
b0010110110100110 {$
b0010 %%
b0001101100011010 -%
b0100 5%
b1001000000001010 =%
b0101 E%
b1011101100011011 M%
b1000 U%
b1100101001000110 ]%
b0101 e%
b0101011111001001 m%
b0011 u%
b0000000000001000 }%
b0010 '&
b0000000000000101 /&
b0001 7&
b0000000000000011 ?&
b0000 G&
b1100101101100111 O&
b0111 W&
b1101110110000110 _&
b0100 g&
1!'
b00011 )'
b0000000000001001 A'
b0011 I'
b0110011010101111 Y'
b0010 a'
b1101010101110011 q'
b0011 y'
1#(
b0110101111000110 3(
b0000 ;(
#135
0#(
#137
b0101011111001001 #
b0000000000000011 3
b0000 ;
b1100101101100111 C
b0111 K
b0000000000001010 S
b0100 [
b1101110110000110 c
b0100 k
b0100101100101011 s
b0000 {
b0110111110000011 %!
b1010 -!
b0000000000001010 5!
b0100 =!
b0000000000001010 E!
b0100 M!
b0000000000000011 U!
b0000 ]!
b1100101101100111 e!
b0111 m!
b1100101101100111 u!
b0111 }!
b0110111110000011 '"
b1010 /"
1W"
1_"
b1001000000001010 g"
b0101 o"
b0101011111001001 w"
b0011 !#
b0000000000000011 )#
b0000 1#
b1100101101100111 9#
b0111 A#
b1101110110000110 I#
b0100 Q#
b0110111110000011 Y#
b1010 a#
b0100101100101011 i#
b0000 q#
b0001101110011101 y#
b1101 #$
b0010100111110001 +$
b0100 3$
b0000000000001001 ;$
b0011 C$
b0000000000001000 K$
b0010 S$
b0000000000000101 [$
b0001 c$
b0000000000000011 k$
b0000 s$
b0011000110011010 {$
b1101 %%
b0010110110100110 -%
b0010 5%
b0001101100011010 =%
b0100 E%
b0110101111000110 M%
b0000 U%
b1011101100011011 ]%
b1000 e%
b1100101001000110 m%
b0101 u%
b0000000000001001 }%
b0011 '&
b0000000000001000 /&
b0010 7&
b0000000000000101 ?&
b0001 G&
b0011110101000110 O&
b1111100100111001 _&
b1011 g&
1o&
0w&
0!'
b00100 )'
b0000000000001010 A'
b0100 I'
b0001101110011101 Y'
b1101 a'
b0010100111110001 q'
b0100 y'
1#(
b1001000000001010 3(
b0101 ;(
#139
0#(
#141
b1100101001000110 #
b0101 +
b0000000000000101 3
b0001 ;
b1101110110000110 C
b0100 K
b0000000000001100 S
b0101 [
b1111100100111001 c
b1011 k
b0011110101000110 s
b0111 {
b1100101101100111 %!
b0111 -!
b0000000000001100 5!
b0101 =!
b0000000000001100 E!
b0101 M!
b0000000000000101 U!
b0001 ]!
b0011110101000110 e!
b0011110101000110 u!
b0011110101000110 '"
b0111 /"
0W"
0_"
b0001101100011010 g"
b0100 o"
b1100101001000110 w"
b0101 !#
b0000000000000101 )#
b0001 1#
b0011110101000110 9#
b1111100100111001 I#
b1011 Q#
b1101110110000110 Y#
b0100 a#
b1100101101100111 i#
b0111 q#
b0100101100101011 y#
b0000 #$
b0110111110000011 +$
b1010 3$
b0000000000001010 ;$
b0100 C$
b0000000000001001 K$
b0011 S$
b0000000000001000 [$
b0010 c$
b0000000000000101 k$
b0001 s$
b0000000000000011 {$
b0000 %%
b0011000110011010 -%
b1101 5%
b0010110110100110 =%
b0010 E%
b1001000000001010 M%
b0101 U%
b0110101111000110 ]%
b0000 e%
b1011101100011011 m%
b1000 u%
b0101011111001001 }%
b0000000000001001 /&
b0011 7&
b0000000000001000 ?&
b0010 G&
b0000000000001010 O&
b0100 W&
b0000000000000011 _&
b0000 g&
1!'
b00101 )'
b0000000000001100 A'
b0101 I'
b0100101100101011 Y'
b0000 a'
b0110111110000011 q'
b1010 y'
1#(
b0001101100011010 3(
b0100 ;(
#143
0#(
#145
b1011101100011011 #
b1000 +
b0000000000001010 3
b0100 ;
b0000000000000011 C
b0000 K
b0000000000001110 S
b0110 [
b0000000000001000 c
b0010 k
b1101110110000110 s
b0100 {
b1111100100111001 %!
b1011 -!
b0000000000001110 5!
b0110 =!
b0000000000001110 E!
b0110 M!
b0000000000001000 U!
b0010 ]!
b0000000000001000 e!
b0010 m!
b0000000000000011 u!
b0000 }!
b1111100100111001 '"
b1011 /"
1O"
1W"
1_"
b0010110110100110 g"
b0010 o"
b1011101100011011 w"
b1000 !#
b0000000000001000 )#
b0010 1#
b0000000000001010 9#
b0100 A#
b0000000000000011 I#
b0000 Q#
b1111100100111001 Y#
b1011 a#
b1101110110000110 i#
b0100 q#
b0011110101000110 y#
b0111 #$
b1100101101100111 +$
b0111 3$
b0000000000001100 ;$
b0101 C$
b0000000000001010 K$
b0100 S$
b0000000000001001 [$
b0011 c$
b0000000000001000 k$
b0010 s$
b0000000000000101 {$
b0001 %%
b0000000000000011 -%
b0000 5%
b0011000110011010 =%
b1101 E%
b0001101100011010 M%
b0100 U%
b1001000000001010 ]%
b0101 e%
b0110101111000110 m%
b0000 u%
b1100101001000110 }%
b0101 '&
b0101011111001001 /&
b0000000000001001 ?&
b0011 G&
b0000000000001100 O&
b0101 W&
b0000000000000101 _&
b0001 g&
1w&
0!'
b00110 )'
b0000000000001110 A'
b0110 I'
b0011110101000110 Y'
b0111 a'
b1100101101100111 q'
b0111 y'
1#(
b0010110110100110 3(
b0010 ;(
#147
0#(
#149
b0110101111000110 #
b0000 +
b0000000000001100 3
b0101 ;
b0000000000001000 C
b0010 K
b0000000000010100 S
b0111 [
b0000000000001001 c
b0011 k
b0000000000000011 s
b0000 {
b0000000000000101 %!
b0001 -!
b0000000000010100 5!
b0111 =!
b0000000000010100 E!
b0111 M!
b0000000000001001 U!
b0011 ]!
b0000000000001001 e!
b0011 m!
b0000000000000101 u!
b0001 }!
b0000000000000101 '"
b0001 /"
b0011000110011010 g"
b1101 o"
b0110101111000110 w"
b0000 !#
b0000000000001001 )#
b0011 1#
b0000000000001100 9#
b0101 A#
b0000000000000101 I#
b0001 Q#
b0000000000001000 Y#
b0010 a#
b0000000000000011 i#
b0000 q#
b1101110110000110 y#
b0100 #$
b1111100100111001 +$
b1011 3$
b0000000000001110 ;$
b0110 C$
b0000000000001100 K$
b0101 S$
b0000000000001010 [$
b0100 c$
b0000000000001001 k$
b0011 s$
b0000000000001000 {$
b0010 %%
b0000000000000101 -%
b0001 5%
b0000000000000011 =%
b0000 E%
b0010110110100110 M%
b0010 U%
b0001101100011010 ]%
b0100 e%
b1001000000001010 m%
b0101 u%
b1011101100011011 }%
b1000 '&
b1100101001000110 /&
b0101 7&
b0101011111001001 ?&
b0000000000001110 O&
b0110 W&
b0000000000001010 _&
b0100 g&
1!'
b00111 )'
b0000000000010100 A'
b0111 I'
b1101110110000110 Y'
b0100 a'
b1111100100111001 q'
b1011 y'
1#(
b0011000110011010 3(
b1101 ;(
#151
0#(
#153
b0000000000000011 #
b0101011111001001 3
b0011 ;
b0000000000001010 C
b0100 K
b1001000000001010 S
b0101 [
b0000000000001110 c
b0110 k
b0000000000001000 s
b0010 {
b0000000000001001 %!
b0011 -!
b0000000000000011 5!
b0000 =!
b1001000000001010 E!
b0101 M!
b0101011111001001 U!
b0000000000001110 e!
b0110 m!
b0000000000001010 u!
b0100 }!
b0000000000001001 '"
b0011 /"
1?"
b0000000000000011 g"
b0000 o"
b1001000000001010 w"
b0101 !#
b0101011111001001 )#
b0000000000001110 9#
b0110 A#
b0000000000001010 I#
b0100 Q#
b0000000000001001 Y#
b0011 a#
b0000000000001000 i#
b0010 q#
b0000000000000011 y#
b0000 #$
b0000000000000101 +$
b0001 3$
b0000000000010100 ;$
b0111 C$
b0000000000001110 K$
b0110 S$
b0000000000001100 [$
b0101 c$
b0000000000001010 k$
b0100 s$
b0000000000001001 {$
b0011 %%
b0000000000001000 -%
b0010 5%
b0000000000000101 =%
b0001 E%
b0011000110011010 M%
b1101 U%
b0010110110100110 ]%
b0010 e%
b0001101100011010 m%
b0100 u%
b0110101111000110 }%
b0000 '&
b1011101100011011 /&
b1000 7&
b1100101001000110 ?&
b0101 G&
b0000000000010100 O&
b0111 W&
b0000000000001100 _&
b0101 g&
0o&
0w&
0!'
b01000 )'
b0000000001011111 A'
b1000 I'
b0000000000000011 Y'
b0000 a'
b0000000000000101 q'
b0001 y'
1#(
b0000000001011111 3(
b1000 ;(
#155
0#(
#157
b0000000000000101 #
b0001 +
b0001101100011010 3
b0100 ;
b0000000000001110 C
b0110 K
b1100101001000110 S
b0000000000010100 c
b0111 k
b0000000000001010 s
b0100 {
b0000000000001100 %!
b0101 -!
b0000000000000101 5!
b0001 =!
b0001101100011010 E!
b0100 M!
b0001101100011010 U!
b0100 ]!
b0000000000010100 e!
b0111 m!
b0000000000001100 u!
b0101 }!
b0000000000001100 '"
b0101 /"
0G"
b0000000000000101 g"
b0001 o"
b0001101100011010 w"
b0100 !#
b1100101001000110 )#
b0101 1#
b0000000000010100 9#
b0111 A#
b0000000000001100 I#
b0101 Q#
b0000000000001110 Y#
b0110 a#
b0000000000001010 i#
b0100 q#
b0000000000001000 y#
b0010 #$
b0000000000001001 +$
b0011 3$
b0000000001011111 ;$
b1000 C$
b0000000000010100 K$
b0111 S$
b0000000000001110 [$
b0110 c$
b0000000000001100 k$
b0101 s$
b0000000000001010 {$
b0100 %%
b0000000000001001 -%
b0011 5%
b0000000000001000 =%
b0010 E%
b0000000001011111 M%
b1000 U%
b0011000110011010 ]%
b1101 e%
b0010110110100110 m%
b0010 u%
b0000000000000011 }%
b0110101111000110 /&
b0000 7&
b1011101100011011 ?&
b1000 G&
b1001000000001010 O&
b0101 W&
b0101011111001001 _&
b0011 g&
1!'
b01001 )'
b0000000001011010 A'
b1001 I'
b0000000000001000 Y'
b0010 a'
b0000000000001001 q'
b0011 y'
1#(
b0000000001011010 3(
b1001 ;(
#159
0#(
