simWorkspace/BitonicSort/test.vcd
$version Generated by VerilatedVcd $end
$date Mon Dec  6 20:55:06 2021
 $end
$timescale   1ns $end

 $scope module TOP $end
  $var wire  1 y' clk $end
  $var wire 16 A' raw_data_payload_data [15:0] $end
  $var wire  4 I' raw_data_payload_idx [3:0] $end
  $var wire  1 9' raw_data_ready $end
  $var wire  1 1' raw_data_valid $end
  $var wire  1 #( reset $end
  $var wire 16 i' sorted_data_payload_high_data [15:0] $end
  $var wire  4 q' sorted_data_payload_high_idx [3:0] $end
  $var wire 16 Y' sorted_data_payload_low_data [15:0] $end
  $var wire  4 a' sorted_data_payload_low_idx [3:0] $end
  $var wire  1 Q' sorted_data_valid $end
  $scope module BitonicSort $end
   $var wire  1 y' clk $end
   $var wire 16 # cmpSwitch_3_out1_data [15:0] $end
   $var wire  4 + cmpSwitch_3_out1_idx [3:0] $end
   $var wire 16 E! cmpSwitch_3_out2_data [15:0] $end
   $var wire  4 M! cmpSwitch_3_out2_idx [3:0] $end
   $var wire  1 o& cmpSwitch_3_sel $end
   $var wire 16 3 cmpSwitch_4_out1_data [15:0] $end
   $var wire  4 ; cmpSwitch_4_out1_idx [3:0] $end
   $var wire 16 e! cmpSwitch_4_out2_data [15:0] $end
   $var wire  4 m! cmpSwitch_4_out2_idx [3:0] $end
   $var wire  1 w& cmpSwitch_4_sel $end
   $var wire 16 C cmpSwitch_5_out1_data [15:0] $end
   $var wire  4 K cmpSwitch_5_out1_idx [3:0] $end
   $var wire 16 '" cmpSwitch_5_out2_data [15:0] $end
   $var wire  4 /" cmpSwitch_5_out2_idx [3:0] $end
   $var wire  1 !' cmpSwitch_5_sel $end
   $var wire 16 5! cmpUnit_4_out1_data [15:0] $end
   $var wire  4 =! cmpUnit_4_out1_idx [3:0] $end
   $var wire 16 +( cmpUnit_4_out2_data [15:0] $end
   $var wire  4 3( cmpUnit_4_out2_idx [3:0] $end
   $var wire 16 U! cmpUnit_5_out1_data [15:0] $end
   $var wire  4 ]! cmpUnit_5_out1_idx [3:0] $end
   $var wire 16 S cmpUnit_5_out2_data [15:0] $end
   $var wire  4 [ cmpUnit_5_out2_idx [3:0] $end
   $var wire 16 u! cmpUnit_6_out1_data [15:0] $end
   $var wire  4 }! cmpUnit_6_out1_idx [3:0] $end
   $var wire 16 c cmpUnit_6_out2_data [15:0] $end
   $var wire  4 k cmpUnit_6_out2_idx [3:0] $end
   $var wire 16 s cmpUnit_7_out1_data [15:0] $end
   $var wire  4 { cmpUnit_7_out1_idx [3:0] $end
   $var wire 16 y# cmpUnit_7_out1_regNext_data [15:0] $end
   $var wire  4 #$ cmpUnit_7_out1_regNext_idx [3:0] $end
   $var wire 16 %! cmpUnit_7_out2_data [15:0] $end
   $var wire  4 -! cmpUnit_7_out2_idx [3:0] $end
   $var wire 16 +$ cmpUnit_7_out2_regNext_data [15:0] $end
   $var wire  4 3$ cmpUnit_7_out2_regNext_idx [3:0] $end
   $var wire  5 )' cnt [4:0] $end
   $var wire 16 A' out0_buf_0_data [15:0] $end
   $var wire  4 I' out0_buf_0_idx [3:0] $end
   $var wire 16 # out0_buf_1_data [15:0] $end
   $var wire  4 + out0_buf_1_idx [3:0] $end
   $var wire 16 3 out0_buf_2_data [15:0] $end
   $var wire  4 ; out0_buf_2_idx [3:0] $end
   $var wire 16 C out0_buf_3_data [15:0] $end
   $var wire  4 K out0_buf_3_idx [3:0] $end
   $var wire 16 A' out1_buf_0_data [15:0] $end
   $var wire  4 I' out1_buf_0_idx [3:0] $end
   $var wire 16 E! out1_buf_1_data [15:0] $end
   $var wire  4 M! out1_buf_1_idx [3:0] $end
   $var wire 16 e! out1_buf_2_data [15:0] $end
   $var wire  4 m! out1_buf_2_idx [3:0] $end
   $var wire 16 '" out1_buf_3_data [15:0] $end
   $var wire  4 /" out1_buf_3_idx [3:0] $end
   $var wire  1 ;( raw_data_fire $end
   $var wire  1 ;( raw_data_fire_1 $end
   $var wire  1 7" raw_data_free_run $end
   $var wire 16 A' raw_data_payload_data [15:0] $end
   $var wire  4 I' raw_data_payload_idx [3:0] $end
   $var wire  1 9' raw_data_ready $end
   $var wire  1 1' raw_data_valid $end
   $var wire  1 #( reset $end
   $var wire 16 9# shiftRegister_10_output_data [15:0] $end
   $var wire  4 A# shiftRegister_10_output_idx [3:0] $end
   $var wire 16 I# shiftRegister_11_output_data [15:0] $end
   $var wire  4 Q# shiftRegister_11_output_idx [3:0] $end
   $var wire 16 Y# shiftRegister_12_output_data [15:0] $end
   $var wire  4 a# shiftRegister_12_output_idx [3:0] $end
   $var wire 16 i# shiftRegister_13_output_data [15:0] $end
   $var wire  4 q# shiftRegister_13_output_idx [3:0] $end
   $var wire 16 g" shiftRegister_7_output_data [15:0] $end
   $var wire  4 o" shiftRegister_7_output_idx [3:0] $end
   $var wire 16 w" shiftRegister_8_output_data [15:0] $end
   $var wire  4 !# shiftRegister_8_output_idx [3:0] $end
   $var wire 16 )# shiftRegister_9_output_data [15:0] $end
   $var wire  4 1# shiftRegister_9_output_idx [3:0] $end
   $var wire 16 i' sorted_data_payload_high_data [15:0] $end
   $var wire  4 q' sorted_data_payload_high_idx [3:0] $end
   $var wire 16 Y' sorted_data_payload_low_data [15:0] $end
   $var wire  4 a' sorted_data_payload_low_idx [3:0] $end
   $var wire  1 Q' sorted_data_valid $end
   $var wire  1 C( when_BitonicSort_l26 $end
   $scope module cmpSwitch_3 $end
    $var wire 16 5! in1_data [15:0] $end
    $var wire  4 =! in1_idx [3:0] $end
    $var wire 16 w" in2_data [15:0] $end
    $var wire  4 !# in2_idx [3:0] $end
    $var wire 16 # out1_data [15:0] $end
    $var wire  4 + out1_idx [3:0] $end
    $var wire 16 E! out2_data [15:0] $end
    $var wire  4 M! out2_idx [3:0] $end
    $var wire  1 o& sel $end
   $upscope $end
   $scope module cmpSwitch_4 $end
    $var wire 16 U! in1_data [15:0] $end
    $var wire  4 ]! in1_idx [3:0] $end
    $var wire 16 9# in2_data [15:0] $end
    $var wire  4 A# in2_idx [3:0] $end
    $var wire 16 3 out1_data [15:0] $end
    $var wire  4 ; out1_idx [3:0] $end
    $var wire 16 e! out2_data [15:0] $end
    $var wire  4 m! out2_idx [3:0] $end
    $var wire  1 w& sel $end
   $upscope $end
   $scope module cmpSwitch_5 $end
    $var wire 16 u! in1_data [15:0] $end
    $var wire  4 }! in1_idx [3:0] $end
    $var wire 16 Y# in2_data [15:0] $end
    $var wire  4 a# in2_idx [3:0] $end
    $var wire 16 C out1_data [15:0] $end
    $var wire  4 K out1_idx [3:0] $end
    $var wire 16 '" out2_data [15:0] $end
    $var wire  4 /" out2_idx [3:0] $end
    $var wire  1 !' sel $end
   $upscope $end
   $scope module cmpUnit_4 $end
    $var wire  1 ?" cmp_less_result $end
    $var wire  1 ?" cmp_sel $end
    $var wire 16 g" in1_data [15:0] $end
    $var wire  4 o" in1_idx [3:0] $end
    $var wire 16 A' in2_data [15:0] $end
    $var wire  4 I' in2_idx [3:0] $end
    $var wire  1 K( less $end
    $var wire 16 5! out1_data [15:0] $end
    $var wire  4 =! out1_idx [3:0] $end
    $var wire 16 +( out2_data [15:0] $end
    $var wire  4 3( out2_idx [3:0] $end
   $upscope $end
   $scope module cmpUnit_5 $end
    $var wire  1 G" cmp_less_result $end
    $var wire  1 G" cmp_sel $end
    $var wire 16 )# in1_data [15:0] $end
    $var wire  4 1# in1_idx [3:0] $end
    $var wire 16 E! in2_data [15:0] $end
    $var wire  4 M! in2_idx [3:0] $end
    $var wire  1 K( less $end
    $var wire 16 U! out1_data [15:0] $end
    $var wire  4 ]! out1_idx [3:0] $end
    $var wire 16 S out2_data [15:0] $end
    $var wire  4 [ out2_idx [3:0] $end
   $upscope $end
   $scope module cmpUnit_6 $end
    $var wire  1 O" cmp_less_result $end
    $var wire  1 O" cmp_sel $end
    $var wire 16 I# in1_data [15:0] $end
    $var wire  4 Q# in1_idx [3:0] $end
    $var wire 16 e! in2_data [15:0] $end
    $var wire  4 m! in2_idx [3:0] $end
    $var wire  1 K( less $end
    $var wire 16 u! out1_data [15:0] $end
    $var wire  4 }! out1_idx [3:0] $end
    $var wire 16 c out2_data [15:0] $end
    $var wire  4 k out2_idx [3:0] $end
   $upscope $end
   $scope module cmpUnit_7 $end
    $var wire  1 W" cmp_less_result $end
    $var wire  1 _" cmp_sel $end
    $var wire 16 i# in1_data [15:0] $end
    $var wire  4 q# in1_idx [3:0] $end
    $var wire 16 '" in2_data [15:0] $end
    $var wire  4 /" in2_idx [3:0] $end
    $var wire  1 7" less $end
    $var wire 16 s out1_data [15:0] $end
    $var wire  4 { out1_idx [3:0] $end
    $var wire 16 %! out2_data [15:0] $end
    $var wire  4 -! out2_idx [3:0] $end
   $upscope $end
   $scope module shiftRegister_10 $end
    $var wire  1 y' clk $end
    $var wire  1 7" enable $end
    $var wire 16 S input_data [15:0] $end
    $var wire  4 [ input_idx [3:0] $end
    $var wire 16 9# output_data [15:0] $end
    $var wire  4 A# output_idx [3:0] $end
    $var wire  1 #( reset $end
    $var wire 16 O& shift_reg_0_data [15:0] $end
    $var wire  4 W& shift_reg_0_idx [3:0] $end
    $var wire 16 9# shift_reg_1_data [15:0] $end
    $var wire  4 A# shift_reg_1_idx [3:0] $end
   $upscope $end
   $scope module shiftRegister_11 $end
    $var wire  1 y' clk $end
    $var wire  1 7" enable $end
    $var wire 16 3 input_data [15:0] $end
    $var wire  4 ; input_idx [3:0] $end
    $var wire 16 I# output_data [15:0] $end
    $var wire  4 Q# output_idx [3:0] $end
    $var wire  1 #( reset $end
    $var wire 16 _& shift_reg_0_data [15:0] $end
    $var wire  4 g& shift_reg_0_idx [3:0] $end
    $var wire 16 I# shift_reg_1_data [15:0] $end
    $var wire  4 Q# shift_reg_1_idx [3:0] $end
   $upscope $end
   $scope module shiftRegister_12 $end
    $var wire  1 y' clk $end
    $var wire  1 7" enable $end
    $var wire 16 c input_data [15:0] $end
    $var wire  4 k input_idx [3:0] $end
    $var wire 16 Y# output_data [15:0] $end
    $var wire  4 a# output_idx [3:0] $end
    $var wire  1 #( reset $end
    $var wire 16 Y# shift_reg_0_data [15:0] $end
    $var wire  4 a# shift_reg_0_idx [3:0] $end
   $upscope $end
   $scope module shiftRegister_13 $end
    $var wire  1 y' clk $end
    $var wire  1 K( enable $end
    $var wire 16 C input_data [15:0] $end
    $var wire  4 K input_idx [3:0] $end
    $var wire 16 i# output_data [15:0] $end
    $var wire  4 q# output_idx [3:0] $end
    $var wire  1 #( reset $end
    $var wire 16 i# shift_reg_0_data [15:0] $end
    $var wire  4 q# shift_reg_0_idx [3:0] $end
   $upscope $end
   $scope module shiftRegister_7 $end
    $var wire  1 y' clk $end
    $var wire  1 7" enable $end
    $var wire 16 A' input_data [15:0] $end
    $var wire  4 I' input_idx [3:0] $end
    $var wire 16 g" output_data [15:0] $end
    $var wire  4 o" output_idx [3:0] $end
    $var wire  1 #( reset $end
    $var wire 16 ;$ shift_reg_0_data [15:0] $end
    $var wire  4 C$ shift_reg_0_idx [3:0] $end
    $var wire 16 K$ shift_reg_1_data [15:0] $end
    $var wire  4 S$ shift_reg_1_idx [3:0] $end
    $var wire 16 [$ shift_reg_2_data [15:0] $end
    $var wire  4 c$ shift_reg_2_idx [3:0] $end
    $var wire 16 k$ shift_reg_3_data [15:0] $end
    $var wire  4 s$ shift_reg_3_idx [3:0] $end
    $var wire 16 {$ shift_reg_4_data [15:0] $end
    $var wire  4 %% shift_reg_4_idx [3:0] $end
    $var wire 16 -% shift_reg_5_data [15:0] $end
    $var wire  4 5% shift_reg_5_idx [3:0] $end
    $var wire 16 =% shift_reg_6_data [15:0] $end
    $var wire  4 E% shift_reg_6_idx [3:0] $end
    $var wire 16 g" shift_reg_7_data [15:0] $end
    $var wire  4 o" shift_reg_7_idx [3:0] $end
   $upscope $end
   $scope module shiftRegister_8 $end
    $var wire  1 y' clk $end
    $var wire  1 7" enable $end
    $var wire 16 +( input_data [15:0] $end
    $var wire  4 3( input_idx [3:0] $end
    $var wire 16 w" output_data [15:0] $end
    $var wire  4 !# output_idx [3:0] $end
    $var wire  1 #( reset $end
    $var wire 16 M% shift_reg_0_data [15:0] $end
    $var wire  4 U% shift_reg_0_idx [3:0] $end
    $var wire 16 ]% shift_reg_1_data [15:0] $end
    $var wire  4 e% shift_reg_1_idx [3:0] $end
    $var wire 16 m% shift_reg_2_data [15:0] $end
    $var wire  4 u% shift_reg_2_idx [3:0] $end
    $var wire 16 w" shift_reg_3_data [15:0] $end
    $var wire  4 !# shift_reg_3_idx [3:0] $end
   $upscope $end
   $scope module shiftRegister_9 $end
    $var wire  1 y' clk $end
    $var wire  1 7" enable $end
    $var wire 16 # input_data [15:0] $end
    $var wire  4 + input_idx [3:0] $end
    $var wire 16 )# output_data [15:0] $end
    $var wire  4 1# output_idx [3:0] $end
    $var wire  1 #( reset $end
    $var wire 16 }% shift_reg_0_data [15:0] $end
    $var wire  4 '& shift_reg_0_idx [3:0] $end
    $var wire 16 /& shift_reg_1_data [15:0] $end
    $var wire  4 7& shift_reg_1_idx [3:0] $end
    $var wire 16 ?& shift_reg_2_data [15:0] $end
    $var wire  4 G& shift_reg_2_idx [3:0] $end
    $var wire 16 )# shift_reg_3_data [15:0] $end
    $var wire  4 1# shift_reg_3_idx [3:0] $end
   $upscope $end
  $upscope $end
 $upscope $end
$enddefinitions $end


#0
b0000000000000000 #
b0000 +
b1011100010111011 3
b1000 ;
b0101011010001000 C
b1011 K
b1101010111000101 S
b1000 [
b1010000011100010 c
b0100 k
b1110011101100001 s
b1110 {
b0011111100111000 %!
b1110 -!
b0000000000000000 5!
b0000 =!
b1101010111000101 E!
b1000 M!
b1011100010111011 U!
b1000 ]!
b1010000011100010 e!
b0100 m!
b0101011010001000 u!
b1011 }!
b0011111100111000 '"
b1110 /"
07"
0?"
1G"
1O"
0W"
1_"
b0001010101101000 g"
b0000 o"
b1101010111000101 w"
b1000 !#
b1011100010111011 )#
b1000 1#
b1010000011100010 9#
b0100 A#
b0101011010001000 I#
b1011 Q#
b0011111100111000 Y#
b1110 a#
b1110011101100001 i#
b1110 q#
b1000010110110111 y#
b0010 #$
b1010010100000001 +$
b0101 3$
b1100101110101101 ;$
b1010 C$
b1100101011001000 K$
b1011 S$
b0101111101101011 [$
b1101 c$
b0100000100000010 k$
b1010 s$
b0010110111011111 {$
b1010 %%
b1100111011001011 -%
b0000 5%
b0101100000100101 =%
b1010 E%
b1101010000100000 M%
b1111 U%
b0010001001000110 ]%
b1010 e%
b1110010101011101 m%
b0000 u%
b0001101111110110 }%
b0101 '&
b1000010001010010 /&
b0001 7&
b1100011110000100 ?&
b0011 G&
b0101011010101100 O&
b1101 W&
b0101010011100101 _&
b1001 g&
0o&
0w&
0!'
b00000 )'
01'
19'
b0000000000000000 A'
b0000 I'
0Q'
b1000010110110111 Y'
b0010 a'
b1010010100000001 i'
b0101 q'
0y'
1#(
b0001010101101000 +(
b0000 3(
0;(
0C(
1K(
#80
0#(
#85
b0101011010001000 s
b1011 {
b0101011010001000 i#
b1011 q#
b1110011101100001 y#
b1110 #$
b0011111100111000 +$
b1110 3$
b1110011101100001 Y'
b1110 a'
b0011111100111000 i'
b1110 q'
1y'
#87
0y'
#89
b0101011010001000 y#
b1011 #$
b0101011010001000 Y'
b1011 a'
1y'
#91
0y'
#93
1y'
#95
0y'
#97
1y'
#99
0y'
#101
1y'
#103
0y'
#105
1y'
#107
0y'
#109
1y'
#111
0y'
#113
1y'
#115
0y'
#117
1y'
#119
0y'
#121
b0000000000000011 #
b0011111100111000 s
b1110 {
b0101011010001000 %!
b1011 -!
b0000000000000011 5!
17"
0_"
11'
b0000000000000011 A'
1y'
1;(
1C(
#123
0y'
#125
b0000000000000101 #
b0001 +
b1100011110000100 3
b0011 ;
b1010000011100010 C
b0100 K
b1110010101011101 S
b0000 [
b0101011010101100 c
b1101 k
b0101010011100101 s
b1001 {
b0000000000000101 5!
b0001 =!
b1110010101011101 E!
b0000 M!
b1100011110000100 U!
b0011 ]!
b0101011010101100 e!
b1101 m!
b0101010011100101 u!
b1001 }!
b0101010011100101 '"
b1001 /"
b0101100000100101 g"
b1010 o"
b1110010101011101 w"
b0000 !#
b1100011110000100 )#
b0011 1#
b0101011010101100 9#
b1101 A#
b0101010011100101 I#
b1001 Q#
b1010000011100010 Y#
b0100 a#
b0011111100111000 y#
b1110 #$
b0101011010001000 +$
b1011 3$
b0000000000000011 ;$
b0000 C$
b1100101110101101 K$
b1010 S$
b1100101011001000 [$
b1011 c$
b0101111101101011 k$
b1101 s$
b0100000100000010 {$
b0010110111011111 -%
b1010 5%
b1100111011001011 =%
b0000 E%
b0001010101101000 M%
b0000 U%
b1101010000100000 ]%
b1111 e%
b0010001001000110 m%
b1010 u%
b0000000000000011 }%
b0000 '&
b0001101111110110 /&
b0101 7&
b1000010001010010 ?&
b0001 G&
b1101010111000101 O&
b1000 W&
b1011100010111011 _&
b1000 g&
1!'
b00001 )'
b0000000000000101 A'
b0001 I'
b0011111100111000 Y'
b1110 a'
b0101011010001000 i'
b1011 q'
1y'
b0101100000100101 +(
b1010 3(
#127
0y'
#129
b0000000000001000 #
b0010 +
b1101010111000101 3
b1000 ;
b0010001001000110 C
b1010 K
b1000010001010010 S
b0001 [
b1011100010111011 c
b1000 k
b0101011010101100 s
b1101 {
b1010000011100010 %!
b0100 -!
b0000000000001000 5!
b0010 =!
b0010001001000110 E!
b1010 M!
b0010001001000110 U!
b1010 ]!
b0010001001000110 e!
b1010 m!
b0010001001000110 u!
b1010 }!
b0101011010101100 '"
b1101 /"
0G"
0O"
b1100111011001011 g"
b0000 o"
b0010001001000110 w"
b1010 !#
b1000010001010010 )#
b0001 1#
b1101010111000101 9#
b1000 A#
b1011100010111011 I#
b1000 Q#
b0101011010101100 Y#
b1101 a#
b1010000011100010 i#
b0100 q#
b0101010011100101 y#
b1001 #$
b0000000000000101 ;$
b0001 C$
b0000000000000011 K$
b0000 S$
b1100101110101101 [$
b1010 c$
b1100101011001000 k$
b1011 s$
b0101111101101011 {$
b1101 %%
b0100000100000010 -%
b0010110111011111 =%
b1010 E%
b0101100000100101 M%
b1010 U%
b0001010101101000 ]%
b0000 e%
b1101010000100000 m%
b1111 u%
b0000000000000101 }%
b0001 '&
b0000000000000011 /&
b0000 7&
b0001101111110110 ?&
b0101 G&
b1110010101011101 O&
b0000 W&
b1100011110000100 _&
b0011 g&
1w&
0!'
b00010 )'
b0000000000001000 A'
b0010 I'
b0101010011100101 Y'
b1001 a'
1y'
b1100111011001011 +(
b0000 3(
#131
0y'
#133
b0000000000001001 #
b0011 +
b1110010101011101 3
b0000 ;
b1011100010111011 C
b1000 K
b1101010000100000 S
b1111 [
b1100011110000100 c
b0011 k
b0001101111110110 s
b0101 {
b0010001001000110 %!
b1010 -!
b0000000000001001 5!
b0011 =!
b1101010000100000 E!
b1111 M!
b0001101111110110 U!
b0101 ]!
b0001101111110110 e!
b0101 m!
b0001101111110110 u!
b0101 }!
b0001101111110110 '"
b0101 /"
1G"
b0010110111011111 g"
b1010 o"
b1101010000100000 w"
b1111 !#
b0001101111110110 )#
b0101 1#
b1110010101011101 9#
b0000 A#
b1100011110000100 I#
b0011 Q#
b1011100010111011 Y#
b1000 a#
b0010001001000110 i#
b1010 q#
b0101011010101100 y#
b1101 #$
b1010000011100010 +$
b0100 3$
b0000000000001000 ;$
b0010 C$
b0000000000000101 K$
b0001 S$
b0000000000000011 [$
b0000 c$
b1100101110101101 k$
b1010 s$
b1100101011001000 {$
b1011 %%
b0101111101101011 -%
b1101 5%
b0100000100000010 =%
b1100111011001011 M%
b0000 U%
b0101100000100101 ]%
b1010 e%
b0001010101101000 m%
b0000 u%
b0000000000001000 }%
b0010 '&
b0000000000000101 /&
b0001 7&
b0000000000000011 ?&
b0000 G&
b1000010001010010 O&
b0001 W&
b1101010111000101 _&
b1000 g&
1!'
b00011 )'
b0000000000001001 A'
b0011 I'
b0101011010101100 Y'
b1101 a'
b1010000011100010 i'
b0100 q'
1y'
b0010110111011111 +(
b1010 3(
#135
0y'
#137
b0001010101101000 #
b0000 +
b0000000000000011 3
b1000010001010010 C
b0001 K
b0000000000001010 S
b0100 [
b1101010111000101 c
b1000 k
b1011100010111011 s
b1000 {
b1100011110000100 %!
b0011 -!
b0000000000001010 5!
b0100 =!
b0000000000001010 E!
b0100 M!
b0000000000000011 U!
b0000 ]!
b1000010001010010 e!
b0001 m!
b1000010001010010 u!
b0001 }!
b1100011110000100 '"
b0011 /"
1W"
1_"
b0100000100000010 g"
b0001010101101000 w"
b0000 !#
b0000000000000011 )#
b0000 1#
b1000010001010010 9#
b0001 A#
b1101010111000101 I#
b1000 Q#
b1100011110000100 Y#
b0011 a#
b1011100010111011 i#
b1000 q#
b0001101111110110 y#
b0101 #$
b0010001001000110 +$
b1010 3$
b0000000000001001 ;$
b0011 C$
b0000000000001000 K$
b0010 S$
b0000000000000101 [$
b0001 c$
b0000000000000011 k$
b0000 s$
b1100101110101101 {$
b1010 %%
b1100101011001000 -%
b1011 5%
b0101111101101011 =%
b1101 E%
b0010110111011111 M%
b1010 U%
b1100111011001011 ]%
b0000 e%
b0101100000100101 m%
b1010 u%
b0000000000001001 }%
b0011 '&
b0000000000001000 /&
b0010 7&
b0000000000000101 ?&
b0001 G&
b1101010000100000 O&
b1111 W&
b1110010101011101 _&
b0000 g&
1o&
0w&
0!'
b00100 )'
b0000000000001010 A'
b0100 I'
b0001101111110110 Y'
b0101 a'
b0010001001000110 i'
b1010 q'
1y'
b0100000100000010 +(
#139
0y'
#141
b0101100000100101 #
b1010 +
b0000000000000101 3
b0001 ;
b1101010111000101 C
b1000 K
b0000000000001100 S
b0101 [
b1110010101011101 c
b0000 k
b1000010001010010 s
b0001 {
b1101010000100000 %!
b1111 -!
b0000000000001100 5!
b0101 =!
b0000000000001100 E!
b0101 M!
b0000000000000101 U!
b0001 ]!
b1101010000100000 e!
b1111 m!
b1101010000100000 u!
b1111 }!
b1101010000100000 '"
b1111 /"
b0101111101101011 g"
b1101 o"
b0101100000100101 w"
b1010 !#
b0000000000000101 )#
b0001 1#
b1101010000100000 9#
b1111 A#
b1110010101011101 I#
b0000 Q#
b1101010111000101 Y#
b1000 a#
b1000010001010010 i#
b0001 q#
b1011100010111011 y#
b1000 #$
b1100011110000100 +$
b0011 3$
b0000000000001010 ;$
b0100 C$
b0000000000001001 K$
b0011 S$
b0000000000001000 [$
b0010 c$
b0000000000000101 k$
b0001 s$
b0000000000000011 {$
b0000 %%
b1100101110101101 -%
b1010 5%
b1100101011001000 =%
b1011 E%
b0100000100000010 M%
b0010110111011111 ]%
b1010 e%
b1100111011001011 m%
b0000 u%
b0001010101101000 }%
b0000 '&
b0000000000001001 /&
b0011 7&
b0000000000001000 ?&
b0010 G&
b0000000000001010 O&
b0100 W&
b0000000000000011 _&
1!'
b00101 )'
b0000000000001100 A'
b0101 I'
b1011100010111011 Y'
b1000 a'
b1100011110000100 i'
b0011 q'
1y'
b0101111101101011 +(
b1101 3(
#143
0y'
#145
b1100111011001011 #
b0000 +
b0000000000001010 3
b0100 ;
b0000000000000011 C
b0000 K
b0000000000001110 S
b0110 [
b0000000000001000 c
b0010 k
b1101010111000101 s
b1000 {
b1110010101011101 %!
b0000 -!
b0000000000001110 5!
b0110 =!
b0000000000001110 E!
b0110 M!
b0000000000001000 U!
b0010 ]!
b0000000000001000 e!
b0010 m!
b0000000000000011 u!
b0000 }!
b1110010101011101 '"
b0000 /"
1O"
b1100101011001000 g"
b1011 o"
b1100111011001011 w"
b0000 !#
b0000000000001000 )#
b0010 1#
b0000000000001010 9#
b0100 A#
b0000000000000011 I#
b1110010101011101 Y#
b0000 a#
b1101010111000101 i#
b1000 q#
b1000010001010010 y#
b0001 #$
b1101010000100000 +$
b1111 3$
b0000000000001100 ;$
b0101 C$
b0000000000001010 K$
b0100 S$
b0000000000001001 [$
b0011 c$
b0000000000001000 k$
b0010 s$
b0000000000000101 {$
b0001 %%
b0000000000000011 -%
b0000 5%
b1100101110101101 =%
b1010 E%
b0101111101101011 M%
b1101 U%
b0100000100000010 ]%
b0010110111011111 m%
b1010 u%
b0101100000100101 }%
b1010 '&
b0001010101101000 /&
b0000 7&
b0000000000001001 ?&
b0011 G&
b0000000000001100 O&
b0101 W&
b0000000000000101 _&
b0001 g&
1w&
0!'
b00110 )'
b0000000000001110 A'
b0110 I'
b1000010001010010 Y'
b0001 a'
b1101010000100000 i'
b1111 q'
1y'
b1100101011001000 +(
b1011 3(
#147
0y'
#149
b0010110111011111 #
b1010 +
b0000000000001100 3
b0101 ;
b0000000000001000 C
b0010 K
b0000000000010100 S
b0111 [
b0000000000001001 c
b0011 k
b0000000000000011 s
b0000 {
b0000000000000101 %!
b0001 -!
b0000000000010100 5!
b0111 =!
b0000000000010100 E!
b0111 M!
b0000000000001001 U!
b0011 ]!
b0000000000001001 e!
b0011 m!
b0000000000000101 u!
b0001 }!
b0000000000000101 '"
b0001 /"
b1100101110101101 g"
b1010 o"
b0010110111011111 w"
b1010 !#
b0000000000001001 )#
b0011 1#
b0000000000001100 9#
b0101 A#
b0000000000000101 I#
b0001 Q#
b0000000000001000 Y#
b0010 a#
b0000000000000011 i#
b0000 q#
b1101010111000101 y#
b1000 #$
b1110010101011101 +$
b0000 3$
b0000000000001110 ;$
b0110 C$
b0000000000001100 K$
b0101 S$
b0000000000001010 [$
b0100 c$
b0000000000001001 k$
b0011 s$
b0000000000001000 {$
b0010 %%
b0000000000000101 -%
b0001 5%
b0000000000000011 =%
b0000 E%
b1100101011001000 M%
b1011 U%
b0101111101101011 ]%
b1101 e%
b0100000100000010 m%
b1100111011001011 }%
b0000 '&
b0101100000100101 /&
b1010 7&
b0001010101101000 ?&
b0000 G&
b0000000000001110 O&
b0110 W&
b0000000000001010 _&
b0100 g&
1!'
b00111 )'
b0000000000010100 A'
b0111 I'
b1101010111000101 Y'
b1000 a'
b1110010101011101 i'
b0000 q'
1y'
b1100101110101101 +(
b1010 3(
#151
0y'
#153
b0000000000000011 #
b0000 +
b0001010101101000 3
b0000 ;
b0000000000001010 C
b0100 K
b0100000100000010 S
b1010 [
b0000000000001110 c
b0110 k
b0000000000001000 s
b0010 {
b0000000000001001 %!
b0011 -!
b0000000000000011 5!
b0000 =!
b0100000100000010 E!
b1010 M!
b0001010101101000 U!
b0000 ]!
b0000000000001110 e!
b0110 m!
b0000000000001010 u!
b0100 }!
b0000000000001001 '"
b0011 /"
1?"
b0000000000000011 g"
b0000 o"
b0100000100000010 w"
b0001010101101000 )#
b0000 1#
b0000000000001110 9#
b0110 A#
b0000000000001010 I#
b0100 Q#
b0000000000001001 Y#
b0011 a#
b0000000000001000 i#
b0010 q#
b0000000000000011 y#
b0000 #$
b0000000000000101 +$
b0001 3$
b0000000000010100 ;$
b0111 C$
b0000000000001110 K$
b0110 S$
b0000000000001100 [$
b0101 c$
b0000000000001010 k$
b0100 s$
b0000000000001001 {$
b0011 %%
b0000000000001000 -%
b0010 5%
b0000000000000101 =%
b0001 E%
b1100101110101101 M%
b1010 U%
b1100101011001000 ]%
b1011 e%
b0101111101101011 m%
b1101 u%
b0010110111011111 }%
b1010 '&
b1100111011001011 /&
b0000 7&
b0101100000100101 ?&
b1010 G&
b0000000000010100 O&
b0111 W&
b0000000000001100 _&
b0101 g&
0o&
0w&
0!'
b01000 )'
b0000000001011111 A'
b1000 I'
b0000000000000011 Y'
b0000 a'
b0000000000000101 i'
b0001 q'
1y'
b0000000001011111 +(
b1000 3(
#155
0y'
#157
b0000000000000101 #
b0001 +
b0101100000100101 3
b1010 ;
b0000000000001110 C
b0110 K
b0101111101101011 S
b1101 [
b0000000000010100 c
b0111 k
b0000000000001010 s
b0100 {
b0000000000001100 %!
b0101 -!
b0000000000000101 5!
b0001 =!
b0101111101101011 E!
b1101 M!
b0101100000100101 U!
b1010 ]!
b0000000000010100 e!
b0111 m!
b0000000000001100 u!
b0101 }!
b0000000000001100 '"
b0101 /"
b0000000000000101 g"
b0001 o"
b0101111101101011 w"
b1101 !#
b0101100000100101 )#
b1010 1#
b0000000000010100 9#
b0111 A#
b0000000000001100 I#
b0101 Q#
b0000000000001110 Y#
b0110 a#
b0000000000001010 i#
b0100 q#
b0000000000001000 y#
b0010 #$
b0000000000001001 +$
b0011 3$
b0000000001011111 ;$
b1000 C$
b0000000000010100 K$
b0111 S$
b0000000000001110 [$
b0110 c$
b0000000000001100 k$
b0101 s$
b0000000000001010 {$
b0100 %%
b0000000000001001 -%
b0011 5%
b0000000000001000 =%
b0010 E%
b0000000001011111 M%
b1000 U%
b1100101110101101 ]%
b1010 e%
b1100101011001000 m%
b1011 u%
b0000000000000011 }%
b0000 '&
b0010110111011111 /&
b1010 7&
b1100111011001011 ?&
b0000 G&
b0100000100000010 O&
b1010 W&
b0001010101101000 _&
b0000 g&
1!'
b01001 )'
b0000000001011010 A'
b1001 I'
b0000000000001000 Y'
b0010 a'
b0000000000001001 i'
b0011 q'
1y'
b0000000001011010 +(
b1001 3(
#159
0y'
