simWorkspace/CICFilter/test.vcd
$version Generated by VerilatedVcd $end
$date Mon Mar 28 05:20:09 2022
 $end
$timescale   1ns $end

 $scope module TOP $end
  $var wire  1 O" clk $end
  $var wire 17 G" filtered_data_payload [16:0] $end
  $var wire  1 ?" filtered_data_valid $end
  $var wire 16 7" raw_data_payload [15:0] $end
  $var wire  1 /" raw_data_valid $end
  $var wire  1 W" reset $end
  $scope module CICFilter $end
   $var wire  1 O" clk $end
   $var wire 17 3 combor_result_data_payload [16:0] $end
   $var wire  1 + combor_result_data_valid $end
   $var wire 21 E! decimator_1_in_payload [20:0] $end
   $var wire 21 5! decimator_1_out_payload [20:0] $end
   $var wire  1 # decimator_1_out_valid $end
   $var wire 17 G" filtered_data_payload [16:0] $end
   $var wire  1 ?" filtered_data_valid $end
   $var wire 17 U! integrator_result_data_payload [16:0] $end
   $var wire  1 M! integrator_result_data_valid $end
   $var wire 16 7" raw_data_payload [15:0] $end
   $var wire  1 /" raw_data_valid $end
   $var wire  1 W" reset $end
   $scope module combor $end
    $var wire  1 O" clk $end
    $var wire 17 c delay_data_vec_0 [16:0] $end
    $var wire 17 k delay_data_vec_1 [16:0] $end
    $var wire 17 s delay_data_vec_2 [16:0] $end
    $var wire 17 K internal_data_vec_0 [16:0] $end
    $var wire 17 S internal_data_vec_1 [16:0] $end
    $var wire 17 [ internal_data_vec_2 [16:0] $end
    $var wire 17 { pipe_data_vec_0 [16:0] $end
    $var wire 17 %! pipe_data_vec_1 [16:0] $end
    $var wire 17 -! pipe_data_vec_2 [16:0] $end
    $var wire 21 5! raw_data_payload [20:0] $end
    $var wire  1 # raw_data_valid $end
    $var wire  1 W" reset $end
    $var wire 17 3 result_data_payload [16:0] $end
    $var wire 17 3 result_data_payload_1 [16:0] $end
    $var wire  1 + result_data_valid $end
    $var wire  1 + result_data_valid_1 $end
   $upscope $end
   $scope module decimator_1 $end
    $var wire  1 O" clk $end
    $var wire  3 }! cnt [2:0] $end
    $var wire 21 E! in_payload [20:0] $end
    $var wire  1 M! in_valid $end
    $var wire 21 5! out_data [20:0] $end
    $var wire 21 5! out_payload [20:0] $end
    $var wire  1 # out_valid $end
    $var wire  1 # out_valid_1 $end
    $var wire  1 W" reset $end
    $var wire  1 '" when_Decimator_l22 $end
   $upscope $end
   $scope module integrator $end
    $var wire  1 O" clk $end
    $var wire 17 ; internal_data_vec_0 [16:0] $end
    $var wire 17 C internal_data_vec_1 [16:0] $end
    $var wire 17 U! internal_data_vec_2 [16:0] $end
    $var wire  4 ]! internal_en [3:0] $end
    $var wire 16 =! raw_data_buf [15:0] $end
    $var wire 16 7" raw_data_payload [15:0] $end
    $var wire  1 /" raw_data_valid $end
    $var wire  1 W" reset $end
    $var wire 17 U! result_data_payload [16:0] $end
    $var wire  1 M! result_data_valid $end
    $var wire  1 e! when_CICIntegrator_l22 $end
    $var wire  1 m! when_CICIntegrator_l27 $end
    $var wire  1 u! when_CICIntegrator_l27_1 $end
   $upscope $end
  $upscope $end
 $upscope $end
$enddefinitions $end


#0
0#
0+
b00000000000000000 3
b00000000000000000 ;
b00000000000000000 C
b00000000000000000 K
b00000000000000000 S
b00000000000000000 [
b00000000000000000 c
b00000000000000000 k
b00000000000000000 s
b00000000000000000 {
b00000000000000000 %!
b00000000000000000 -!
b110000000101010011000 5!
b0110110101101000 =!
b000000000000000000000 E!
0M!
b00000000000000000 U!
b0000 ]!
0e!
0m!
0u!
b000 }!
0'"
0/"
b0000000000000000 7"
0?"
b00000000000000000 G"
0O"
1W"
#80
0W"
#85
b0000000000000000 =!
1O"
#87
0O"
#89
1O"
#91
0O"
#93
1O"
#95
0O"
#97
1O"
#99
0O"
#101
1O"
#103
0O"
#105
1O"
#107
0O"
#109
1O"
#111
0O"
#113
1O"
#115
0O"
#117
1O"
#119
0O"
#121
1O"
#123
0O"
#125
1/"
b0000000000011000 7"
1O"
#127
0O"
#129
b0000000000011000 =!
b0001 ]!
1e!
b0000000000011101 7"
1O"
#131
0O"
#133
b00000000000011000 ;
b0000000000011101 =!
b0011 ]!
1m!
b0000000000001100 7"
1O"
#135
0O"
#137
b00000000000110101 ;
b00000000000011000 C
b0000000000001100 =!
b0111 ]!
1u!
b1111111111110011 7"
1O"
#139
0O"
#141
b00000000001000001 ;
b00000000001001101 C
b1111111111110011 =!
b000000000000000011000 E!
1M!
b00000000000011000 U!
b1111 ]!
b1111111111100101 7"
1O"
#143
0O"
#145
b00000000000110100 ;
b00000000010001110 C
b1111111111100101 =!
b000000000000001100101 E!
b00000000001100101 U!
b001 }!
b1111111111101110 7"
1O"
#147
0O"
#149
b00000000000011001 ;
b00000000011000010 C
b1111111111101110 =!
b000000000000011110011 E!
b00000000011110011 U!
b010 }!
b0000000000000111 7"
1O"
#151
0O"
#153
b00000000000000111 ;
b00000000011011011 C
b0000000000000111 =!
b000000000000110110101 E!
b00000000110110101 U!
b011 }!
b0000000000011101 7"
1O"
#155
0O"
#157
b00000000000001110 ;
b00000000011100010 C
b0000000000011101 =!
b000000000001010010000 E!
b00000001010010000 U!
b100 }!
1'"
b0000000000011110 7"
1O"
#159
0O"
#161
1#
b00000000000101011 ;
b00000000011110000 C
b000000000001010010000 5!
b0000000000011110 =!
b000000000001101110010 E!
b00000001101110010 U!
b000 }!
0'"
b0000000000001010 7"
1O"
#163
0O"
#165
0#
1+
b00000000001001001 ;
b00000000100011011 C
b00000001010010000 K
b00000001010010000 {
b0000000000001010 =!
b000000000010001100010 E!
b00000010001100010 U!
b001 }!
b1111111111110001 7"
1?"
1O"
#167
0O"
#169
0+
b00000000001010011 ;
b00000000101100100 C
b1111111111110001 =!
b000000000010101111101 E!
b00000010101111101 U!
b010 }!
b1111111111100111 7"
0?"
1O"
#171
0O"
#173
b00000000001000100 ;
b00000000110110111 C
b1111111111100111 =!
b000000000011011100001 E!
b00000011011100001 U!
b011 }!
b1111111111110100 7"
1O"
#175
0O"
#177
b00000000000101011 ;
b00000000111111011 C
b1111111111110100 =!
b000000000100010011000 E!
b00000100010011000 U!
b100 }!
1'"
b0000000000001110 7"
1O"
#179
0O"
#181
1#
b00000000000011111 ;
b00000001000100110 C
b000000000100010011000 5!
b0000000000001110 =!
b000000000101010010011 E!
b00000101010010011 U!
b000 }!
0'"
b0000000000100001 7"
1O"
#183
0O"
#185
0#
1+
b00000000000101101 ;
b00000001001000101 C
b00000011000001000 K
b00000001010010000 S
b00000001010010000 c
b00000100010011000 {
b00000001010010000 %!
b0000000000100001 =!
b000000000110010111001 E!
b00000110010111001 U!
b001 }!
b0000000000011110 7"
1?"
1O"
#187
0O"
#189
0+
b00000000001001110 ;
b00000001001110010 C
b0000000000011110 =!
b000000000111011111110 E!
b00000111011111110 U!
b010 }!
b0000000000000111 7"
0?"
1O"
#191
0O"
#193
b00000000001101100 ;
b00000001011000000 C
b0000000000000111 =!
b000000001000101110000 E!
b00001000101110000 U!
b011 }!
b1111111111110000 7"
1O"
#195
0O"
#197
b00000000001110011 ;
b00000001100101100 C
b1111111111110000 =!
b000000001010000110000 E!
b00001010000110000 U!
b100 }!
1'"
b1111111111101010 7"
1O"
#199
0O"
#201
1#
b00000000001100011 ;
b00000001110011111 C
b000000001010000110000 5!
b1111111111101010 =!
b000000001011101011100 E!
b00001011101011100 U!
b000 }!
0'"
b1111111111111011 7"
1O"
#203
0O"
#205
0#
1+
b00000000001001101 ;
b00000010000000010 C
b00000101110011000 K
b00000001101111000 S
b00000001010010000 [
b00000100010011000 c
b00000001010010000 k
b00001010000110000 {
b00000011000001000 %!
b00000001010010000 -!
b1111111111111011 =!
b000000001101011111011 E!
b00001101011111011 U!
b001 }!
b0000000000010101 7"
1?"
1O"
#207
0O"
#209
0+
b00000000001001000 ;
b00000010001001111 C
b0000000000010101 =!
b000000001111011111101 E!
b00001111011111101 U!
b010 }!
b0000000000100101 7"
0?"
1O"
#211
0O"
#213
b00000000001011101 ;
b00000010010010111 C
b0000000000100101 =!
b000000010001101001100 E!
b00010001101001100 U!
b011 }!
b0000000000011110 7"
1O"
#215
0O"
#217
b00000000010000010 ;
b00000010011110100 C
b0000000000011110 =!
b000000010011111100011 E!
b00010011111100011 U!
b100 }!
1'"
b0000000000000101 7"
1O"
#219
0O"
#221
1#
b00000000010100000 ;
b00000010101110110 C
b000000010011111100011 5!
b0000000000000101 =!
b000000010110011010111 E!
b00010110011010111 U!
b000 }!
0'"
b1111111111110000 7"
1O"
#223
0O"
#225
0#
1+
b00000001010010000 3
b00000000010100101 ;
b00000011000010110 C
b00001001110110011 K
b00000010110010000 S
b00000000011101000 [
b00001010000110000 c
b00000011000001000 k
b00000001010010000 s
b00010011111100011 {
b00000101110011000 %!
b00000001101111000 -!
b1111111111110000 =!
b000000011001001001101 E!
b00011001001001101 U!
b001 }!
b1111111111101110 7"
1?"
b00000001010010000 G"
1O"
#227
0O"
#229
0+
b00000000010010101 ;
b00000011010111011 C
b1111111111101110 =!
b000000011100001100011 E!
b00011100001100011 U!
b010 }!
b0000000000000001 7"
0?"
1O"
#231
0O"
#233
b00000000010000011 ;
b00000011101010000 C
b0000000000000001 =!
b000000011111100011110 E!
b00011111100011110 U!
b011 }!
b0000000000011011 7"
1O"
#235
0O"
#237
b00000000010000100 ;
b00000011111010011 C
b0000000000011011 =!
b000000100011001101110 E!
b00100011001101110 U!
b100 }!
1'"
b0000000000101000 7"
1O"
#239
0O"
#241
1#
b00000000010011111 ;
b00000100001010111 C
b000000100011001101110 5!
b0000000000101000 =!
b000000100111001000001 E!
b00100111001000001 U!
b000 }!
0'"
b0000000000011100 7"
1O"
#243
0O"
#245
0#
1+
b00000000011101000 3
b00000000011000111 ;
b00000100011110110 C
b00001111010001011 K
b00000100000011011 S
b00000001000011000 [
b00010011111100011 c
b00000101110011000 k
b00000001101111000 s
b00100011001101110 {
b00001001110110011 %!
b00000010110010000 -!
b0000000000011100 =!
b000000101011010011000 E!
b00101011010011000 U!
b001 }!
b0000000000000011 7"
1?"
b00000000011101000 G"
1O"
#247
0O"
#249
0+
b00000000011100011 ;
b00000100110111101 C
b0000000000000011 =!
b000000101111110001110 E!
b00101111110001110 U!
b010 }!
b1111111111110000 7"
0?"
1O"
#251
0O"
#253
b00000000011100110 ;
b00000101010100000 C
b1111111111110000 =!
b000000110100101001011 E!
b00110100101001011 U!
b011 }!
b1111111111110010 7"
1O"
#255
0O"
#257
b00000000011010110 ;
b00000101110000110 C
b1111111111110010 =!
b000000111001111101011 E!
b00111001111101011 U!
b100 }!
1'"
b0000000000001000 7"
1O"
#259
0O"
#261
1#
b00000000011001000 ;
b00000110001011100 C
b000000111001111101011 5!
b0000000000001000 =!
b000000111111101110001 E!
b00111111101110001 U!
b000 }!
0'"
b0000000000100001 7"
1O"
#263
0O"
#265
0#
1+
b00000001000011000 3
b00000000011010000 ;
b00000110100100100 C
b00010110101111101 K
b00000101011011000 S
b00000001010001011 [
b00100011001101110 c
b00001001110110011 k
b00000010110010000 s
b00111001111101011 {
b00001111010001011 %!
b00000100000011011 -!
b0000000000100001 =!
b000001000101111001101 E!
b01000101111001101 U!
b001 }!
b0000000000101001 7"
1?"
b00000001000011000 G"
1O"
#267
0O"
#269
0+
b00000000011110001 ;
b00000110111110100 C
b0000000000101001 =!
b000001001100011110001 E!
b01001100011110001 U!
b010 }!
b0000000000011011 7"
0?"
1O"
#271
0O"
#273
b00000000100011010 ;
b00000111011100101 C
b0000000000011011 =!
b000001010011011100101 E!
b01010011011100101 U!
b011 }!
b0000000000000000 7"
1O"
#275
0O"
#277
b00000000100110101 ;
b00000111111111111 C
b0000000000000000 =!
b000001011010111001010 E!
b01011010111001010 U!
b100 }!
1'"
b1111111111110000 7"
1O"
#279
0O"
#281
1#
b00001000100110100 C
b000001011010111001010 5!
b1111111111110000 =!
b000001100010111001001 E!
b01100010111001001 U!
b000 }!
0'"
b1111111111110111 7"
1O"
#283
0O"
#285
0#
1+
b00000001010001011 3
b00000000100100101 ;
b00001001001101001 C
b00100000111011111 K
b00000111011110010 S
b00000001010111101 [
b00111001111101011 c
b00001111010001011 k
b00000100000011011 s
b01011010111001010 {
b00010110101111101 %!
b00000101011011000 -!
b1111111111110111 =!
b000001101011011111101 E!
b01101011011111101 U!
b001 }!
b0000000000001110 7"
1?"
b00000001010001011 G"
1O"
#287
0O"
#289
0+
b00000000100011100 ;
b00001001110001110 C
b0000000000001110 =!
b000001110100101100110 E!
b01110100101100110 U!
b010 }!
b0000000000100110 7"
0?"
1O"
#291
0O"
#293
b00000000100101010 ;
b00001010010101010 C
b0000000000100110 =!
b000001111110011110100 E!
b01111110011110100 U!
b011 }!
b0000000000101010 7"
1O"
#295
0O"
#297
b00000000101010000 ;
b00001010111010100 C
b0000000000101010 =!
b111110001000110011110 E!
b10001000110011110 U!
b100 }!
1'"
b0000000000011000 7"
1O"
#299
0O"
#301
1#
b00000000101111010 ;
b00001011100100100 C
b111110001000110011110 5!
b0000000000011000 =!
b111110010011101110010 E!
b10010011101110010 U!
b000 }!
0'"
b1111111111111111 7"
1O"
#303
0O"
#305
0#
1+
b00000001010111101 3
b00000000110010010 ;
b00001100010011110 C
b00101101111010100 K
b00001010001100010 S
b00000010000011010 [
b01011010111001010 c
b00010110101111101 k
b00000101011011000 s
b10001000110011110 {
b00100000111011111 %!
b00000111011110010 -!
b1111111111111111 =!
b111110011111010010110 E!
b10011111010010110 U!
b001 }!
b1111111111110010 7"
1?"
b00000001010111101 G"
1O"
#307
0O"
#309
0+
b00000000110010001 ;
b00001101000110000 C
b1111111111110010 =!
b111110101011100110100 E!
b10101011100110100 U!
b010 }!
b1111111111111100 7"
0?"
1O"
#311
0O"
#313
b00000000110000011 ;
b00001101111000001 C
b1111111111111100 =!
b111110111000101100100 E!
b10111000101100100 U!
b011 }!
b0000000000010101 7"
1O"
#315
0O"
#317
b00000000101111111 ;
b00001110101000100 C
b0000000000010101 =!
b111111000110100100101 E!
b11000110100100101 U!
b100 }!
1'"
b0000000000101010 7"
1O"
#319
0O"
#321
1#
b00000000110010100 ;
b00001111011000011 C
b111111000110100100101 5!
b0000000000101010 =!
b111111010101001101001 E!
b11010101001101001 U!
b000 }!
0'"
1O"
#323
0O"
#325
0#
1+
b00000010000011010 3
b00000000110111110 ;
b00010000001010111 C
b00111101110000111 K
b00001100111110101 S
b00000010101110000 [
b10001000110011110 c
b00100000111011111 k
b00000111011110010 s
b11000110100100101 {
b00101101111010100 %!
b00001010001100010 -!
b111111100100100101100 E!
b11100100100101100 U!
b001 }!
b0000000000010101 7"
1?"
b00000010000011010 G"
1O"
#327
0O"
#329
0+
b00000000111101000 ;
b00010001000010101 C
b0000000000010101 =!
b111111110100110000011 E!
b11110100110000011 U!
b010 }!
b1111111111111101 7"
0?"
1O"
#331
0O"
#333
b00000000111111101 ;
b00010001111111101 C
b1111111111111101 =!
b000000000101110011000 E!
b00000101110011000 U!
b011 }!
b1111111111110011 7"
1O"
#335
0O"
#337
b00000000111111010 ;
b00010010111111010 C
b1111111111110011 =!
b000000010111110010101 E!
b00010111110010101 U!
b100 }!
1'"
b0000000000000000 7"
1O"
#339
0O"
#341
1#
b00000000111101101 ;
b00010011111110100 C
b000000010111110010101 5!
b0000000000000000 =!
b000000101010110001111 E!
b00101010110001111 U!
b000 }!
0'"
b0000000000011011 7"
1O"
#343
0O"
#345
0#
1+
b00000010101110000 3
b00010100111100001 C
b01010001001110000 K
b00001111110110011 S
b00000010110010011 [
b11000110100100101 c
b00101101111010100 k
b00001010001100010 s
b00010111110010101 {
b00111101110000111 %!
b00001100111110101 -!
b0000000000011011 =!
b000000111110110000011 E!
b00111110110000011 U!
b001 }!
b0000000000101101 7"
1?"
b00000010101110000 G"
1O"
#347
0O"
#349
0+
b00000001000001000 ;
b00010101111001110 C
b0000000000101101 =!
b000001010011101100100 E!
b01010011101100100 U!
b010 }!
b0000000000101001 7"
0?"
1O"
#351
0O"
#353
b00000001000110101 ;
b00010110111010110 C
b0000000000101001 =!
b000001101001100110010 E!
b01101001100110010 U!
b011 }!
b0000000000010010 7"
1O"
#355
0O"
#357
b00000001001011110 ;
b00011000000001011 C
b0000000000010010 =!
b111110000000100001000 E!
b10000000100001000 U!
b100 }!
1'"
b1111111111111011 7"
1O"
#359
0O"
#361
1#
b00000001001110000 ;
b00011001001101001 C
b111110000000100001000 5!
b1111111111111011 =!
b111110011000100010011 E!
b10011000100010011 U!
b000 }!
0'"
b1111111111110101 7"
1O"
#363
0O"
#365
0#
1+
b00000010110010011 3
b00000001001101011 ;
b00011010011011001 C
b01101000101110011 K
b00010011011101001 S
b00000010110111110 [
b00010111110010101 c
b00111101110000111 k
b00001100111110101 s
b10000000100001000 {
b01010001001110000 %!
b00001111110110011 -!
b1111111111110101 =!
b111110110001101111100 E!
b10110001101111100 U!
b001 }!
b0000000000000110 7"
1?"
b00000010110010011 G"
1O"
#367
0O"
#369
0+
b00000001001100000 ;
b00011011101000100 C
b0000000000000110 =!
b111111001100001010101 E!
b11001100001010101 U!
b010 }!
b0000000000100000 7"
0?"
1O"
#371
0O"
#373
b00000001001100110 ;
b00011100110100100 C
b0000000000100000 =!
b111111100111110011001 E!
b11100111110011001 U!
b011 }!
b0000000000110000 7"
1O"
#375
0O"
#377
b00000001010000110 ;
b00011110000001010 C
b0000000000110000 =!
b000000000100100111101 E!
b00000100100111101 U!
b100 }!
1'"
b0000000000100111 7"
1O"
#379
0O"
#381
1#
b00000001010110110 ;
b00011111010010000 C
b000000000100100111101 5!
b0000000000100111 =!
b000000100010101000111 E!
b00100010101000111 U!
b000 }!
0'"
b0000000000001110 7"
1O"
#383
0O"
#385
0#
1+
b00000010110111110 3
b00000001011011101 ;
b00100000101000110 C
b10000100000110101 K
b00010111100000011 S
b00000011100110110 [
b10000000100001000 c
b01010001001110000 k
b00001111110110011 s
b00000100100111101 {
b01101000101110011 %!
b00010011011101001 -!
b0000000000001110 =!
b000001000001111010111 E!
b01000001111010111 U!
b001 }!
b1111111111111001 7"
1?"
b00000010110111110 G"
1O"
#387
0O"
#389
0+
b00000001011101011 ;
b00100010000100011 C
b1111111111111001 =!
b000001100010100011101 E!
b01100010100011101 U!
b010 }!
b1111111111111000 7"
0?"
1O"
#391
0O"
#393
b00000001011100100 ;
b00100011100001110 C
b1111111111111000 =!
b111110000100101000000 E!
b10000100101000000 U!
b011 }!
b0000000000001011 7"
1O"
#395
0O"
#397
b00000001011011100 ;
b00100100111110010 C
b0000000000001011 =!
b111110101000001001110 E!
b10101000001001110 U!
b100 }!
1'"
b0000000000100101 7"
1O"
#399
0O"
#401
1#
b00000001011100111 ;
b00100110011001110 C
b111110101000001001110 5!
b0000000000100101 =!
b111111001101001000000 E!
b11001101001000000 U!
b000 }!
0'"
b0000000000110001 7"
1O"
#403
0O"
#405
0#
1+
b00000011100110110 3
b00000001100001100 ;
b00100111110110101 C
b10100011100010001 K
b00011011011000010 S
b00000100000011010 [
b00000100100111101 c
b01101000101110011 k
b00010011011101001 s
b10101000001001110 {
b10000100000110101 %!
b00010111100000011 -!
b0000000000110001 =!
b111111110011100001110 E!
b11110011100001110 U!
b001 }!
b0000000000100100 7"
1?"
b00000011100110110 G"
1O"
#407
0O"
#409
0+
b00000001100111101 ;
b00101001011000001 C
b0000000000100100 =!
b000000011011011000011 E!
b00011011011000011 U!
b010 }!
b0000000000001010 7"
0?"
1O"
#411
0O"
#413
b00000001101100001 ;
b00101010111111110 C
b0000000000001010 =!
b000001000100110000100 E!
b01000100110000100 U!
b011 }!
b1111111111111000 7"
1O"
#415
0O"
#417
b00000001101101011 ;
b00101100101011111 C
b1111111111111000 =!
b000001101111110000010 E!
b01101111110000010 U!
b100 }!
1'"
b1111111111111011 7"
1O"
#419
0O"
#421
1#
b00000001101100011 ;
b00101110011001010 C
b000001101111110000010 5!
b1111111111111011 =!
b111110011100011100001 E!
b10011100011100001 U!
b000 }!
0'"
b0000000000010001 7"
1O"
#423
0O"
#425
0#
1+
b00000100000011010 3
b00000001101011110 ;
b00110000000101101 C
b11000111100110100 K
b00011111011011100 S
b00000011110111111 [
b10101000001001110 c
b10000100000110101 k
b00010111100000011 s
b01101111110000010 {
b10100011100010001 %!
b00011011011000010 -!
b0000000000010001 =!
b111111001010110101011 E!
b11001010110101011 U!
b001 }!
b0000000000101001 7"
1?"
b00000100000011010 G"
1O"
#427
0O"
#429
0+
b00000001101101111 ;
b00110001110001011 C
b0000000000101001 =!
b111111111010111011000 E!
b11111010111011000 U!
b010 }!
b0000000000110001 7"
0?"
1O"
#431
0O"
#433
b00000001110011000 ;
b00110011011111010 C
b0000000000110001 =!
b000000101100101100011 E!
b00101100101100011 U!
b011 }!
b0000000000100001 7"
1O"
#435
0O"
#437
b00000001111001001 ;
b00110101010010010 C
b0000000000100001 =!
b000001100000001011101 E!
b01100000001011101 U!
b100 }!
1'"
b0000000000000110 7"
1O"
#439
0O"
#441
1#
b00000001111101010 ;
b00110111001011011 C
b000001100000001011101 5!
b0000000000000110 =!
b111110010101011101111 E!
b10010101011101111 U!
b000 }!
0'"
b1111111111110111 7"
1O"
#443
0O"
#445
0#
1+
b00000011110111111 3
b00000001111110000 ;
b00111001001000101 C
b11110000011011011 K
b00100100000100011 S
b00000100000011010 [
b01101111110000010 c
b10100011100010001 k
b00011011011000010 s
b01100000001011101 {
b11000111100110100 %!
b00011111011011100 -!
b1111111111110111 =!
b111111001100101001010 E!
b11001100101001010 U!
b001 }!
b1111111111111110 7"
1?"
b00000011110111111 G"
1O"
#447
0O"
#449
0+
b00000001111100111 ;
b00111011000110101 C
b1111111111111110 =!
b000000000101110001111 E!
b00000101110001111 U!
b010 }!
b0000000000010110 7"
0?"
1O"
#451
0O"
#453
b00000001111100101 ;
b00111101000011100 C
b0000000000010110 =!
b000001000000111000100 E!
b01000000111000100 U!
b011 }!
b0000000000101101 7"
1O"
#455
0O"
#457
b00000001111111011 ;
b00111111000000001 C
b0000000000101101 =!
b000001111101111100000 E!
b01111101111100000 U!
b100 }!
1'"
b0000000000110000 7"
1O"
#459
0O"
#461
1#
b00000010000101000 ;
b01000000111111100 C
b000001111101111100000 5!
b0000000000110000 =!
b111110111100111100001 E!
b10111100111100001 U!
b000 }!
0'"
b0000000000011101 7"
1O"
#463
0O"
#465
0#
1+
b00000100000011010 3
b00000010001011000 ;
b01000011000100100 C
b00011101110000011 K
b00101000110100111 S
b00000100101000111 [
b01100000001011101 c
b11000111100110100 k
b00011111011011100 s
b01111101111100000 {
b11110000011011011 %!
b00100100000100011 -!
b0000000000011101 =!
b111111111101111011101 E!
b11111101111011101 U!
b001 }!
b0000000000000010 7"
1?"
b00000100000011010 G"
1O"
#467
0O"
#469
0+
b00000010001110101 ;
b01000101001111100 C
b0000000000000010 =!
b000001000001000000001 E!
b01000001000000001 U!
b010 }!
b1111111111110111 7"
0?"
1O"
#471
0O"
#473
b00000010001110111 ;
b01000111011110001 C
b1111111111110111 =!
b111110000110001111101 E!
b10000110001111101 U!
b011 }!
b0000000000000000 7"
1O"
#475
0O"
#477
b00000010001101110 ;
b01001001101101000 C
b0000000000000000 =!
b111111001101101101110 E!
b11001101101101110 U!
b100 }!
1'"
b0000000000011010 7"
1O"
#479
0O"
#481
1#
b01001011111010110 C
b111111001101101101110 5!
b0000000000011010 =!
b000000010111011010110 E!
b00010111011010110 U!
b000 }!
0'"
b0000000000101111 7"
1O"
#483
0O"
#485
0#
1+
b00000100101000111 3
b00000010010001000 ;
b01001110001000100 C
b01001111110001110 K
b00101101010101000 S
b00000100110000100 [
b01111101111100000 c
b11110000011011011 k
b00100100000100011 s
b11001101101101110 {
b00011101110000011 %!
b00101000110100111 -!
b0000000000101111 =!
b000001100011010101100 E!
b01100011010101100 U!
b001 }!
b0000000000101110 7"
1?"
b00000100101000111 G"
1O"
#487
0O"
#489
0+
b00000010010110111 ;
b01010000011001100 C
b0000000000101110 =!
b111110110001011110000 E!
b10110001011110000 U!
b010 }!
b0000000000011000 7"
0?"
1O"
#491
0O"
#493
b00000010011100101 ;
b01010010110000011 C
b0000000000011000 =!
b000000000001110111100 E!
b00000001110111100 U!
b011 }!
b1111111111111111 7"
1O"
#495
0O"
#497
b00000010011111101 ;
b01010101001101000 C
b1111111111111111 =!
b000001010100100111111 E!
b01010100100111111 U!
b100 }!
1'"
b1111111111110110 7"
1O"
#499
0O"
#501
1#
b00000010011111100 ;
b01010111101100101 C
b000001010100100111111 5!
b1111111111110110 =!
b111110101001110100111 E!
b10101001110100111 U!
b000 }!
0'"
b0000000000000100 7"
1O"
#503
0O"
#505
0#
1+
b00000100110000100 3
b00000010011110010 ;
b01011010001100001 C
b10000110111010001 K
b00110010000001011 S
b00000100100000001 [
b11001101101101110 c
b00011101110000011 k
b00101000110100111 s
b01010100100111111 {
b01001111110001110 %!
b00101101010101000 -!
b0000000000000100 =!
b000000000001100001100 E!
b00000001100001100 U!
b001 }!
b0000000000011111 7"
1?"
b00000100110000100 G"
1O"
#507
0O"
#509
0+
b00000010011110110 ;
b01011100101010011 C
b0000000000011111 =!
b000001011011101101101 E!
b01011011101101101 U!
b010 }!
b0000000000110000 7"
0?"
1O"
#511
0O"
#513
b00000010100010101 ;
b01011111001001001 C
b0000000000110000 =!
b111110111000011000000 E!
b10111000011000000 U!
b011 }!
b0000000000101011 7"
1O"
#515
0O"
#517
b00000010101000101 ;
b01100001101011110 C
b0000000000101011 =!
b000000010111100001001 E!
b00010111100001001 U!
b100 }!
1'"
b0000000000010011 7"
1O"
#519
0O"
#521
1#
b00000010101110000 ;
b01100100010100011 C
b000000010111100001001 5!
b0000000000010011 =!
b000001111001001100111 E!
b01111001001100111 U!
b000 }!
0'"
b1111111111111100 7"
1O"
#523
0O"
#525
0#
1+
b00000100100000001 3
b00000010110000011 ;
b01100111000010011 C
b11000010111001010 K
b00110111001000011 S
b00000100101100011 [
b01010100100111111 c
b01001111110001110 k
b00101101010101000 s
b00010111100001001 {
b10000110111010001 %!
b00110010000001011 -!
b1111111111111100 =!
b111111011101100001010 E!
b11011101100001010 U!
b001 }!
b1111111111110111 7"
1?"
b00000100100000001 G"
1O"
#527
0O"
#529
0+
b00000010101111111 ;
b01101001110010110 C
b1111111111110111 =!
b000001000100100011101 E!
b01000100100011101 U!
b010 }!
b0000000000001000 7"
0?"
1O"
#531
0O"
#533
b00000010101110110 ;
b01101100100010101 C
b0000000000001000 =!
b111110101110010110011 E!
b10101110010110011 U!
b011 }!
b0000000000100010 7"
1O"
#535
0O"
#537
b00000010101111110 ;
b01101111010001011 C
b0000000000100010 =!
b000000011010111001000 E!
b00011010111001000 U!
b100 }!
1'"
b0000000000110000 7"
1O"
#539
0O"
#541
1#
b00000010110100000 ;
b01110010000001001 C
b000000011010111001000 5!
b0000000000110000 =!
b111110001010001010011 E!
b10001010001010011 U!
b000 }!
0'"
b0000000000100111 7"
1O"
#543
0O"
#545
0#
1+
b00000100101100011 3
b00000010111010000 ;
b01110100110101001 C
b00000011010111111 K
b00111011111111001 S
b00000101000111000 [
b00010111100001001 c
b10000110111010001 k
b00110010000001011 s
b00011010111001000 {
b11000010111001010 %!
b00110111001000011 -!
b0000000000100111 =!
b111111111100001011100 E!
b11111100001011100 U!
b001 }!
b0000000000001101 7"
1?"
b00000100101100011 G"
1O"
#547
0O"
#549
0+
b00000010111110111 ;
b01110111101111001 C
b0000000000001101 =!
b000001110001000000101 E!
b01110001000000101 U!
b010 }!
b1111111111111000 7"
0?"
1O"
#551
0O"
#553
b00000011000000100 ;
b01111010101110000 C
b1111111111111000 =!
b111111101000101111110 E!
b11101000101111110 U!
b011 }!
1O"
#555
0O"
#557
b00000010111111100 ;
b01111101101110100 C
b000001100011011101110 E!
b01100011011101110 U!
b100 }!
1'"
b0000000000001011 7"
1O"
#559
0O"
#561
1#
b00000010111110100 ;
b10000000101110000 C
b000001100011011101110 5!
b0000000000001011 =!
b111111100001001100010 E!
b11100001001100010 U!
b000 }!
0'"
b0000000000100101 7"
1O"
#563
0O"
#565
0#
1+
b00000101000111000 3
b00000010111111111 ;
b10000011101100100 C
b01001000100100110 K
b01000000011110101 S
b00000100110110110 [
b00011010111001000 c
b11000010111001010 k
b00110111001000011 s
b01100011011101110 {
b00000011010111111 %!
b00111011111111001 -!
b0000000000100101 =!
b000001100001111010010 E!
b01100001111010010 U!
b001 }!
b0000000000101111 7"
1?"
b00000101000111000 G"
1O"
#567
0O"
#569
0+
b00000011000100100 ;
b10000110101100011 C
b0000000000101111 =!
b111111100101100110110 E!
b11100101100110110 U!
b010 }!
b0000000000100010 7"
0?"
1O"
#571
0O"
#573
b00000011001010011 ;
b10001001110000111 C
b0000000000100010 =!
b000001101100010011001 E!
b01101100010011001 U!
b011 }!
b0000000000000111 7"
1O"
#575
0O"
#577
b00000011001110101 ;
b10001100111011010 C
b0000000000000111 =!
b111111110110000100000 E!
b11110110000100000 U!
b100 }!
1'"
b1111111111110101 7"
1O"
#579
0O"
#581
1#
b00000011001111100 ;
b10010000001001111 C
b111111110110000100000 5!
b1111111111110101 =!
b111110000010111111010 E!
b10000010111111010 U!
b000 }!
0'"
b1111111111111001 7"
1O"
#583
0O"
#585
0#
1+
b00000100110110110 3
b00000011001110001 ;
b10010011011001011 C
b10010010100110010 K
b01000101001100111 S
b00000100011111100 [
b01100011011101110 c
b00000011010111111 k
b00111011111111001 s
b11110110000100000 {
b01001000100100110 %!
b01000000011110101 -!
b1111111111111001 =!
b000000010011001001001 E!
b00010011001001001 U!
b001 }!
b0000000000001111 7"
1?"
b00000100110110110 G"
1O"
#587
0O"
#589
0+
b00000011001101010 ;
b10010110100111100 C
b0000000000001111 =!
b111110100110100010100 E!
b10100110100010100 U!
b010 }!
b0000000000100111 7"
0?"
1O"
#591
0O"
