simWorkspace/BlockDMACore/test.vcd
$version Generated by VerilatedVcd $end
$date Sat Jan  8 19:44:38 2022
 $end
$timescale   1ns $end

 $scope module TOP $end
  $var wire 16 V axi4Data_ar_payload_addr [15:0] $end
  $var wire  2 Z axi4Data_ar_payload_burst [1:0] $end
  $var wire  4 W axi4Data_ar_payload_id [3:0] $end
  $var wire  8 X axi4Data_ar_payload_len [7:0] $end
  $var wire  3 Y axi4Data_ar_payload_size [2:0] $end
  $var wire  1 U axi4Data_ar_ready $end
  $var wire  1 T axi4Data_ar_valid $end
  $var wire 32 ] axi4Data_r_payload_data [31:0] $end
  $var wire  4 ^ axi4Data_r_payload_id [3:0] $end
  $var wire  1 ` axi4Data_r_payload_last $end
  $var wire  2 _ axi4Data_r_payload_resp [1:0] $end
  $var wire  1 \ axi4Data_r_ready $end
  $var wire  1 [ axi4Data_r_valid $end
  $var wire  1 i clk $end
  $var wire  1 h intr_m2s $end
  $var wire 16 c m2s_desc_addr [15:0] $end
  $var wire  2 e m2s_desc_burst [1:0] $end
  $var wire  4 f m2s_desc_id [3:0] $end
  $var wire  1 b m2s_desc_ready $end
  $var wire 30 d m2s_desc_total_bytes [29:0] $end
  $var wire  1 a m2s_desc_valid $end
  $var wire  1 g m2s_intr_en $end
  $var wire  1 j reset $end
  $scope module BlockDMACore $end
   $var wire 16 V axi4Data_ar_payload_addr [15:0] $end
   $var wire  2 Z axi4Data_ar_payload_burst [1:0] $end
   $var wire  4 W axi4Data_ar_payload_id [3:0] $end
   $var wire  8 X axi4Data_ar_payload_len [7:0] $end
   $var wire  3 Y axi4Data_ar_payload_size [2:0] $end
   $var wire  1 U axi4Data_ar_ready $end
   $var wire  1 T axi4Data_ar_valid $end
   $var wire 32 ] axi4Data_r_payload_data [31:0] $end
   $var wire  4 ^ axi4Data_r_payload_id [3:0] $end
   $var wire  1 ` axi4Data_r_payload_last $end
   $var wire  2 _ axi4Data_r_payload_resp [1:0] $end
   $var wire  1 \ axi4Data_r_ready $end
   $var wire  1 [ axi4Data_r_valid $end
   $var wire  1 i clk $end
   $var wire  1 h intr_m2s $end
   $var wire 16 c m2s_desc_addr [15:0] $end
   $var wire  2 e m2s_desc_burst [1:0] $end
   $var wire  4 f m2s_desc_id [3:0] $end
   $var wire  1 b m2s_desc_ready $end
   $var wire 30 d m2s_desc_total_bytes [29:0] $end
   $var wire  1 a m2s_desc_valid $end
   $var wire 16 1 m2s_inst_dma_ar_payload_addr [15:0] $end
   $var wire  2 5 m2s_inst_dma_ar_payload_burst [1:0] $end
   $var wire  4 2 m2s_inst_dma_ar_payload_id [3:0] $end
   $var wire  8 3 m2s_inst_dma_ar_payload_len [7:0] $end
   $var wire  3 4 m2s_inst_dma_ar_payload_size [2:0] $end
   $var wire  1 l m2s_inst_dma_ar_valid $end
   $var wire  1 E m2s_inst_dma_cch_ready $end
   $var wire  1 m m2s_inst_dma_r_ready $end
   $var wire  1 m m2s_inst_intr_m2s $end
   $var wire  1 g m2s_intr_en $end
   $var wire  1 j reset $end
   $scope module m2s_inst $end
    $var wire  4 o addr_to_strb_0 [3:0] $end
    $var wire  4 p addr_to_strb_1 [3:0] $end
    $var wire  4 q addr_to_strb_2 [3:0] $end
    $var wire  4 r addr_to_strb_3 [3:0] $end
    $var wire  1 E cch_ready $end
    $var wire 30 G cch_total_bytes [29:0] $end
    $var wire  1 i clk $end
    $var wire 16 1 dma_ar_payload_addr [15:0] $end
    $var wire  2 5 dma_ar_payload_burst [1:0] $end
    $var wire  4 2 dma_ar_payload_id [3:0] $end
    $var wire  8 3 dma_ar_payload_len [7:0] $end
    $var wire  3 4 dma_ar_payload_size [2:0] $end
    $var wire  1 U dma_ar_ready $end
    $var wire  1 l dma_ar_valid $end
    $var wire  1 k dma_cch_fire $end
    $var wire 16 c dma_cch_payload_desc_addr [15:0] $end
    $var wire  2 e dma_cch_payload_desc_burst [1:0] $end
    $var wire  4 f dma_cch_payload_desc_id [3:0] $end
    $var wire 30 d dma_cch_payload_desc_total_bytes [29:0] $end
    $var wire  1 E dma_cch_ready $end
    $var wire  1 a dma_cch_valid $end
    $var wire 32 ] dma_r_payload_data [31:0] $end
    $var wire  4 ^ dma_r_payload_id [3:0] $end
    $var wire  1 ` dma_r_payload_last $end
    $var wire  2 _ dma_r_payload_resp [1:0] $end
    $var wire  1 m dma_r_ready $end
    $var wire  1 [ dma_r_valid $end
    $var wire  2 J dma_rd_axi_state [1:0] $end
    $var wire 48 L dma_rd_axi_state_string [47:0] $end
    $var wire  2 F dma_rd_cch_state [1:0] $end
    $var wire 32 K dma_rd_cch_state_string [31:0] $end
    $var wire  3 $ dma_rd_req_fifo_io_availability [2:0] $end
    $var wire  3 # dma_rd_req_fifo_io_occupancy [2:0] $end
    $var wire  1 l dma_rd_req_fifo_io_pop_fire $end
    $var wire 16 1 dma_rd_req_fifo_io_pop_payload_addr [15:0] $end
    $var wire  2 5 dma_rd_req_fifo_io_pop_payload_burst [1:0] $end
    $var wire  4 2 dma_rd_req_fifo_io_pop_payload_id [3:0] $end
    $var wire  8 3 dma_rd_req_fifo_io_pop_payload_len [7:0] $end
    $var wire  3 4 dma_rd_req_fifo_io_pop_payload_size [2:0] $end
    $var wire  1 l dma_rd_req_fifo_io_pop_ready $end
    $var wire  1 ) dma_rd_req_fifo_io_pop_valid $end
    $var wire  1 * dma_rd_req_fifo_io_push_fire $end
    $var wire  1 , dma_rd_req_fifo_io_push_ready $end
    $var wire 16 7 fifo_in_addr [15:0] $end
    $var wire  2 9 fifo_in_burst [1:0] $end
    $var wire  4 6 fifo_in_id [3:0] $end
    $var wire  8 8 fifo_in_len [7:0] $end
    $var wire  3 n fifo_in_size [2:0] $end
    $var wire  1 H fifo_in_valid $end
    $var wire  1 l fifo_pop_valve $end
    $var wire  1 m intr_m2s $end
    $var wire  4 ; m2s_strb [3:0] $end
    $var wire  1 l r_valve $end
    $var wire  1 j reset $end
    $var wire  1 I when_BlockDMARead_l65 $end
    $var wire  1 D when_BlockDMARead_l67 $end
    $var wire  1 : when_BlockDMARead_l75 $end
    $var wire  1 % when_BlockDMARead_l92 $end
    $scope module dma_rd_req_fifo $end
     $var wire  1 i clk $end
     $var wire  3 $ io_availability [2:0] $end
     $var wire  1 l io_flush $end
     $var wire  3 # io_occupancy [2:0] $end
     $var wire 16 1 io_pop_payload_addr [15:0] $end
     $var wire  2 5 io_pop_payload_burst [1:0] $end
     $var wire  4 2 io_pop_payload_id [3:0] $end
     $var wire  8 3 io_pop_payload_len [7:0] $end
     $var wire  3 4 io_pop_payload_size [2:0] $end
     $var wire  1 l io_pop_ready $end
     $var wire  1 ) io_pop_valid $end
     $var wire 16 7 io_push_payload_addr [15:0] $end
     $var wire  2 9 io_push_payload_burst [1:0] $end
     $var wire  4 6 io_push_payload_id [3:0] $end
     $var wire  8 8 io_push_payload_len [7:0] $end
     $var wire  3 n io_push_payload_size [2:0] $end
     $var wire  1 , io_push_ready $end
     $var wire  1 H io_push_valid $end
     $var wire  1 ( logic_empty $end
     $var wire  1 0 logic_full $end
     $var wire  2 P logic_popPtr_value [1:0] $end
     $var wire  2 & logic_popPtr_valueNext [1:0] $end
     $var wire  1 l logic_popPtr_willClear $end
     $var wire  1 l logic_popPtr_willIncrement $end
     $var wire  1 l logic_popPtr_willOverflow $end
     $var wire  1 Q logic_popPtr_willOverflowIfInc $end
     $var wire  1 l logic_popping $end
     $var wire  2 S logic_ptrDif [1:0] $end
     $var wire  1 ' logic_ptrMatch $end
     $var wire  2 N logic_pushPtr_value [1:0] $end
     $var wire  2 . logic_pushPtr_valueNext [1:0] $end
     $var wire  1 l logic_pushPtr_willClear $end
     $var wire  1 - logic_pushPtr_willIncrement $end
     $var wire  1 + logic_pushPtr_willOverflow $end
     $var wire  1 O logic_pushPtr_willOverflowIfInc $end
     $var wire  1 / logic_pushing $end
     $var wire 33 < logic_ram(0) [32:0] $end
     $var wire 33 > logic_ram(1) [32:0] $end
     $var wire 33 @ logic_ram(2) [32:0] $end
     $var wire 33 B logic_ram(3) [32:0] $end
     $var wire  1 R logic_risingOccupancy $end
     $var wire  1 j reset $end
     $var wire  1 / when_Stream_l933 $end
    $upscope $end
   $upscope $end
  $upscope $end
 $upscope $end
$enddefinitions $end


#0
b000 #
b100 $
0%
b00 &
1'
1(
0)
0*
0+
1,
0-
b00 .
0/
00
b0100001001101000 1
b0000 2
b00001100 3
b100 4
b11 5
b0111 6
b0000010010101110 7
b01111000 8
b01 9
0:
b1010 ;
b001001010101110001110011010101111 <
b101111101011111001000111101111000 >
b010100101100011001111111100101110 @
b000001100110010010000100011000100 B
0D
0E
b00 F
b000000000000000000000000000000 G
0H
1I
b00 J
b01001001010001000100110001000101 K
b010010010100010001001100010001010010000000100000 L
b00 N
0O
b00 P
0Q
0R
b00 S
0T
0U
b0100001001101000 V
b0000 W
b00001100 X
b100 Y
b11 Z
1[
1\
b10110011011001001111011000010010 ]
b0011 ^
b11 _
1`
0a
0b
b0001101110100100 c
b101101110110010111000111100010 d
b10 e
b0110 f
1g
1h
0i
1j
0k
0l
1m
b010 n
b1111 o
b1110 p
b1100 q
b1000 r
#160
0j
#170
1%
b1110011010101111 1
b1000 2
b10101011 3
b00 5
b0110 6
b0001101110100100 7
b10 9
b1111 ;
1D
1E
b101101110110010111000111100010 G
0I
b1110011010101111 V
b1000 W
b10101011 X
b00 Z
1b
1i
#175
0i
#180
1i
#185
0i
#190
1i
#195
0i
#200
1i
#205
0i
#210
1i
#215
0i
#220
1i
#225
0i
#230
1i
#235
0i
#240
1i
#245
0i
#250
1i
#255
0i
#260
1a
b0000000111110011 c
b000000000000000000000000010010 d
b01 e
b0011 f
1i
1k
#265
0i
#270
b0011 6
b0000000111110000 7
b01 9
b1000 ;
0D
0E
b01 F
b000000000000000000000000010010 G
1I
b01010010010001010101000100100000 K
1U
0b
1i
0k
#275
0i
#280
1*
1-
b01 .
1/
b00000100 8
1H
1i
#285
0i
#290
b001 #
b011 $
0'
0(
0*
0-
0/
b010100000010000110000000111110000 <
b10 F
b111111111111111111111111010010 G
0H
0I
b01001000010000010100110001010100 K
b01 N
1R
b01 S
b00000000000000000000000000000000 ]
1i
#295
0i
#300
1)
b0000000111110000 1
b0011 2
b00000100 3
b010 4
b01 5
b01 F
b01010010010001010101000100100000 K
b0000000111110000 V
b0011 W
b00000100 X
b010 Y
b01 Z
b00000000000000000000000000000001 ]
1i
#305
0i
#310
1*
1-
b10 .
1/
b00010000 8
1H
b00000000000000000000000000000010 ]
1i
#315
0i
#320
b010 #
b010 $
0*
0-
0/
b010100001000000110000000111110000 >
b10 F
b111111111111111111111110010010 G
0H
b01001000010000010100110001010100 K
b10 N
b10 S
b00000000000000000000000000000011 ]
1i
#325
0i
#330
b01 F
b01010010010001010101000100100000 K
b00000000000000000000000000000100 ]
1i
#335
0i
#340
1*
1-
b11 .
1/
1H
b00000000000000000000000000000101 ]
1i
#345
0i
#350
b011 #
b001 $
0*
0-
0/
b010100001000000110000000111110000 @
b10 F
b111111111111111111111101010010 G
0H
b01001000010000010100110001010100 K
b11 N
1O
b11 S
b00000000000000000000000000000110 ]
1i
#355
0i
#360
b01 F
b01010010010001010101000100100000 K
b00000000000000000000000000000111 ]
1i
#365
0i
#370
1*
1+
1-
b00 .
1/
1H
b00000000000000000000000000001000 ]
1i
#375
0i
#380
b100 #
b000 $
0%
1'
0*
0+
0,
0-
0/
10
b010100001000000110000000111110000 B
b10 F
b111111111111111111111100010010 G
0H
b01001000010000010100110001010100 K
b00 N
0O
b00 S
b00000000000000000000000000001001 ]
1i
#385
0i
#390
b00000000000000000000000000001010 ]
1i
#395
0i
#400
b00000000000000000000000000001011 ]
1i
#405
0i
#410
b00000000000000000000000000001100 ]
1i
#415
0i
#420
b00000000000000000000000000001101 ]
1i
#425
0i
#430
b00000000000000000000000000001110 ]
1i
#435
0i
#440
b00000000000000000000000000001111 ]
1i
#445
0i
#450
b00000000000000000000000000010000 ]
1i
#455
0i
#460
b00000000000000000000000000010001 ]
1i
#465
0i
#470
b00000000000000000000000000010010 ]
1i
#475
0i
#480
b00000000000000000000000000010011 ]
1i
#485
0i
#490
b00000000000000000000000000010100 ]
1i
#495
0i
#500
b00000000000000000000000000010101 ]
1i
#505
0i
#510
b00000000000000000000000000010110 ]
1i
#515
0i
#520
b00000000000000000000000000010111 ]
1i
#525
0i
#530
b00000000000000000000000000011000 ]
1i
#535
0i
#540
b00000000000000000000000000011001 ]
1i
#545
0i
#550
b00000000000000000000000000011010 ]
1i
#555
0i
#560
b00000000000000000000000000011011 ]
1i
#565
0i
#570
b00000000000000000000000000011100 ]
1i
#575
0i
#580
b00000000000000000000000000011101 ]
1i
#585
0i
#590
b00000000000000000000000000011110 ]
1i
#595
0i
#600
b00000000000000000000000000011111 ]
1i
#605
0i
#610
b00000000000000000000000000100000 ]
1i
#615
0i
#620
b00000000000000000000000000100001 ]
1i
#625
0i
#630
b00000000000000000000000000100010 ]
1i
#635
0i
#640
b00000000000000000000000000100011 ]
1i
#645
0i
#650
b00000000000000000000000000100100 ]
1i
#655
0i
#660
b00000000000000000000000000100101 ]
1i
#665
0i
#670
b00000000000000000000000000100110 ]
1i
#675
0i
#680
b00000000000000000000000000100111 ]
1i
#685
0i
#690
b00000000000000000000000000101000 ]
1i
#695
0i
#700
b00000000000000000000000000101001 ]
1i
#705
0i
#710
b00000000000000000000000000101010 ]
1i
#715
0i
#720
b00000000000000000000000000101011 ]
1i
#725
0i
#730
b00000000000000000000000000101100 ]
1i
#735
0i
#740
b00000000000000000000000000101101 ]
1i
#745
0i
#750
b00000000000000000000000000101110 ]
1i
#755
0i
#760
b00000000000000000000000000101111 ]
1i
#765
0i
#770
b00000000000000000000000000110000 ]
1i
#775
0i
#780
b00000000000000000000000000110001 ]
1i
#785
0i
#790
b00000000000000000000000000110010 ]
1i
#795
0i
#800
b00000000000000000000000000110011 ]
1i
#805
0i
#810
b00000000000000000000000000110100 ]
1i
#815
0i
#820
b00000000000000000000000000110101 ]
1i
#825
0i
#830
b00000000000000000000000000110110 ]
1i
#835
0i
#840
b00000000000000000000000000110111 ]
1i
#845
0i
#850
b00000000000000000000000000111000 ]
1i
#855
0i
#860
b00000000000000000000000000111001 ]
1i
#865
0i
#870
b00000000000000000000000000111010 ]
1i
#875
0i
#880
b00000000000000000000000000111011 ]
1i
#885
0i
#890
b00000000000000000000000000111100 ]
1i
#895
0i
#900
b00000000000000000000000000111101 ]
1i
#905
0i
#910
b00000000000000000000000000111110 ]
1i
#915
0i
#920
b00000000000000000000000000111111 ]
1i
#925
0i
#930
b00000000000000000000000001000000 ]
1i
#935
0i
#940
b00000000000000000000000001000001 ]
1i
#945
0i
#950
b00000000000000000000000001000010 ]
1i
#955
0i
#960
b00000000000000000000000001000011 ]
1i
#965
0i
#970
b00000000000000000000000001000100 ]
1i
#975
0i
#980
b00000000000000000000000001000101 ]
1i
#985
0i
#990
b00000000000000000000000001000110 ]
1i
#995
0i
#1000
b00000000000000000000000001000111 ]
1i
#1005
0i
#1010
b00000000000000000000000001001000 ]
1i
#1015
0i
#1020
b00000000000000000000000001001001 ]
1i
#1025
0i
#1030
b00000000000000000000000001001010 ]
1i
#1035
0i
#1040
b00000000000000000000000001001011 ]
1i
#1045
0i
#1050
b00000000000000000000000001001100 ]
1i
#1055
0i
#1060
b00000000000000000000000001001101 ]
1i
#1065
0i
#1070
b00000000000000000000000001001110 ]
1i
#1075
0i
#1080
b00000000000000000000000001001111 ]
1i
#1085
0i
#1090
b00000000000000000000000001010000 ]
1i
#1095
0i
#1100
b00000000000000000000000001010001 ]
1i
#1105
0i
#1110
b00000000000000000000000001010010 ]
1i
#1115
0i
#1120
b00000000000000000000000001010011 ]
1i
#1125
0i
#1130
b00000000000000000000000001010100 ]
1i
#1135
0i
#1140
b00000000000000000000000001010101 ]
1i
#1145
0i
#1150
b00000000000000000000000001010110 ]
1i
#1155
0i
#1160
b00000000000000000000000001010111 ]
1i
#1165
0i
#1170
b00000000000000000000000001011000 ]
1i
#1175
0i
#1180
b00000000000000000000000001011001 ]
1i
#1185
0i
#1190
b00000000000000000000000001011010 ]
1i
#1195
0i
#1200
b00000000000000000000000001011011 ]
1i
#1205
0i
#1210
b00000000000000000000000001011100 ]
1i
#1215
0i
#1220
b00000000000000000000000001011101 ]
1i
#1225
0i
#1230
b00000000000000000000000001011110 ]
1i
#1235
0i
#1240
b00000000000000000000000001011111 ]
1i
#1245
0i
#1250
b00000000000000000000000001100000 ]
1i
#1255
0i
#1260
b00000000000000000000000001100001 ]
1i
#1265
0i
#1270
b00000000000000000000000001100010 ]
1i
#1275
0i
#1280
b00000000000000000000000001100011 ]
1i
#1285
0i
#1290
0U
0[
1i
