simWorkspace/Axi4Rom/test.vcd
$version Generated by VerilatedVcd $end
$date Mon Nov 29 21:40:13 2021
 $end
$timescale   1ns $end

 $scope module TOP $end
  $var wire 13 1' axi4_araddr [12:0] $end
  $var wire  2 Q' axi4_arburst [1:0] $end
  $var wire  8 9' axi4_arid [7:0] $end
  $var wire  8 A' axi4_arlen [7:0] $end
  $var wire  1 )' axi4_arready $end
  $var wire  3 I' axi4_arsize [2:0] $end
  $var wire  1 !' axi4_arvalid $end
  $var wire 32 i' axi4_rdata [31:0] $end
  $var wire  8 q' axi4_rid [7:0] $end
  $var wire  1 #( axi4_rlast $end
  $var wire  1 a' axi4_rready $end
  $var wire  2 y' axi4_rresp [1:0] $end
  $var wire  1 Y' axi4_rvalid $end
  $var wire  1 +( clk $end
  $var wire  1 3( reset $end
  $scope module Axi4Rom $end
   $var wire  3 ; ar_fifo_io_availability [2:0] $end
   $var wire  3 3 ar_fifo_io_occupancy [2:0] $end
   $var wire 13 o" ar_fifo_io_pop_payload_addr [12:0] $end
   $var wire  2 1# ar_fifo_io_pop_payload_burst [1:0] $end
   $var wire  8 w" ar_fifo_io_pop_payload_id [7:0] $end
   $var wire  8 !# ar_fifo_io_pop_payload_len [7:0] $end
   $var wire  3 )# ar_fifo_io_pop_payload_size [2:0] $end
   $var wire  1 M% ar_fifo_io_pop_ready $end
   $var wire  1 + ar_fifo_io_pop_valid $end
   $var wire  1 # ar_fifo_io_push_ready $end
   $var wire 13 1' axi4_araddr [12:0] $end
   $var wire  2 Q' axi4_arburst [1:0] $end
   $var wire  8 9' axi4_arid [7:0] $end
   $var wire  8 A' axi4_arlen [7:0] $end
   $var wire  1 )' axi4_arready $end
   $var wire  3 I' axi4_arsize [2:0] $end
   $var wire  1 !' axi4_arvalid $end
   $var wire  1 U% axi4_r_state [0:0] $end
   $var wire 40 ]% axi4_r_state_string [39:0] $end
   $var wire 32 i' axi4_rdata [31:0] $end
   $var wire  8 q' axi4_rid [7:0] $end
   $var wire  1 #( axi4_rlast $end
   $var wire  1 a' axi4_rready $end
   $var wire  2 y' axi4_rresp [1:0] $end
   $var wire  1 Y' axi4_rvalid $end
   $var wire  1 +( clk $end
   $var wire  3 [ r_fifo_io_availability [2:0] $end
   $var wire  3 S r_fifo_io_occupancy [2:0] $end
   $var wire 32 9# r_fifo_io_pop_payload_data [31:0] $end
   $var wire  8 A# r_fifo_io_pop_payload_id [7:0] $end
   $var wire  1 Q# r_fifo_io_pop_payload_last $end
   $var wire  2 I# r_fifo_io_pop_payload_resp [1:0] $end
   $var wire  1 K r_fifo_io_pop_valid $end
   $var wire 32 g" r_fifo_io_push_payload_data [31:0] $end
   $var wire  1 C r_fifo_io_push_ready $end
   $var wire 13 Y# rd_addr [12:0] $end
   $var wire  2 q# rd_burst [1:0] $end
   $var wire  8 o& rd_cnt [7:0] $end
   $var wire  8 a# rd_id [7:0] $end
   $var wire  3 i# rd_size [2:0] $end
   $var wire  1 3( reset $end
   $var wire  1 w& when_Axi4Rom_l89 $end
   $scope module ar_fifo $end
    $var wire  1 +( clk $end
    $var wire  3 ; io_availability [2:0] $end
    $var wire  1 ;( io_flush $end
    $var wire  3 3 io_occupancy [2:0] $end
    $var wire 13 o" io_pop_payload_addr [12:0] $end
    $var wire  2 1# io_pop_payload_burst [1:0] $end
    $var wire  8 w" io_pop_payload_id [7:0] $end
    $var wire  8 !# io_pop_payload_len [7:0] $end
    $var wire  3 )# io_pop_payload_size [2:0] $end
    $var wire  1 M% io_pop_ready $end
    $var wire  1 + io_pop_valid $end
    $var wire 13 1' io_push_payload_addr [12:0] $end
    $var wire  2 Q' io_push_payload_burst [1:0] $end
    $var wire  8 9' io_push_payload_id [7:0] $end
    $var wire  8 A' io_push_payload_len [7:0] $end
    $var wire  3 I' io_push_payload_size [2:0] $end
    $var wire  1 # io_push_ready $end
    $var wire  1 !' io_push_valid $end
    $var wire  1 -! logic_empty $end
    $var wire  1 5! logic_full $end
    $var wire  2 }% logic_popPtr_value [1:0] $end
    $var wire  2 k logic_popPtr_valueNext [1:0] $end
    $var wire  1 ;( logic_popPtr_willClear $end
    $var wire  1 c logic_popPtr_willIncrement $end
    $var wire  1 s logic_popPtr_willOverflow $end
    $var wire  1 '& logic_popPtr_willOverflowIfInc $end
    $var wire  1 %! logic_popping $end
    $var wire  2 7& logic_ptrDif [1:0] $end
    $var wire  1 { logic_ptrMatch $end
    $var wire  2 m% logic_pushPtr_value [1:0] $end
    $var wire  2 ?" logic_pushPtr_valueNext [1:0] $end
    $var wire  1 ;( logic_pushPtr_willClear $end
    $var wire  1 7" logic_pushPtr_willIncrement $end
    $var wire  1 u! logic_pushPtr_willOverflow $end
    $var wire  1 u% logic_pushPtr_willOverflowIfInc $end
    $var wire  1 G" logic_pushing $end
    $var wire 34 y# logic_ram(0) [33:0] $end
    $var wire 34 {# logic_ram(1) [33:0] $end
    $var wire 34 }# logic_ram(2) [33:0] $end
    $var wire 34 !$ logic_ram(3) [33:0] $end
    $var wire  1 /& logic_risingOccupancy $end
    $var wire  1 3( reset $end
    $var wire  1 }! when_Stream_l933 $end
   $upscope $end
   $scope module r_fifo $end
    $var wire  1 +( clk $end
    $var wire  3 [ io_availability [2:0] $end
    $var wire  1 ;( io_flush $end
    $var wire  3 S io_occupancy [2:0] $end
    $var wire 32 9# io_pop_payload_data [31:0] $end
    $var wire  8 A# io_pop_payload_id [7:0] $end
    $var wire  1 Q# io_pop_payload_last $end
    $var wire  2 I# io_pop_payload_resp [1:0] $end
    $var wire  1 a' io_pop_ready $end
    $var wire  1 K io_pop_valid $end
    $var wire 32 g" io_push_payload_data [31:0] $end
    $var wire  8 a# io_push_payload_id [7:0] $end
    $var wire  1 c$ io_push_payload_last $end
    $var wire  2 C( io_push_payload_resp [1:0] $end
    $var wire  1 C io_push_ready $end
    $var wire  1 [$ io_push_valid $end
    $var wire  1 e! logic_empty $end
    $var wire  1 m! logic_full $end
    $var wire  2 O& logic_popPtr_value [1:0] $end
    $var wire  2 W" logic_popPtr_valueNext [1:0] $end
    $var wire  1 ;( logic_popPtr_willClear $end
    $var wire  1 O" logic_popPtr_willIncrement $end
    $var wire  1 '" logic_popPtr_willOverflow $end
    $var wire  1 W& logic_popPtr_willOverflowIfInc $end
    $var wire  1 _" logic_popping $end
    $var wire  2 g& logic_ptrDif [1:0] $end
    $var wire  1 U! logic_ptrMatch $end
    $var wire  2 ?& logic_pushPtr_value [1:0] $end
    $var wire  2 E! logic_pushPtr_valueNext [1:0] $end
    $var wire  1 ;( logic_pushPtr_willClear $end
    $var wire  1 =! logic_pushPtr_willIncrement $end
    $var wire  1 M! logic_pushPtr_willOverflow $end
    $var wire  1 G& logic_pushPtr_willOverflowIfInc $end
    $var wire  1 ]! logic_pushing $end
    $var wire 43 k$ logic_ram(0) [42:0] $end
    $var wire 43 m$ logic_ram(1) [42:0] $end
    $var wire 43 o$ logic_ram(2) [42:0] $end
    $var wire 43 q$ logic_ram(3) [42:0] $end
    $var wire  1 _& logic_risingOccupancy $end
    $var wire  1 3( reset $end
    $var wire  1 /" when_Stream_l933 $end
   $upscope $end
  $upscope $end
 $upscope $end
$enddefinitions $end


#0
1#
0+
b000 3
b100 ;
1C
0K
b000 S
b100 [
0c
b00 k
0s
1{
0%!
1-!
05!
1=!
b01 E!
0M!
1U!
1]!
1e!
0m!
0u!
0}!
0'"
1/"
07"
b00 ?"
0G"
0O"
b00 W"
0_"
b00100001011100111011001100101100 g"
b0000001001110 o"
b00101101 w"
b10101011 !#
b110 )#
b11 1#
b11001111101111110111110101111011 9#
b10100101 A#
b01 I#
0Q#
b1001000001000 Y#
b10001111 a#
b101 i#
b01 q#
b1101111011000001110100001011111010 y#
b0110011111101101101101011111110110 {#
b1111111011100111010000011111100110 }#
b0000000100110001100100101000101111 !$
1[$
0c$
b1010001011100101101010011010000000010110111 k$
b0010010100110101100010111101010001000111101 m$
b1100011101010101100001110010101110011010110 o$
b1110001010011110000011110110011010001010000 q$
1M%
0U%
b0100100101000100010011000100010100100000 ]%
b00 m%
0u%
b00 }%
0'&
0/&
b00 7&
b00 ?&
0G&
b00 O&
0W&
0_&
b00 g&
b10011110 o&
0w&
0!'
1)'
b1001111011000 1'
b01101100 9'
b10010010 A'
b111 I'
b01 Q'
0Y'
0a'
b11001111101111110111110101111011 i'
b10100101 q'
b01 y'
0#(
0+(
13(
0;(
b00 C(
#80
03(
#85
b001 S
b011 [
0=!
0U!
0]!
0e!
0/"
b00000000000000000000010010000010 g"
b0001011111010 o"
b00111010 w"
b11011000 !#
b011 )#
b00101101010011010000000010110111 9#
b00010111 A#
1Q#
0[$
b0001000111100100001011100111011001100101100 k$
b01 ?&
1_&
b01 g&
b00101101010011010000000010110111 i'
b00010111 q'
1#(
1+(
#87
0+(
#89
1K
b00100001011100111011001100101100 9#
b10001111 A#
b00 I#
0Q#
1Y'
b00100001011100111011001100101100 i'
b10001111 q'
b00 y'
0#(
1+(
#91
0+(
#93
1+(
#95
0+(
#97
1+(
#99
0+(
#101
1+(
#103
0+(
#105
1+(
#107
0+(
#109
1+(
#111
0+(
#113
1+(
#115
0+(
#117
1+(
#119
0+(
#121
1/"
1O"
b01 W"
1_"
1a'
1+(
#123
0+(
#125
0K
b000 S
b100 [
1U!
1e!
1}!
0/"
17"
b01 ?"
1G"
0O"
0_"
b10101100010111101010001000111101 9#
b00101001 A#
b01 I#
b01 O&
0_&
b00 g&
1!'
b0000000000000 1'
b00001111 A'
b010 I'
0Y'
b10101100010111101010001000111101 i'
b00101001 q'
b01 y'
1+(
#127
0+(
#129
b001 3
b011 ;
0{
0-!
b10 ?"
b0101000001111011011000000000000000 y#
b01 m%
1/&
b01 7&
b0010000000000 1'
b00000000 A'
1+(
#131
0+(
#133
1+
b010 3
b010 ;
1c
b01 k
1%!
0}!
b11 ?"
b0000000000000 o"
b01101100 w"
b00001111 !#
b010 )#
b01 1#
b0101000000000011011000010000000000 {#
b10 m%
b10 7&
b0100000000000 1'
b11111111 A'
1+(
#135
0+(
#137
0c
0%!
1u!
1}!
b00 ?"
b0010000000000 o"
b00000000 !#
b0000000000000 Y#
b01101100 a#
b010 i#
b0101011111111011011000100000000000 }#
0M%
1U%
b0100001001010101010100100101001101010100 ]%
b11 m%
1u%
b01 }%
b00001111 o&
b1000000000000 1'
b00 Q'
1+(
#139
0+(
#141
b011 3
b001 ;
1=!
b10 E!
1]!
0u!
1/"
b01 ?"
b00000000000000000000000000000000 g"
b0000000000100 Y#
b0001011111111011011001000000000000 !$
1[$
b00 m%
0u%
b11 7&
b00001110 o&
b1110000000000 1'
b01 Q'
1+(
#143
0+(
#145
0#
b100 3
b000 ;
b001 S
b011 [
1{
15!
b11 E!
0U!
0e!
0}!
07"
0G"
b00000000000000000000000000000001 g"
b0000000001000 Y#
b0101011111111011011001110000000000 y#
b0000110110000000000000000000000000000000000 m$
b01 m%
b00 7&
b10 ?&
1_&
b01 g&
b00001101 o&
0!'
0)'
1+(
#147
0+(
#149
1K
b010 S
b010 [
b00 E!
1M!
0/"
1O"
b10 W"
1_"
b00000000000000000000000000000010 g"
b00000000000000000000000000000000 9#
b01101100 A#
b00 I#
b0000000001100 Y#
b0000110110000000000000000000000000000000001 o$
b11 ?&
1G&
b10 g&
b00001100 o&
1Y'
b00000000000000000000000000000000 i'
b01101100 q'
b00 y'
1+(
#151
0+(
#153
b01 E!
0M!
b11 W"
b00000000000000000000000000000011 g"
b00000000000000000000000000000001 9#
b0000000010000 Y#
b0000110110000000000000000000000000000000010 q$
b00 ?&
0G&
b10 O&
b00001011 o&
b00000000000000000000000000000001 i'
1+(
#155
0+(
#157
b10 E!
1'"
b00 W"
b00000000000000000000000000000100 g"
b00000000000000000000000000000010 9#
b0000000010100 Y#
b0000110110000000000000000000000000000000011 k$
b01 ?&
b11 O&
1W&
b00001010 o&
b00000000000000000000000000000010 i'
1+(
#159
0+(
#161
b11 E!
0'"
b01 W"
b00000000000000000000000000000101 g"
b00000000000000000000000000000011 9#
b0000000011000 Y#
b0000110110000000000000000000000000000000100 m$
b10 ?&
b00 O&
0W&
b00001001 o&
b00000000000000000000000000000011 i'
1+(
#163
0+(
#165
b00 E!
1M!
b10 W"
b00000000000000000000000000000110 g"
b00000000000000000000000000000100 9#
b0000000011100 Y#
b0000110110000000000000000000000000000000101 o$
b11 ?&
1G&
b01 O&
b00001000 o&
b00000000000000000000000000000100 i'
1+(
#167
0+(
#169
b01 E!
0M!
b11 W"
b00000000000000000000000000000111 g"
b00000000000000000000000000000101 9#
b0000000100000 Y#
b0000110110000000000000000000000000000000110 q$
b00 ?&
0G&
b10 O&
b00000111 o&
b00000000000000000000000000000101 i'
1+(
#171
0+(
#173
b10 E!
1'"
b00 W"
b00000000000000000000000000001000 g"
b00000000000000000000000000000110 9#
b0000000100100 Y#
b0000110110000000000000000000000000000000111 k$
b01 ?&
b11 O&
1W&
b00000110 o&
b00000000000000000000000000000110 i'
1+(
#175
0+(
#177
b11 E!
0'"
b01 W"
b00000000000000000000000000001001 g"
b00000000000000000000000000000111 9#
b0000000101000 Y#
b0000110110000000000000000000000000000001000 m$
b10 ?&
b00 O&
0W&
b00000101 o&
b00000000000000000000000000000111 i'
1+(
#179
0+(
#181
b00 E!
1M!
b10 W"
b00000000000000000000000000001010 g"
b00000000000000000000000000001000 9#
b0000000101100 Y#
b0000110110000000000000000000000000000001001 o$
b11 ?&
1G&
b01 O&
b00000100 o&
b00000000000000000000000000001000 i'
1+(
#183
0+(
#185
b01 E!
0M!
b11 W"
b00000000000000000000000000001011 g"
b00000000000000000000000000001001 9#
b0000000110000 Y#
b0000110110000000000000000000000000000001010 q$
b00 ?&
0G&
b10 O&
b00000011 o&
b00000000000000000000000000001001 i'
1+(
#187
0+(
#189
b10 E!
1'"
b00 W"
b00000000000000000000000000001100 g"
b00000000000000000000000000001010 9#
b0000000110100 Y#
b0000110110000000000000000000000000000001011 k$
b01 ?&
b11 O&
1W&
b00000010 o&
b00000000000000000000000000001010 i'
1+(
#191
0+(
#193
b11 E!
0'"
b01 W"
b00000000000000000000000000001101 g"
b00000000000000000000000000001011 9#
b0000000111000 Y#
b0000110110000000000000000000000000000001100 m$
b10 ?&
b00 O&
0W&
b00000001 o&
b00000000000000000000000000001011 i'
1+(
#195
0+(
#197
b00 E!
1M!
b10 W"
b00000000000000000000000000001110 g"
b00000000000000000000000000001100 9#
b0000000111100 Y#
b0000110110000000000000000000000000000001101 o$
b11 ?&
1G&
b01 O&
b00000000 o&
1w&
b00000000000000000000000000001100 i'
1+(
#199
0+(
#201
1c
b10 k
1%!
b01 E!
0M!
1}!
b11 W"
b00000000000000000000000000001111 g"
b00000000000000000000000000001101 9#
b0000001000000 Y#
1c$
b0000110110000000000000000000000000000001110 q$
1M%
0U%
b0100100101000100010011000100010100100000 ]%
b00 ?&
0G&
b10 O&
b11111111 o&
0w&
b00000000000000000000000000001101 i'
1+(
#203
0+(
#205
1#
b011 3
b001 ;
0c
0{
0%!
05!
0=!
0]!
0}!
1'"
1/"
b00 W"
b00000000000000000000000000010000 g"
b0100000000000 o"
b11111111 !#
b00000000000000000000000000001110 9#
b0010000000000 Y#
0[$
0c$
b1000110110000000000000000000000000000001111 k$
0M%
1U%
b0100001001010101010100100101001101010100 ]%
b10 }%
0/&
b11 7&
b01 ?&
b11 O&
1W&
b00000000 o&
1w&
1)'
b00000000000000000000000000001110 i'
1+(
#207
0+(
#209
b001 S
b011 [
1c
b11 k
1%!
1=!
b10 E!
1]!
1}!
0'"
0/"
b01 W"
b00000000000000000000000100000000 g"
b00000000000000000000000000001111 9#
1Q#
b0010000000100 Y#
1[$
1c$
1M%
0U%
b0100100101000100010011000100010100100000 ]%
b00 O&
0W&
0_&
b01 g&
b11111111 o&
0w&
b00000000000000000000000000001111 i'
1#(
1+(
#211
0+(
#213
b010 3
b010 ;
0K
0c
0%!
0=!
0]!
0}!
0O"
0_"
b00000000000000000000000100000001 g"
b1000000000000 o"
b00 1#
b00000000000000000000000000001100 9#
0Q#
b0100000000000 Y#
0[$
0c$
b1000110110000000000000000000000000100000000 m$
0M%
1U%
b0100001001010101010100100101001101010100 ]%
b11 }%
1'&
b10 7&
b10 ?&
b01 O&
0Y'
b00000000000000000000000000001100 i'
0#(
1+(
#215
0+(
#217
1K
1=!
b11 E!
1]!
1O"
b10 W"
1_"
b00000000000000000000001000000000 g"
b00000000000000000000000100000000 9#
1Q#
b0100000000100 Y#
1[$
b11111110 o&
1Y'
b00000000000000000000000100000000 i'
1#(
1+(
#219
0+(
#221
0K
b00 E!
1M!
1/"
0O"
0_"
b00000000000000000000001000000001 g"
b00000000000000000000000000001101 9#
0Q#
b0100000001000 Y#
b0000110110000000000000000000000001000000000 o$
b11 ?&
1G&
b10 O&
b11111101 o&
0Y'
b00000000000000000000000000001101 i'
0#(
1+(
#223
0+(
#225
1K
b010 S
b010 [
b01 E!
0M!
0/"
1O"
b11 W"
1_"
b00000000000000000000001000000010 g"
b00000000000000000000001000000000 9#
b0100000001100 Y#
b0000110110000000000000000000000001000000001 q$
b00 ?&
0G&
1_&
b10 g&
b11111100 o&
1Y'
b00000000000000000000001000000000 i'
1+(
#227
0+(
#229
b10 E!
1'"
b00 W"
b00000000000000000000001000000011 g"
b00000000000000000000001000000001 9#
b0100000010000 Y#
b0000110110000000000000000000000001000000010 k$
b01 ?&
b11 O&
1W&
b11111011 o&
b00000000000000000000001000000001 i'
1+(
#231
0+(
#233
b11 E!
0'"
b01 W"
b00000000000000000000001000000100 g"
b00000000000000000000001000000010 9#
b0100000010100 Y#
b0000110110000000000000000000000001000000011 m$
b10 ?&
b00 O&
0W&
b11111010 o&
b00000000000000000000001000000010 i'
1+(
#235
0+(
#237
b00 E!
1M!
b10 W"
b00000000000000000000001000000101 g"
b00000000000000000000001000000011 9#
b0100000011000 Y#
b0000110110000000000000000000000001000000100 o$
b11 ?&
1G&
b01 O&
b11111001 o&
b00000000000000000000001000000011 i'
1+(
#239
0+(
#241
b01 E!
0M!
b11 W"
b00000000000000000000001000000110 g"
b00000000000000000000001000000100 9#
b0100000011100 Y#
b0000110110000000000000000000000001000000101 q$
b00 ?&
0G&
b10 O&
b11111000 o&
b00000000000000000000001000000100 i'
1+(
#243
0+(
#245
b10 E!
1'"
b00 W"
b00000000000000000000001000000111 g"
b00000000000000000000001000000101 9#
b0100000100000 Y#
b0000110110000000000000000000000001000000110 k$
b01 ?&
b11 O&
1W&
b11110111 o&
b00000000000000000000001000000101 i'
1+(
#247
0+(
#249
b11 E!
0'"
b01 W"
b00000000000000000000001000001000 g"
b00000000000000000000001000000110 9#
b0100000100100 Y#
b0000110110000000000000000000000001000000111 m$
b10 ?&
b00 O&
0W&
b11110110 o&
b00000000000000000000001000000110 i'
1+(
#251
0+(
#253
b00 E!
1M!
b10 W"
b00000000000000000000001000001001 g"
b00000000000000000000001000000111 9#
b0100000101000 Y#
b0000110110000000000000000000000001000001000 o$
b11 ?&
1G&
b01 O&
b11110101 o&
b00000000000000000000001000000111 i'
1+(
#255
0+(
#257
b01 E!
0M!
b11 W"
b00000000000000000000001000001010 g"
b00000000000000000000001000001000 9#
b0100000101100 Y#
b0000110110000000000000000000000001000001001 q$
b00 ?&
0G&
b10 O&
b11110100 o&
b00000000000000000000001000001000 i'
1+(
#259
0+(
#261
b10 E!
1'"
b00 W"
b00000000000000000000001000001011 g"
b00000000000000000000001000001001 9#
b0100000110000 Y#
b0000110110000000000000000000000001000001010 k$
b01 ?&
b11 O&
1W&
b11110011 o&
b00000000000000000000001000001001 i'
1+(
#263
0+(
#265
b11 E!
0'"
b01 W"
b00000000000000000000001000001100 g"
b00000000000000000000001000001010 9#
b0100000110100 Y#
b0000110110000000000000000000000001000001011 m$
b10 ?&
b00 O&
0W&
b11110010 o&
b00000000000000000000001000001010 i'
1+(
#267
0+(
#269
b00 E!
1M!
b10 W"
b00000000000000000000001000001101 g"
b00000000000000000000001000001011 9#
b0100000111000 Y#
b0000110110000000000000000000000001000001100 o$
b11 ?&
1G&
b01 O&
b11110001 o&
b00000000000000000000001000001011 i'
1+(
#271
0+(
#273
b01 E!
0M!
b11 W"
b00000000000000000000001000001110 g"
b00000000000000000000001000001100 9#
b0100000111100 Y#
b0000110110000000000000000000000001000001101 q$
b00 ?&
0G&
b10 O&
b11110000 o&
b00000000000000000000001000001100 i'
1+(
#275
0+(
#277
b10 E!
1'"
b00 W"
b00000000000000000000001000001111 g"
b00000000000000000000001000001101 9#
b0100001000000 Y#
b0000110110000000000000000000000001000001110 k$
b01 ?&
b11 O&
1W&
b11101111 o&
b00000000000000000000001000001101 i'
1+(
#279
0+(
#281
b11 E!
0'"
b01 W"
b00000000000000000000001000010000 g"
b00000000000000000000001000001110 9#
b0100001000100 Y#
b0000110110000000000000000000000001000001111 m$
b10 ?&
b00 O&
0W&
b11101110 o&
b00000000000000000000001000001110 i'
1+(
#283
0+(
#285
b00 E!
1M!
b10 W"
b00000000000000000000001000010001 g"
b00000000000000000000001000001111 9#
b0100001001000 Y#
b0000110110000000000000000000000001000010000 o$
b11 ?&
1G&
b01 O&
b11101101 o&
b00000000000000000000001000001111 i'
1+(
#287
0+(
#289
b01 E!
0M!
b11 W"
b00000000000000000000001000010010 g"
b00000000000000000000001000010000 9#
b0100001001100 Y#
b0000110110000000000000000000000001000010001 q$
b00 ?&
0G&
b10 O&
b11101100 o&
b00000000000000000000001000010000 i'
1+(
#291
0+(
#293
b10 E!
1'"
b00 W"
b00000000000000000000001000010011 g"
b00000000000000000000001000010001 9#
b0100001010000 Y#
b0000110110000000000000000000000001000010010 k$
b01 ?&
b11 O&
1W&
b11101011 o&
b00000000000000000000001000010001 i'
1+(
#295
0+(
#297
b11 E!
0'"
b01 W"
b00000000000000000000001000010100 g"
b00000000000000000000001000010010 9#
b0100001010100 Y#
b0000110110000000000000000000000001000010011 m$
b10 ?&
b00 O&
0W&
b11101010 o&
b00000000000000000000001000010010 i'
1+(
#299
0+(
#301
b00 E!
1M!
b10 W"
b00000000000000000000001000010101 g"
b00000000000000000000001000010011 9#
b0100001011000 Y#
b0000110110000000000000000000000001000010100 o$
b11 ?&
1G&
b01 O&
b11101001 o&
b00000000000000000000001000010011 i'
1+(
#303
0+(
#305
b01 E!
0M!
b11 W"
b00000000000000000000001000010110 g"
b00000000000000000000001000010100 9#
b0100001011100 Y#
b0000110110000000000000000000000001000010101 q$
b00 ?&
0G&
b10 O&
b11101000 o&
b00000000000000000000001000010100 i'
1+(
#307
0+(
#309
b10 E!
1'"
b00 W"
b00000000000000000000001000010111 g"
b00000000000000000000001000010101 9#
b0100001100000 Y#
b0000110110000000000000000000000001000010110 k$
b01 ?&
b11 O&
1W&
b11100111 o&
b00000000000000000000001000010101 i'
1+(
#311
0+(
#313
b11 E!
0'"
b01 W"
b00000000000000000000001000011000 g"
b00000000000000000000001000010110 9#
b0100001100100 Y#
b0000110110000000000000000000000001000010111 m$
b10 ?&
b00 O&
0W&
b11100110 o&
b00000000000000000000001000010110 i'
1+(
#315
0+(
#317
b00 E!
1M!
b10 W"
b00000000000000000000001000011001 g"
b00000000000000000000001000010111 9#
b0100001101000 Y#
b0000110110000000000000000000000001000011000 o$
b11 ?&
1G&
b01 O&
b11100101 o&
b00000000000000000000001000010111 i'
1+(
#319
0+(
#321
b01 E!
0M!
b11 W"
b00000000000000000000001000011010 g"
b00000000000000000000001000011000 9#
b0100001101100 Y#
b0000110110000000000000000000000001000011001 q$
b00 ?&
0G&
b10 O&
b11100100 o&
b00000000000000000000001000011000 i'
1+(
#323
0+(
#325
b10 E!
1'"
b00 W"
b00000000000000000000001000011011 g"
b00000000000000000000001000011001 9#
b0100001110000 Y#
b0000110110000000000000000000000001000011010 k$
b01 ?&
b11 O&
1W&
b11100011 o&
b00000000000000000000001000011001 i'
1+(
#327
0+(
#329
b11 E!
0'"
b01 W"
b00000000000000000000001000011100 g"
b00000000000000000000001000011010 9#
b0100001110100 Y#
b0000110110000000000000000000000001000011011 m$
b10 ?&
b00 O&
0W&
b11100010 o&
b00000000000000000000001000011010 i'
1+(
#331
0+(
#333
b00 E!
1M!
b10 W"
b00000000000000000000001000011101 g"
b00000000000000000000001000011011 9#
b0100001111000 Y#
b0000110110000000000000000000000001000011100 o$
b11 ?&
1G&
b01 O&
b11100001 o&
b00000000000000000000001000011011 i'
1+(
#335
0+(
#337
b01 E!
0M!
b11 W"
b00000000000000000000001000011110 g"
b00000000000000000000001000011100 9#
b0100001111100 Y#
b0000110110000000000000000000000001000011101 q$
b00 ?&
0G&
b10 O&
b11100000 o&
b00000000000000000000001000011100 i'
1+(
#339
0+(
#341
b10 E!
1'"
b00 W"
b00000000000000000000001000011111 g"
b00000000000000000000001000011101 9#
b0100010000000 Y#
b0000110110000000000000000000000001000011110 k$
b01 ?&
b11 O&
1W&
b11011111 o&
b00000000000000000000001000011101 i'
1+(
#343
0+(
#345
b11 E!
0'"
b01 W"
b00000000000000000000001000100000 g"
b00000000000000000000001000011110 9#
b0100010000100 Y#
b0000110110000000000000000000000001000011111 m$
b10 ?&
b00 O&
0W&
b11011110 o&
b00000000000000000000001000011110 i'
1+(
#347
0+(
#349
b00 E!
1M!
b10 W"
b00000000000000000000001000100001 g"
b00000000000000000000001000011111 9#
b0100010001000 Y#
b0000110110000000000000000000000001000100000 o$
b11 ?&
1G&
b01 O&
b11011101 o&
b00000000000000000000001000011111 i'
1+(
#351
0+(
#353
b01 E!
0M!
b11 W"
b00000000000000000000001000100010 g"
b00000000000000000000001000100000 9#
b0100010001100 Y#
b0000110110000000000000000000000001000100001 q$
b00 ?&
0G&
b10 O&
b11011100 o&
b00000000000000000000001000100000 i'
1+(
#355
0+(
#357
b10 E!
1'"
b00 W"
b00000000000000000000001000100011 g"
b00000000000000000000001000100001 9#
b0100010010000 Y#
b0000110110000000000000000000000001000100010 k$
b01 ?&
b11 O&
1W&
b11011011 o&
b00000000000000000000001000100001 i'
1+(
#359
0+(
#361
b11 E!
0'"
b01 W"
b00000000000000000000001000100100 g"
b00000000000000000000001000100010 9#
b0100010010100 Y#
b0000110110000000000000000000000001000100011 m$
b10 ?&
b00 O&
0W&
b11011010 o&
b00000000000000000000001000100010 i'
1+(
#363
0+(
#365
b00 E!
1M!
b10 W"
b00000000000000000000001000100101 g"
b00000000000000000000001000100011 9#
b0100010011000 Y#
b0000110110000000000000000000000001000100100 o$
b11 ?&
1G&
b01 O&
b11011001 o&
b00000000000000000000001000100011 i'
1+(
#367
0+(
#369
b01 E!
0M!
b11 W"
b00000000000000000000001000100110 g"
b00000000000000000000001000100100 9#
b0100010011100 Y#
b0000110110000000000000000000000001000100101 q$
b00 ?&
0G&
b10 O&
b11011000 o&
b00000000000000000000001000100100 i'
1+(
#371
0+(
#373
b10 E!
1'"
b00 W"
b00000000000000000000001000100111 g"
b00000000000000000000001000100101 9#
b0100010100000 Y#
b0000110110000000000000000000000001000100110 k$
b01 ?&
b11 O&
1W&
b11010111 o&
b00000000000000000000001000100101 i'
1+(
#375
0+(
#377
b11 E!
0'"
b01 W"
b00000000000000000000001000101000 g"
b00000000000000000000001000100110 9#
b0100010100100 Y#
b0000110110000000000000000000000001000100111 m$
b10 ?&
b00 O&
0W&
b11010110 o&
b00000000000000000000001000100110 i'
1+(
#379
0+(
#381
b00 E!
1M!
b10 W"
b00000000000000000000001000101001 g"
b00000000000000000000001000100111 9#
b0100010101000 Y#
b0000110110000000000000000000000001000101000 o$
b11 ?&
1G&
b01 O&
b11010101 o&
b00000000000000000000001000100111 i'
1+(
#383
0+(
#385
b01 E!
0M!
b11 W"
b00000000000000000000001000101010 g"
b00000000000000000000001000101000 9#
b0100010101100 Y#
b0000110110000000000000000000000001000101001 q$
b00 ?&
0G&
b10 O&
b11010100 o&
b00000000000000000000001000101000 i'
1+(
#387
0+(
#389
b10 E!
1'"
b00 W"
b00000000000000000000001000101011 g"
b00000000000000000000001000101001 9#
b0100010110000 Y#
b0000110110000000000000000000000001000101010 k$
b01 ?&
b11 O&
1W&
b11010011 o&
b00000000000000000000001000101001 i'
1+(
#391
0+(
#393
b11 E!
0'"
b01 W"
b00000000000000000000001000101100 g"
b00000000000000000000001000101010 9#
b0100010110100 Y#
b0000110110000000000000000000000001000101011 m$
b10 ?&
b00 O&
0W&
b11010010 o&
b00000000000000000000001000101010 i'
1+(
#395
0+(
#397
b00 E!
1M!
b10 W"
b00000000000000000000001000101101 g"
b00000000000000000000001000101011 9#
b0100010111000 Y#
b0000110110000000000000000000000001000101100 o$
b11 ?&
1G&
b01 O&
b11010001 o&
b00000000000000000000001000101011 i'
1+(
#399
0+(
#401
b01 E!
0M!
b11 W"
b00000000000000000000001000101110 g"
b00000000000000000000001000101100 9#
b0100010111100 Y#
b0000110110000000000000000000000001000101101 q$
b00 ?&
0G&
b10 O&
b11010000 o&
b00000000000000000000001000101100 i'
1+(
#403
0+(
#405
b10 E!
1'"
b00 W"
b00000000000000000000001000101111 g"
b00000000000000000000001000101101 9#
b0100011000000 Y#
b0000110110000000000000000000000001000101110 k$
b01 ?&
b11 O&
1W&
b11001111 o&
b00000000000000000000001000101101 i'
1+(
#407
0+(
#409
b11 E!
0'"
b01 W"
b00000000000000000000001000110000 g"
b00000000000000000000001000101110 9#
b0100011000100 Y#
b0000110110000000000000000000000001000101111 m$
b10 ?&
b00 O&
0W&
b11001110 o&
b00000000000000000000001000101110 i'
1+(
#411
0+(
#413
b00 E!
1M!
b10 W"
b00000000000000000000001000110001 g"
b00000000000000000000001000101111 9#
b0100011001000 Y#
b0000110110000000000000000000000001000110000 o$
b11 ?&
1G&
b01 O&
b11001101 o&
b00000000000000000000001000101111 i'
1+(
#415
0+(
